1153521	PamViIqV7N3	\N	2014-01-03 18:45:02.437	2014-01-03 18:45:02.437	ANC Indicators	ANC Indicators	{"indicators":["Uvn6LCg7dVU","ReUHfIn0pTQ","OdiHJayrsKo","sB79w2hiLp8","AUqdhY4mpvp","dwEq7wi6nXV","c8fABiNpT0B","Tt5TAvdfdVK","puykO1tbcdi","Lzg9LtG1xg3"]}
1153522	SlnKgEl8Zuc	\N	2014-01-03 19:02:09.018	2014-01-03 19:02:09.018	Indicator groups	Indicator groups	{"indicatorGroups":["oehv9EO3vP7","LWvy9lMdSlH","r5HxQkux3GD","RsvclmONCT3","srxUNt2w5jn","VMAd8jORtWW","ZA6xQWZboe2","iSzPwrNnKtX","YTeRMLGtger","LMJd5I0UgHN","EdDc97EJUdd","kjo39T5x7ie","PoBSb42oRAw"]}
1153524	NpMOXy8jmGs	\N	2014-01-03 19:31:27.704	2014-01-03 19:33:40.211	ART data element groups	ART data element groups	{"dataElementGroups":["bdiyMm9qZl5","s8FiXqB2DhB","TcxHxMlYzpv","vxIWSNeEcf7","zz1lNBgRKWU"]}
1153526	ofq6jo65L6r	\N	2014-01-05 20:26:48.321	2014-01-05 20:26:48.321	PHU data sets	PHU data sets	{"dataSets":["eZDhcZi6FLP","BfMAe6Itzgt","QX4ZTUbOt3a","joWPywO7yOJ","N4fIX1HL3TQ"]}
1153527	doBfQh6zQub	\N	2014-01-05 20:33:59.92	2014-01-05 20:33:59.92	ANC standard reports	ANC standard reports	{"reports":["Kvg1AhYHM8Q","qYVNH1wkZR0","AMERNML55Tg","Cb2BcgxBUPz"]}
1153528	EiRumbnQzei	\N	2014-01-05 20:34:16.678	2014-01-05 20:34:16.678	Constants	Constants	{"constants":["bCqvfPR02Im"]}
240015	m3pyMzPh8ON	\N	2014-12-28 21:00:19.274	2014-12-28 21:00:19.275	Child Health Data Set	Child Health Data Set	{"dataSets":["BfMAe6Itzgt"]}
\.


