888984	Northern Area	J40PpdN4Wkk	\N	2017-01-26 17:43:47.259	\N	2017-01-26 17:43:47.259	Northern Area	1150127	rw------	\N
888985	Western Area	b0EsAxm8Nge	\N	2017-01-26 17:44:20.168	\N	2017-01-26 17:44:20.168	Western Area	1150127	rw------	\N
888986	Southern Area	jqBqIXoXpfy	\N	2017-01-26 17:45:00.717	\N	2017-01-26 17:45:00.717	Southern Area	1150127	rw------	\N
888987	Eastern Area	nlX2VoouN63	\N	2017-01-26 17:45:32.748	\N	2017-01-26 17:45:32.748	Eastern Area	1150127	rw------	\N
368760	District	w1Atoz18PCL	District	2011-12-24 12:24:24.017	\N	2011-12-24 12:24:24.017	District	1150127	rw------	\N
368762	Country	RpbiCJpIYEj	Country	2011-12-24 12:24:24.017	\N	2011-12-24 12:24:24.017	Country	1150127	rw------	\N
169351	CHP	uYxK4wmcPqA	CHP	2012-11-13 14:35:45.601	08.png	2012-11-13 14:35:45.601	CHP	1150127	rw------	\N
368989	Hospital	tDZVQ1WtwpA	Hospital	2012-11-13 14:35:55.844	05.png	2012-11-13 14:35:55.844	Hospital	1150127	rw------	\N
169358	Mission	w0gFTTmsUcF	Mission	2012-11-13 14:36:21.259	07.png	2012-11-13 14:36:21.259	Mission	1150127	rw------	\N
169357	NGO	PVLOW4bCshG	NGO	2012-11-13 14:36:27.411	11.png	2012-11-13 14:36:27.411	NGO	1150127	rw------	\N
169355	Private Clinic	MAs88nJc9nL	Private Clinic	2012-11-13 14:36:32.497	01.png	2012-11-13 14:36:32.497	Private Clinic	1150127	rw------	\N
169353	Public facilities	oRVt7g429ZO	Public facilities	2012-11-13 16:18:46.276	18.png	2012-11-13 16:18:46.276	Public facilities	1150127	rw------	\N
169352	MCHP	EYbopBOJWsW	MCHP	2012-11-13 16:18:46.319	10.png	2012-11-13 16:18:46.319	MCHP	1150127	rw------	\N
1150494	Rural	GGghZsfu7qV	\N	2013-03-06 16:46:10.277		2013-03-06 16:46:06.754	Rural	1150127	rw------	\N
1150495	Urban	f25dqv3Y7Z0	\N	2013-03-06 16:46:20.584		2013-03-06 16:46:20.584	Urban	1150127	rw------	\N
368990	Clinic	RXL3lPSK8oG	Clinic	2013-09-25 17:53:24.301	14.png	2012-11-13 14:36:04.762	Clinic	1150127	rw------	\N
169350	CHC	CXw2yu5fodb	CHC	2014-09-29 20:28:01.093	16.png	2012-11-13 14:35:22.574	CHC	1150127	rw------	\N
368761	Chiefdom	gzcv65VyaGq	Chiefdom	2014-09-29 20:28:06.888		2011-12-24 12:24:24.017	Chiefdom	1150127	rw------	\N
\.


