1153391	614
1153391	574789
1153391	211279
1153391	211268
1153391	211232
1153391	576
1153391	197437
1153391	278400
1153391	211249
1153391	226230
1153391	204941
1153391	226265
1153391	222742
1153391	255006
1153391	278337
1153391	254959
1153391	193230
1153391	15
1153391	646
1153391	193252
1153391	233366
1153391	197415
1153391	621
1153391	233322
1153391	278327
1153391	1095
1153391	193210
1153391	255015
1153391	222716
1153391	193195
1153391	255064
1153391	254983
1153391	193283
1153391	211258
1153391	222638
1153391	268160
1153391	233329
1153391	260390
1153391	233404
1153391	268170
1153391	193238
1153391	278353
1153391	268190
1153391	247074
1153391	278344
1153391	260414
1153391	233362
1153391	642
1153391	222669
1153391	211229
1153391	204884
1153391	204864
1153391	1144
1153391	268172
1153391	197420
1153391	233321
1153391	193232
1153391	254961
1153391	226264
1153391	278317
1153391	254978
1153391	233370
1153391	222684
1153391	247021
1153391	260429
1153391	233328
1153391	233336
1153391	204912
1153391	260383
1153391	211253
1153391	254955
1153391	193257
1153391	278399
1153391	211222
1153391	211251
1153391	246998
1153391	222732
1153391	193217
1153391	1065
1153391	193237
1153391	1072
1153391	268159
1153391	233377
1153391	247027
1153391	233351
1153391	260405
1153391	172172
1153391	278393
1153391	822
1153391	828
1153391	193293
1153391	193271
1153391	197446
1153391	233356
1153391	233372
1153391	278395
1153391	260425
1153391	678894
1153391	268196
1153391	193234
1153391	222620
1153391	222651
1153391	222688
1153391	204859
1153391	204888
1153391	193290
1153391	278375
1153391	278402
1153391	222679
1153391	246994
1153391	255027
1153391	193284
1153391	278333
1153391	247071
1153391	268248
1153391	193211
1153391	651069
1153391	278361
1153391	247091
1153391	233345
1153391	260441
1153391	278336
1153391	260430
1153391	577
1153391	278338
1153391	268228
1153391	197405
1153391	204938
1153391	260421
1153391	233387
1153391	233327
1153391	678892
1153391	255022
1153391	247069
1153391	222643
1153391	820
1153391	197430
1153391	255055
1153391	211223
1153391	1010
1153391	193298
1153391	233340
1153391	247088
1153391	222664
1153391	193216
1153391	255017
1153391	226252
1153391	598
1153391	226216
1153391	222655
1153391	222712
1153391	583
1153391	247009
1153391	247024
1153391	204870
1153391	260432
1153391	197427
1153391	197417
1153391	247092
1153391	268241
1153391	278316
1153391	193278
1153391	247041
1153391	247016
1153391	247019
1153391	268189
1153391	255040
1153391	197426
1153391	233378
1153391	254947
1153391	197412
1153391	193212
1153391	193241
1153391	254972
1153391	197428
1153391	254971
1153391	260401
1153391	278313
1153391	222656
1153391	222703
1153391	222728
1153391	226249
1153391	211224
1153391	197409
1153391	8382
1153391	260443
1153391	278321
1153391	268171
1153391	193306
1153391	226218
1153391	197438
1153391	559
1153391	193250
1153391	222721
1153391	1151
1153391	247000
1153391	586
1153391	978
1153391	268165
1153391	193264
1153391	226271
1153391	278373
1153391	268182
1153391	204873
1153391	204878
1153391	268183
1153391	268156
1153391	578
1153391	204931
1153391	247032
1153391	268210
1153391	193291
1153391	268158
1153391	226262
1153391	222699
1153391	268227
1153391	204898
1153391	278347
1153391	247026
1153391	193281
1153391	254986
1153391	193231
1153391	845
1153391	233318
1153391	247093
1153391	226246
1153391	204914
1153391	226268
1153391	278343
1153391	226261
1153391	1138229
1153391	204868
1153391	193304
1153391	268194
1153391	424885
1153391	197404
1153391	849
1153391	226259
1153391	926000
1153391	278342
1153391	211274
1153391	268155
1153391	233337
1153391	211226
1153391	543012
1153391	222744
1153391	73733
1153391	204879
1153391	543008
1153391	678887
1153391	255042
1153391	24765
1153391	260386
1153391	211254
1153391	211261
1153391	260380
1153391	671757
1153391	204902
1153391	247072
1153391	681045
1153391	758903
1153391	222717
1153391	222622
1153391	222697
1153391	278354
1153391	204896
1153391	247005
1153391	193220
1153391	222693
1153391	204895
1153391	226235
1153391	1100
1153391	678886
1153391	952
1153391	254994
1153391	211263
1153391	204874
1153391	260409
1153391	254975
1153391	197425
1153391	278359
1153391	247065
1153391	278381
1153391	278382
1153391	254969
1153391	222625
1153391	222671
1153391	268238
1153391	255057
1153391	278369
1153391	197416
1153391	278350
1153391	278341
1153391	197388
1153391	278368
1153391	278358
1153391	255033
1153391	254987
1153391	254985
1153391	255056
1153391	278374
1153391	254958
1153391	197396
1153391	247051
1153391	278394
1153391	278365
1153391	247030
1153391	247056
1153391	197401
1153391	268230
1153391	247090
1153391	247014
1153391	197419
1153391	247075
1153391	254974
1153391	254966
1153391	278314
1153391	278318
1153391	247052
1153391	278332
1153391	278387
1153391	278320
1153391	278340
1153391	247015
1153391	247094
1153391	247076
1153391	278331
1153391	254953
1153391	268152
1153391	211233
1153391	254948
1153391	254952
1153391	268246
1153391	246995
1153391	246992
1153391	247028
1153391	247057
1153391	247004
1153391	247064
1153391	247045
1153391	247053
1153391	278396
1153391	254962
1153391	254970
1153391	247050
1153391	247070
1153391	254968
1153391	247081
1153391	268236
1153391	247067
1153391	247022
1153391	247060
1153391	247061
1153391	197395
1153391	247048
1153391	247040
1153391	247020
1153391	197418
1153391	585
1153391	247001
1153391	246993
1153391	268243
1153391	247043
1153391	278392
1153391	255054
1153391	278377
1153391	193205
1153391	278356
1153391	278330
1153391	254984
1153391	268244
1153391	254963
1153391	255058
1153391	193259
1153391	255018
1153391	1122
1153391	255012
1153391	254965
1153391	278378
1153391	193213
1153391	595
1153391	193209
1153391	268242
1153391	211265
1153391	255011
1153391	254993
1153391	268233
1153391	254964
1153391	193202
1153391	255009
1153391	278386
1153391	268245
1153391	193225
1153391	193207
1153391	193197
1153391	254996
1153391	193269
1153391	255062
1153391	255066
1153391	193248
1153391	193227
1153391	193254
1153391	211244
1153391	193193
1153391	268154
1153391	193292
1153391	193244
1153391	193289
1153391	268188
1153391	268187
1153391	193287
1153391	268164
1153391	211269
1153391	193196
1153391	268168
1153391	193253
1153391	193307
1153391	193223
1153391	193288
1153391	193242
1153391	211247
1153391	193246
1153391	255052
1153391	193279
1153391	193294
1153391	193222
1153391	254989
1153391	193218
1153391	193247
1153391	254991
1153391	193280
1153391	193243
1153391	193265
1153391	255029
1153391	233371
1153391	211219
1153391	233399
1153391	233393
1153391	834
1153391	233334
1153391	233335
1153391	233381
1153391	233382
1153391	233403
1153391	1114
1153391	233384
1153391	233342
1153391	233401
1153391	233368
1153391	255047
1153391	211275
1153391	211238
1153391	233326
1153391	1107
1153391	193258
1153391	211237
1153391	233330
1153391	193303
1153391	824
1153391	233406
1153391	255000
1153391	211240
1153391	653
1153391	233398
1153391	839
1153391	843
1153391	233358
1153391	969
1153391	211255
1153391	233367
1153391	211215
1153391	826
1153391	233376
1153391	211230
1153391	193282
1153391	233341
1153391	233361
1153391	268215
1153391	260407
1153391	233346
1153391	260396
1153391	602
1153391	644
1153391	260394
1153391	233313
1153391	233350
1153391	617
1153391	619
1153391	233353
1153391	233320
1153391	1082
1153391	1126
1153391	1050
1153391	1164
1153391	639
1153391	260424
1153391	1054
1153391	255043
1153391	233316
1153391	2732
1153391	260389
1153391	233331
1153391	260385
1153391	1069
1153391	260387
1153391	1038
1153391	268176
1153391	233319
1153391	260399
1153391	233323
1153391	1058
1153391	233315
1153391	260402
1153391	651
1153391	260403
1153391	204881
1153391	268218
1153391	204891
1153391	193297
1153391	268219
1153391	268195
1153391	204899
1153391	268157
1153391	204901
1153391	268207
1153391	268204
1153391	193296
1153391	268193
1153391	204911
1153391	268209
1153391	204863
1153391	204916
1153391	204865
1153391	204926
1153391	193268
1153391	193301
1153391	268214
1153391	268224
1153391	233360
1153391	193233
1153391	268175
1153391	204883
1153391	204904
1153391	193235
1153391	204876
1153391	268153
1153391	193275
1153391	193274
1153391	204882
1153391	204936
1153391	247079
1153391	193236
1153391	268181
1153391	1103
1153391	204930
1153391	268221
1153391	204858
1153391	204872
1153391	260442
1153391	222738
1153391	222660
1153391	260427
1153391	222658
1153391	222680
1153391	222681
1153391	222678
1153391	260431
1153391	222740
1153391	222635
1153391	222727
1153391	222689
1153391	260382
1153391	268216
1153391	222640
1153391	222747
1153391	222637
1153391	222636
1153391	222670
1153391	222745
1153391	226260
1153391	222746
1153391	260433
1153391	222736
1153391	222641
1153391	260435
1153391	260423
1153391	222665
1153391	222730
1153391	222661
1153391	222653
1153391	260411
1153391	260391
1153391	222624
1153391	222729
1153391	260436
1153391	260415
1153391	204866
1153391	260412
1153391	260418
1153391	222735
1153391	226241
1153391	222701
1153391	226278
1153391	260426
1153391	226270
1153391	226266
1153391	222698
1153391	226234
1153391	226267
1153391	197447
1153391	247011
1153391	197399
1153391	247035
1153391	226229
1153391	226236
1153391	226215
1153391	222722
1153391	226224
1153391	247034
1153391	222719
1153391	193272
1153391	268240
1153391	222674
1153391	197435
1153391	222713
1153391	222683
1153391	226255
1153391	211250
1153391	268192
1153391	222700
1153391	197423
1153391	226247
1153391	222720
1153391	222752
1153391	233379
1153391	197444
1153391	247078
1153391	211234
1153391	197443
1153391	193201
1153391	193219
1153391	625
1153391	233397
1153391	278324
1153391	841
1153391	268223
1153391	254981
1153391	247054
1153391	246996
1153391	254973
1153391	278328
1153391	197387
1153391	226251
1153391	197389
1153391	197393
1153391	222650
1153391	226243
1153391	222667
1153391	255008
1153391	278329
1153391	579
1153391	222626
1153391	226223
1153391	581
1153391	580
1153391	573
1153391	255001
1153391	247017
1153391	233333
1153391	278315
1153391	255010
1153391	260416
1153391	278357
1153391	73727
1153391	574
1153391	204913
1153391	24767
1153391	260408
1153391	222623
1153391	222654
1153391	222657
1153391	222629
1153391	204880
1153391	278403
1153391	268173
1153391	222694
1153391	222631
1153391	268167
1153391	222685
1153391	260444
1153391	222705
1153391	246999
1153391	193299
1153391	197407
1153391	222632
1153391	278401
1153391	222633
1153391	222686
1153391	278397
1153391	222673
1153391	278351
1153391	247006
1153391	204942
1153391	8380
1153391	278352
1153391	836
1153391	1138230
1153391	204937
1153391	832
1153391	707826
1153391	260398
1153391	254998
1153391	222702
1153391	246997
1153391	109308
1153391	758907
1153391	260438
1153391	278339
1153391	204919
1153391	254995
1153391	1161
1153391	204922
1153391	758927
1153391	222692
1153391	1156
1153391	278360
1153391	8384
1153391	260406
1153391	8388
1153391	260439
1153391	758905
1153391	193300
1153391	260413
1153391	278362
1153391	204921
1153391	233338
1153391	204917
1153391	222695
1153391	1117
1153391	1029
1153391	260393
1153391	268179
1153391	260381
1153391	255024
1153391	73739
1153391	671758
1153391	204918
1153391	247031
1153391	204908
1153391	630
1153391	268180
1153391	260379
1153391	254957
1153391	222668
1153391	758917
1153391	247063
1153391	758915
1153391	774396
1153391	247077
1153391	1109
1153391	226227
1153391	222676
1153391	197391
1153391	268185
1153391	1147
1153391	247023
1153391	204903
1153391	255023
1153391	255021
1153391	1046
1153391	758923
1153391	204906
1153391	193226
1153391	247073
1153391	758911
1153391	758925
1153391	247087
1153391	254956
1153391	204909
1153391	636
1153391	260395
1153391	247085
1153391	193240
1153391	211277
1153391	268203
1153391	204871
1153391	193255
1153391	268201
1153391	193270
1153391	268177
1153391	204893
1153391	193214
1153391	204885
1153391	268200
1153391	204900
1153391	172176
1153391	211278
1153391	268166
1153391	193263
1153391	204928
1153391	211221
1153391	211273
1153391	268162
1153391	204860
1153391	268206
1153391	73737
1153391	204934
1153391	197392
1153391	193273
1153391	268208
1153391	193229
1153391	172174
1153391	193221
1153391	193262
1153391	211218
1153391	204897
1153391	268178
1153391	260422
1153391	204932
1153391	268151
1153391	204892
1153391	204862
1153391	255003
1153391	860109
1153391	254979
1153391	222718
1153391	226228
1153391	278335
1153391	226237
1153391	255004
1153391	247046
1153391	211266
1153391	73747
1153391	222714
1153391	860110
1153391	233357
1153391	226239
1153391	233343
1153391	278323
1153391	226238
1153391	226233
1153391	222711
1153391	197400
1153391	222707
1153391	211252
1153391	222618
1153391	211257
1153391	226226
1153391	278346
1153391	211264
1153391	247047
1153391	211267
1153391	937350
1153391	254977
1153391	211260
1153391	278334
1153391	211259
1153391	278325
1153391	255002
1153391	255016
1153391	254990
1153391	222621
1153391	222715
1153391	233354
1153391	803066
1153391	543018
1153391	255065
1153391	255045
1153391	193208
1153391	193200
1153391	651068
1153391	255036
1153391	226254
1153391	233386
1153391	255032
1153391	193194
1153391	226250
1153391	593371
1153391	226217
1153391	651070
1153391	255049
1153391	247059
1153391	255059
1153391	233395
1153391	233373
1153391	233396
1153391	255038
1153391	233400
1153391	254951
1153391	226245
1153391	255063
1153391	233385
1153391	233312
1153391	255044
1153391	255060
1153391	233380
1153391	255039
1153391	543092
1153391	255028
1153391	233374
1153391	226248
1153391	255034
1153391	226273
1153391	255050
1153391	609
1153391	255035
1153391	543020
1153391	847
1153391	197410
1153391	651065
1153391	255014
1153391	222644
1153391	197433
1153391	197442
1153391	543050
1153391	678891
1153391	651073
1153391	197439
1153391	543058
1153391	543056
1153391	543002
1153391	678893
1153391	543052
1153391	278364
1153391	543041
1153391	540552
1153391	197422
1153391	197414
1153391	543039
1153391	197434
1153391	222649
1153391	222639
1153391	197411
1153391	543004
1153391	222645
1153391	211216
1153391	678889
1153391	543045
1153391	233391
1153391	540553
1153391	678888
1153391	543010
1153391	8394
1153391	651074
1153391	226256
1153391	254949
1153391	222647
1153391	222734
1153391	254954
1153391	278390
1153391	278391
1153391	211236
1153391	211248
1153391	278376
1153391	211245
1153391	268235
1153391	222737
1153391	268213
1153391	268234
1153391	255025
1153391	233364
1153391	278385
1153391	268229
1153391	211231
1153391	278379
1153391	268247
1153391	226277
1153391	278389
1153391	211225
1153391	247042
1153391	268237
1153391	268226
1153391	247039
1153391	226220
1153391	222739
1153391	233405
1153391	8392
1153391	226272
1153391	233363
1153391	233369
1153391	278383
1153391	193204
1153391	268250
1153391	233407
1153391	268231
1153391	268211
1153391	211246
1153391	278388
1153391	222748
1153391	222753
1153391	853
1153391	222696
1153391	211239
1153391	222741
1153391	222724
1153391	222750
1153391	278371
1153391	222749
1153391	211241
1153391	211214
1153391	204867
1153391	651071
1153391	226242
1153391	278326
1153391	222663
1153391	268239
1153391	278363
1153391	851
1153391	204886
1153391	247084
1153391	222691
1153391	8386
1153391	193256
1153391	8522
1153391	278322
1153391	197394
1153391	973
1153391	222666
1153391	1027
1153391	1023
1153391	758913
1153391	1043
1153391	222708
1153391	193261
1153391	222662
1153391	222628
1153391	803065
1153391	707825
1153391	247036
1153391	255007
1153391	222710
1153391	233389
1153391	204889
1153391	1169
1153391	841880
1153391	830
1153391	278348
1153391	211271
1153391	233347
1153391	254997
1153391	686723
1153391	268222
1153391	193276
1153391	204905
1153391	247029
1153391	278380
1153391	260419
1153391	193305
1153391	211272
1153391	233349
1153391	268186
1153391	278370
1153391	8399
1153391	226257
1153391	222704
1153391	278349
1153391	1062
1153391	278398
1153391	678885
1153391	543062
1153391	268198
1153391	247007
1153391	1088
1153391	260434
1153391	222675
1153391	278404
1153391	803064
1153391	774397
1153391	197403
1153391	255019
1153391	193251
1153391	268161
1153391	204927
1153391	204923
1153391	193260
1153391	247082
1153391	204890
1153391	254980
1153391	268205
1153391	1142
1153391	204935
1153391	197390
1153391	247010
1153391	254988
1153391	211276
1153391	758919
1153391	226222
1153391	268199
1153391	204907
1153391	925999
1153391	758909
1153391	278345
1153391	758921
1153391	222709
1153391	204940
1153391	543016
1153391	543006
1153391	255013
1153391	278367
1153391	226276
1153391	651075
1153391	255031
1153391	623
1153391	211217
1153391	651066
1153391	233402
1153391	278312
1153391	268232
1153391	254950
1153391	211235
1153391	233325
1153391	255046
1153391	211242
1153391	543054
1153391	73729
1153391	255051
1153391	678890
1153391	268249
1153391	197431
1153391	197448
1153391	268220
1153391	222646
1153391	193206
1153391	226274
1153391	197406
1153391	651067
1153391	24759
1153391	543060
1153391	278372
1153391	247038
1153391	222733
1153391	226221
1153391	255037
1153391	222726
1153391	226232
1153391	222723
1153391	254992
1153391	1006
1153391	233388
1153391	278384
1153391	247083
1153391	278319
1153391	8390
1153391	247013
1153391	255048
1153391	197441
1153391	233352
1153391	204925
1153391	543043
1153391	222630
1153391	73735
1153391	260404
1153391	211228
1153391	233392
1153391	627
1153391	167623
1153391	197398
1153391	254967
1153391	222659
1153391	222706
1153391	255026
1153391	233383
1153391	247089
1153391	651072
1153391	172178
1153391	167609
1153388	614
1153388	574789
1153388	211279
1153388	211268
1153388	211232
1153388	576
1153388	197437
1153388	278400
1153388	211249
1153388	226230
1153388	204941
1153388	226265
1153388	222742
1153388	255006
1153388	278337
1153388	254959
1153388	193230
1153388	15
1153388	646
1153388	193252
1153388	233366
1153388	197415
1153388	621
1153388	233322
1153388	278327
1153388	1095
1153388	193210
1153388	255015
1153388	222716
1153388	193195
1153388	255064
1153388	254983
1153388	193283
1153388	211258
1153388	222638
1153388	268160
1153388	233329
1153388	260390
1153388	233404
1153388	268170
1153388	193238
1153388	278353
1153388	268190
1153388	247074
1153388	278344
1153388	260414
1153388	233362
1153388	642
1153388	222669
1153388	211229
1153388	204884
1153388	204864
1153388	1144
1153388	268172
1153388	197420
1153388	233321
1153388	193232
1153388	254961
1153388	226264
1153388	278317
1153388	254978
1153388	233370
1153388	222684
1153388	247021
1153388	260429
1153388	233328
1153388	233336
1153388	204912
1153388	260383
1153388	211253
1153388	254955
1153388	193257
1153388	278399
1153388	211222
1153388	211251
1153388	246998
1153388	222732
1153388	193217
1153388	1065
1153388	193237
1153388	1072
1153388	268159
1153388	233377
1153388	247027
1153388	233351
1153388	260405
1153388	172172
1153388	278393
1153388	822
1153388	828
1153388	193293
1153388	193271
1153388	197446
1153388	233356
1153388	233372
1153388	278395
1153388	260425
1153388	678894
1153388	268196
1153388	193234
1153388	222620
1153388	222651
1153388	222688
1153388	204859
1153388	204888
1153388	193290
1153388	278375
1153388	278402
1153388	222679
1153388	246994
1153388	255027
1153388	193284
1153388	278333
1153388	247071
1153388	268248
1153388	193211
1153388	651069
1153388	278361
1153388	247091
1153388	233345
1153388	260441
1153388	278336
1153388	260430
1153388	577
1153388	278338
1153388	268228
1153388	197405
1153388	204938
1153388	260421
1153388	233387
1153388	233327
1153388	678892
1153388	255022
1153388	247069
1153388	222643
1153388	820
1153388	197430
1153388	255055
1153388	211223
1153388	1010
1153388	193298
1153388	233340
1153388	247088
1153388	222664
1153388	193216
1153388	255017
1153388	226252
1153388	598
1153388	226216
1153388	222655
1153388	222712
1153388	583
1153388	247009
1153388	247024
1153388	204870
1153388	260432
1153388	197427
1153388	197417
1153388	247092
1153388	268241
1153388	278316
1153388	193278
1153388	247041
1153388	247016
1153388	247019
1153388	268189
1153388	255040
1153388	197426
1153388	233378
1153388	254947
1153388	197412
1153388	193212
1153388	193241
1153388	254972
1153388	197428
1153388	254971
1153388	260401
1153388	278313
1153388	222656
1153388	222703
1153388	222728
1153388	226249
1153388	211224
1153388	197409
1153388	8382
1153388	260443
1153388	278321
1153388	268171
1153388	193306
1153388	226218
1153388	197438
1153388	559
1153388	193250
1153388	222721
1153388	1151
1153388	247000
1153388	586
1153388	978
1153388	268165
1153388	193264
1153388	226271
1153388	278373
1153388	268182
1153388	204873
1153388	204878
1153388	268183
1153388	268156
1153388	578
1153388	204931
1153388	247032
1153388	268210
1153388	193291
1153388	268158
1153388	226262
1153388	222699
1153388	268227
1153388	204898
1153388	278347
1153388	247026
1153388	193281
1153388	254986
1153388	193231
1153388	845
1153388	233318
1153388	247093
1153388	226246
1153388	204914
1153388	226268
1153388	278343
1153388	226261
1153388	1138229
1153388	204868
1153388	193304
1153388	268194
1153388	424885
1153388	197404
1153388	849
1153388	226259
1153388	926000
1153388	278342
1153388	211274
1153388	268155
1153388	233337
1153388	211226
1153388	543012
1153388	222744
1153388	73733
1153388	204879
1153388	543008
1153388	678887
1153388	255042
1153388	24765
1153388	260386
1153388	211254
1153388	211261
1153388	260380
1153388	671757
1153388	204902
1153388	247072
1153388	681045
1153388	758903
1153388	222717
1153388	222622
1153388	222697
1153388	278354
1153388	204896
1153388	247005
1153388	193220
1153388	222693
1153388	204895
1153388	226235
1153388	1100
1153388	678886
1153388	952
1153388	254994
1153388	211263
1153388	204874
1153388	260409
1153388	254975
1153388	197425
1153388	278359
1153388	247065
1153388	278381
1153388	278382
1153388	254969
1153388	222625
1153388	222671
1153388	268238
1153388	255057
1153388	278369
1153388	197416
1153388	278350
1153388	278341
1153388	197388
1153388	278368
1153388	278358
1153388	255033
1153388	254987
1153388	254985
1153388	255056
1153388	278374
1153388	254958
1153388	197396
1153388	247051
1153388	278394
1153388	278365
1153388	247030
1153388	247056
1153388	197401
1153388	268230
1153388	247090
1153388	247014
1153388	197419
1153388	247075
1153388	254974
1153388	254966
1153388	278314
1153388	278318
1153388	247052
1153388	278332
1153388	278387
1153388	278320
1153388	278340
1153388	247015
1153388	247094
1153388	247076
1153388	278331
1153388	254953
1153388	268152
1153388	211233
1153388	254948
1153388	254952
1153388	268246
1153388	246995
1153388	246992
1153388	247028
1153388	247057
1153388	247004
1153388	247064
1153388	247045
1153388	247053
1153388	278396
1153388	254962
1153388	254970
1153388	247050
1153388	247070
1153388	254968
1153388	247081
1153388	268236
1153388	247067
1153388	247022
1153388	247060
1153388	247061
1153388	197395
1153388	247048
1153388	247040
1153388	247020
1153388	197418
1153388	585
1153388	247001
1153388	246993
1153388	268243
1153388	247043
1153388	278392
1153388	255054
1153388	278377
1153388	193205
1153388	278356
1153388	278330
1153388	254984
1153388	268244
1153388	254963
1153388	255058
1153388	193259
1153388	255018
1153388	1122
1153388	255012
1153388	254965
1153388	278378
1153388	193213
1153388	595
1153388	193209
1153388	268242
1153388	211265
1153388	255011
1153388	254993
1153388	268233
1153388	254964
1153388	193202
1153388	255009
1153388	278386
1153388	268245
1153388	193225
1153388	193207
1153388	193197
1153388	254996
1153388	193269
1153388	255062
1153388	255066
1153388	193248
1153388	193227
1153388	193254
1153388	211244
1153388	193193
1153388	268154
1153388	193292
1153388	193244
1153388	193289
1153388	268188
1153388	268187
1153388	193287
1153388	268164
1153388	211269
1153388	193196
1153388	268168
1153388	193253
1153388	193307
1153388	193223
1153388	193288
1153388	193242
1153388	211247
1153388	193246
1153388	255052
1153388	193279
1153388	193294
1153388	193222
1153388	254989
1153388	193218
1153388	193247
1153388	254991
1153388	193280
1153388	193243
1153388	193265
1153388	255029
1153388	233371
1153388	211219
1153388	233399
1153388	233393
1153388	834
1153388	233334
1153388	233335
1153388	233381
1153388	233382
1153388	233403
1153388	1114
1153388	233384
1153388	233342
1153388	233401
1153388	233368
1153388	255047
1153388	211275
1153388	211238
1153388	233326
1153388	1107
1153388	193258
1153388	211237
1153388	233330
1153388	193303
1153388	824
1153388	233406
1153388	255000
1153388	211240
1153388	653
1153388	233398
1153388	839
1153388	843
1153388	233358
1153388	969
1153388	211255
1153388	233367
1153388	211215
1153388	826
1153388	233376
1153388	211230
1153388	193282
1153388	233341
1153388	233361
1153388	268215
1153388	260407
1153388	233346
1153388	260396
1153388	602
1153388	644
1153388	260394
1153388	233313
1153388	233350
1153388	617
1153388	619
1153388	233353
1153388	233320
1153388	1082
1153388	1126
1153388	1050
1153388	1164
1153388	639
1153388	260424
1153388	1054
1153388	255043
1153388	233316
1153388	2732
1153388	260389
1153388	233331
1153388	260385
1153388	1069
1153388	260387
1153388	1038
1153388	268176
1153388	233319
1153388	260399
1153388	233323
1153388	1058
1153388	233315
1153388	260402
1153388	651
1153388	260403
1153388	204881
1153388	268218
1153388	204891
1153388	193297
1153388	268219
1153388	268195
1153388	204899
1153388	268157
1153388	204901
1153388	268207
1153388	268204
1153388	193296
1153388	268193
1153388	204911
1153388	268209
1153388	204863
1153388	204916
1153388	204865
1153388	204926
1153388	193268
1153388	193301
1153388	268214
1153388	268224
1153388	233360
1153388	193233
1153388	268175
1153388	204883
1153388	204904
1153388	193235
1153388	204876
1153388	268153
1153388	193275
1153388	193274
1153388	204882
1153388	204936
1153388	247079
1153388	193236
1153388	268181
1153388	1103
1153388	204930
1153388	268221
1153388	204858
1153388	204872
1153388	260442
1153388	222738
1153388	222660
1153388	260427
1153388	222658
1153388	222680
1153388	222681
1153388	222678
1153388	260431
1153388	222740
1153388	222635
1153388	222727
1153388	222689
1153388	260382
1153388	268216
1153388	222640
1153388	222747
1153388	222637
1153388	222636
1153388	222670
1153388	222745
1153388	226260
1153388	222746
1153388	260433
1153388	222736
1153388	222641
1153388	260435
1153388	260423
1153388	222665
1153388	222730
1153388	222661
1153388	222653
1153388	260411
1153388	260391
1153388	222624
1153388	222729
1153388	260436
1153388	260415
1153388	204866
1153388	260412
1153388	260418
1153388	222735
1153388	226241
1153388	222701
1153388	226278
1153388	260426
1153388	226270
1153388	226266
1153388	222698
1153388	226234
1153388	226267
1153388	197447
1153388	247011
1153388	197399
1153388	247035
1153388	226229
1153388	226236
1153388	226215
1153388	222722
1153388	226224
1153388	247034
1153388	222719
1153388	193272
1153388	268240
1153388	222674
1153388	197435
1153388	222713
1153388	222683
1153388	226255
1153388	211250
1153388	268192
1153388	222700
1153388	197423
1153388	226247
1153388	222720
1153388	222752
1153388	233379
1153388	197444
1153388	247078
1153388	211234
1153388	197443
1153388	193201
1153388	193219
1153388	625
1153388	233397
1153388	278324
1153388	841
1153388	268223
1153388	254981
1153388	247054
1153388	246996
1153388	254973
1153388	278328
1153388	197387
1153388	226251
1153388	197389
1153388	197393
1153388	222650
1153388	226243
1153388	222667
1153388	255008
1153388	278329
1153388	579
1153388	222626
1153388	226223
1153388	581
1153388	580
1153388	573
1153388	255001
1153388	247017
1153388	233333
1153388	278315
1153388	255010
1153388	260416
1153388	278357
1153388	73727
1153388	574
1153388	204913
1153388	24767
1153388	260408
1153388	222623
1153388	222654
1153388	222657
1153388	222629
1153388	204880
1153388	278403
1153388	268173
1153388	222694
1153388	222631
1153388	268167
1153388	222685
1153388	260444
1153388	222705
1153388	246999
1153388	193299
1153388	197407
1153388	222632
1153388	278401
1153388	222633
1153388	222686
1153388	278397
1153388	222673
1153388	278351
1153388	247006
1153388	204942
1153388	8380
1153388	278352
1153388	836
1153388	1138230
1153388	204937
1153388	832
1153388	707826
1153388	260398
1153388	254998
1153388	222702
1153388	246997
1153388	109308
1153388	758907
1153388	260438
1153388	278339
1153388	204919
1153388	254995
1153388	1161
1153388	204922
1153388	758927
1153388	222692
1153388	1156
1153388	278360
1153388	8384
1153388	260406
1153388	8388
1153388	260439
1153388	758905
1153388	193300
1153388	260413
1153388	278362
1153388	204921
1153388	233338
1153388	204917
1153388	222695
1153388	1117
1153388	1029
1153388	260393
1153388	268179
1153388	260381
1153388	255024
1153388	73739
1153388	671758
1153388	204918
1153388	247031
1153388	204908
1153388	630
1153388	268180
1153388	260379
1153388	254957
1153388	222668
1153388	758917
1153388	247063
1153388	758915
1153388	774396
1153388	247077
1153388	1109
1153388	226227
1153388	222676
1153388	197391
1153388	268185
1153388	1147
1153388	247023
1153388	204903
1153388	255023
1153388	255021
1153388	1046
1153388	758923
1153388	204906
1153388	193226
1153388	247073
1153388	758911
1153388	758925
1153388	247087
1153388	254956
1153388	204909
1153388	636
1153388	260395
1153388	247085
1153388	193240
1153388	211277
1153388	268203
1153388	204871
1153388	193255
1153388	268201
1153388	193270
1153388	268177
1153388	204893
1153388	193214
1153388	204885
1153388	268200
1153388	204900
1153388	172176
1153388	211278
1153388	268166
1153388	193263
1153388	204928
1153388	211221
1153388	211273
1153388	268162
1153388	204860
1153388	268206
1153388	73737
1153388	204934
1153388	197392
1153388	193273
1153388	268208
1153388	193229
1153388	172174
1153388	193221
1153388	193262
1153388	211218
1153388	204897
1153388	268178
1153388	260422
1153388	204932
1153388	268151
1153388	204892
1153388	204862
1153388	255003
1153388	860109
1153388	254979
1153388	222718
1153388	226228
1153388	278335
1153388	226237
1153388	255004
1153388	247046
1153388	211266
1153388	73747
1153388	222714
1153388	860110
1153388	233357
1153388	226239
1153388	233343
1153388	278323
1153388	226238
1153388	226233
1153388	222711
1153388	197400
1153388	222707
1153388	211252
1153388	222618
1153388	211257
1153388	226226
1153388	278346
1153388	211264
1153388	247047
1153388	211267
1153388	937350
1153388	254977
1153388	211260
1153388	278334
1153388	211259
1153388	278325
1153388	255002
1153388	255016
1153388	254990
1153388	222621
1153388	222715
1153388	233354
1153388	803066
1153388	543018
1153388	255065
1153388	255045
1153388	193208
1153388	193200
1153388	651068
1153388	255036
1153388	226254
1153388	233386
1153388	255032
1153388	193194
1153388	226250
1153388	593371
1153388	226217
1153388	651070
1153388	255049
1153388	247059
1153388	255059
1153388	233395
1153388	233373
1153388	233396
1153388	255038
1153388	233400
1153388	254951
1153388	226245
1153388	255063
1153388	233385
1153388	233312
1153388	255044
1153388	255060
1153388	233380
1153388	255039
1153388	543092
1153388	255028
1153388	233374
1153388	226248
1153388	255034
1153388	226273
1153388	255050
1153388	609
1153388	255035
1153388	543020
1153388	847
1153388	197410
1153388	651065
1153388	255014
1153388	222644
1153388	197433
1153388	197442
1153388	543050
1153388	678891
1153388	651073
1153388	197439
1153388	543058
1153388	543056
1153388	543002
1153388	678893
1153388	543052
1153388	278364
1153388	543041
1153388	540552
1153388	197422
1153388	197414
1153388	543039
1153388	197434
1153388	222649
1153388	222639
1153388	197411
1153388	543004
1153388	222645
1153388	211216
1153388	678889
1153388	543045
1153388	233391
1153388	540553
1153388	678888
1153388	543010
1153388	8394
1153388	651074
1153388	226256
1153388	254949
1153388	222647
1153388	222734
1153388	254954
1153388	278390
1153388	278391
1153388	211236
1153388	211248
1153388	278376
1153388	211245
1153388	268235
1153388	222737
1153388	268213
1153388	268234
1153388	255025
1153388	233364
1153388	278385
1153388	268229
1153388	211231
1153388	278379
1153388	268247
1153388	226277
1153388	278389
1153388	211225
1153388	247042
1153388	268237
1153388	268226
1153388	247039
1153388	226220
1153388	222739
1153388	233405
1153388	8392
1153388	226272
1153388	233363
1153388	233369
1153388	278383
1153388	193204
1153388	268250
1153388	233407
1153388	268231
1153388	268211
1153388	211246
1153388	278388
1153388	222748
1153388	222753
1153388	853
1153388	222696
1153388	211239
1153388	222741
1153388	222724
1153388	222750
1153388	278371
1153388	222749
1153388	211241
1153388	211214
1153388	204867
1153388	651071
1153388	226242
1153388	278326
1153388	222663
1153388	268239
1153388	278363
1153388	851
1153388	204886
1153388	247084
1153388	222691
1153388	8386
1153388	193256
1153388	8522
1153388	278322
1153388	197394
1153388	973
1153388	222666
1153388	1027
1153388	1023
1153388	758913
1153388	1043
1153388	222708
1153388	193261
1153388	222662
1153388	222628
1153388	803065
1153388	707825
1153388	247036
1153388	255007
1153388	222710
1153388	233389
1153388	204889
1153388	1169
1153388	841880
1153388	830
1153388	278348
1153388	211271
1153388	233347
1153388	254997
1153388	686723
1153388	268222
1153388	193276
1153388	204905
1153388	247029
1153388	278380
1153388	260419
1153388	193305
1153388	211272
1153388	233349
1153388	268186
1153388	278370
1153388	8399
1153388	226257
1153388	222704
1153388	278349
1153388	1062
1153388	278398
1153388	678885
1153388	543062
1153388	268198
1153388	247007
1153388	1088
1153388	260434
1153388	222675
1153388	278404
1153388	803064
1153388	774397
1153388	197403
1153388	255019
1153388	193251
1153388	268161
1153388	204927
1153388	204923
1153388	193260
1153388	247082
1153388	204890
1153388	254980
1153388	268205
1153388	1142
1153388	204935
1153388	197390
1153388	247010
1153388	254988
1153388	211276
1153388	758919
1153388	226222
1153388	268199
1153388	204907
1153388	925999
1153388	758909
1153388	278345
1153388	758921
1153388	222709
1153388	204940
1153388	543016
1153388	543006
1153388	255013
1153388	278367
1153388	226276
1153388	651075
1153388	255031
1153388	623
1153388	211217
1153388	651066
1153388	233402
1153388	278312
1153388	268232
1153388	254950
1153388	211235
1153388	233325
1153388	255046
1153388	211242
1153388	543054
1153388	73729
1153388	255051
1153388	678890
1153388	268249
1153388	197431
1153388	197448
1153388	268220
1153388	222646
1153388	193206
1153388	226274
1153388	197406
1153388	651067
1153388	24759
1153388	543060
1153388	278372
1153388	247038
1153388	222733
1153388	226221
1153388	255037
1153388	222726
1153388	226232
1153388	222723
1153388	254992
1153388	1006
1153388	233388
1153388	278384
1153388	247083
1153388	278319
1153388	8390
1153388	247013
1153388	255048
1153388	197441
1153388	233352
1153388	204925
1153388	543043
1153388	222630
1153388	73735
1153388	260404
1153388	211228
1153388	233392
1153388	627
1153388	167623
1153388	197398
1153388	254967
1153388	222659
1153388	222706
1153388	255026
1153388	233383
1153388	247089
1153388	651072
1153388	172178
1153388	167609
1153389	614
1153389	574789
1153389	211279
1153389	211268
1153389	211232
1153389	576
1153389	197437
1153389	278400
1153389	211249
1153389	226230
1153389	204941
1153389	226265
1153389	222742
1153389	255006
1153389	278337
1153389	254959
1153389	193230
1153389	15
1153389	646
1153389	193252
1153389	233366
1153389	197415
1153389	621
1153389	233322
1153389	278327
1153389	1095
1153389	193210
1153389	255015
1153389	222716
1153389	193195
1153389	255064
1153389	254983
1153389	193283
1153389	211258
1153389	222638
1153389	268160
1153389	233329
1153389	260390
1153389	233404
1153389	268170
1153389	193238
1153389	278353
1153389	268190
1153389	247074
1153389	278344
1153389	260414
1153389	233362
1153389	642
1153389	222669
1153389	211229
1153389	204884
1153389	204864
1153389	1144
1153389	268172
1153389	197420
1153389	233321
1153389	193232
1153389	254961
1153389	226264
1153389	278317
1153389	254978
1153389	233370
1153389	222684
1153389	247021
1153389	260429
1153389	233328
1153389	233336
1153389	204912
1153389	260383
1153389	211253
1153389	254955
1153389	193257
1153389	278399
1153389	211222
1153389	211251
1153389	246998
1153389	222732
1153389	193217
1153389	1065
1153389	193237
1153389	1072
1153389	268159
1153389	233377
1153389	247027
1153389	233351
1153389	260405
1153389	172172
1153389	278393
1153389	822
1153389	828
1153389	193293
1153389	193271
1153389	197446
1153389	233356
1153389	233372
1153389	278395
1153389	260425
1153389	678894
1153389	268196
1153389	193234
1153389	222620
1153389	222651
1153389	222688
1153389	204859
1153389	204888
1153389	193290
1153389	278375
1153389	278402
1153389	222679
1153389	246994
1153389	255027
1153389	193284
1153389	278333
1153389	247071
1153389	268248
1153389	193211
1153389	651069
1153389	278361
1153389	247091
1153389	233345
1153389	260441
1153389	278336
1153389	260430
1153389	577
1153389	278338
1153389	268228
1153389	197405
1153389	204938
1153389	260421
1153389	233387
1153389	233327
1153389	678892
1153389	255022
1153389	247069
1153389	222643
1153389	820
1153389	197430
1153389	255055
1153389	211223
1153389	1010
1153389	193298
1153389	233340
1153389	247088
1153389	222664
1153389	193216
1153389	255017
1153389	226252
1153389	598
1153389	226216
1153389	222655
1153389	222712
1153389	583
1153389	247009
1153389	247024
1153389	204870
1153389	260432
1153389	197427
1153389	197417
1153389	247092
1153389	268241
1153389	278316
1153389	193278
1153389	247041
1153389	247016
1153389	247019
1153389	268189
1153389	255040
1153389	197426
1153389	233378
1153389	254947
1153389	197412
1153389	193212
1153389	193241
1153389	254972
1153389	197428
1153389	254971
1153389	260401
1153389	278313
1153389	222656
1153389	222703
1153389	222728
1153389	226249
1153389	211224
1153389	197409
1153389	8382
1153389	260443
1153389	278321
1153389	268171
1153389	193306
1153389	226218
1153389	197438
1153389	559
1153389	193250
1153389	222721
1153389	1151
1153389	247000
1153389	586
1153389	978
1153389	268165
1153389	193264
1153389	226271
1153389	278373
1153389	268182
1153389	204873
1153389	204878
1153389	268183
1153389	268156
1153389	578
1153389	204931
1153389	247032
1153389	268210
1153389	193291
1153389	268158
1153389	226262
1153389	222699
1153389	268227
1153389	204898
1153389	278347
1153389	247026
1153389	193281
1153389	254986
1153389	193231
1153389	845
1153389	233318
1153389	247093
1153389	226246
1153389	204914
1153389	226268
1153389	278343
1153389	226261
1153389	1138229
1153389	204868
1153389	193304
1153389	268194
1153389	424885
1153389	197404
1153389	849
1153389	226259
1153389	926000
1153389	278342
1153389	211274
1153389	268155
1153389	233337
1153389	211226
1153389	543012
1153389	222744
1153389	73733
1153389	204879
1153389	543008
1153389	678887
1153389	255042
1153389	24765
1153389	260386
1153389	211254
1153389	211261
1153389	260380
1153389	671757
1153389	204902
1153389	247072
1153389	681045
1153389	758903
1153389	222717
1153389	222622
1153389	222697
1153389	278354
1153389	204896
1153389	247005
1153389	193220
1153389	222693
1153389	204895
1153389	226235
1153389	1100
1153389	678886
1153389	952
1153389	254994
1153389	211263
1153389	204874
1153389	260409
1153389	254975
1153389	197425
1153389	278359
1153389	247065
1153389	278381
1153389	278382
1153389	254969
1153389	222625
1153389	222671
1153389	268238
1153389	255057
1153389	278369
1153389	197416
1153389	278350
1153389	278341
1153389	197388
1153389	278368
1153389	278358
1153389	255033
1153389	254987
1153389	254985
1153389	255056
1153389	278374
1153389	254958
1153389	197396
1153389	247051
1153389	278394
1153389	278365
1153389	247030
1153389	247056
1153389	197401
1153389	268230
1153389	247090
1153389	247014
1153389	197419
1153389	247075
1153389	254974
1153389	254966
1153389	278314
1153389	278318
1153389	247052
1153389	278332
1153389	278387
1153389	278320
1153389	278340
1153389	247015
1153389	247094
1153389	247076
1153389	278331
1153389	254953
1153389	268152
1153389	211233
1153389	254948
1153389	254952
1153389	268246
1153389	246995
1153389	246992
1153389	247028
1153389	247057
1153389	247004
1153389	247064
1153389	247045
1153389	247053
1153389	278396
1153389	254962
1153389	254970
1153389	247050
1153389	247070
1153389	254968
1153389	247081
1153389	268236
1153389	247067
1153389	247022
1153389	247060
1153389	247061
1153389	197395
1153389	247048
1153389	247040
1153389	247020
1153389	197418
1153389	585
1153389	247001
1153389	246993
1153389	268243
1153389	247043
1153389	278392
1153389	255054
1153389	278377
1153389	193205
1153389	278356
1153389	278330
1153389	254984
1153389	268244
1153389	254963
1153389	255058
1153389	193259
1153389	255018
1153389	1122
1153389	255012
1153389	254965
1153389	278378
1153389	193213
1153389	595
1153389	193209
1153389	268242
1153389	211265
1153389	255011
1153389	254993
1153389	268233
1153389	254964
1153389	193202
1153389	255009
1153389	278386
1153389	268245
1153389	193225
1153389	193207
1153389	193197
1153389	254996
1153389	193269
1153389	255062
1153389	255066
1153389	193248
1153389	193227
1153389	193254
1153389	211244
1153389	193193
1153389	268154
1153389	193292
1153389	193244
1153389	193289
1153389	268188
1153389	268187
1153389	193287
1153389	268164
1153389	211269
1153389	193196
1153389	268168
1153389	193253
1153389	193307
1153389	193223
1153389	193288
1153389	193242
1153389	211247
1153389	193246
1153389	255052
1153389	193279
1153389	193294
1153389	193222
1153389	254989
1153389	193218
1153389	193247
1153389	254991
1153389	193280
1153389	193243
1153389	193265
1153389	255029
1153389	233371
1153389	211219
1153389	233399
1153389	233393
1153389	834
1153389	233334
1153389	233335
1153389	233381
1153389	233382
1153389	233403
1153389	1114
1153389	233384
1153389	233342
1153389	233401
1153389	233368
1153389	255047
1153389	211275
1153389	211238
1153389	233326
1153389	1107
1153389	193258
1153389	211237
1153389	233330
1153389	193303
1153389	824
1153389	233406
1153389	255000
1153389	211240
1153389	653
1153389	233398
1153389	839
1153389	843
1153389	233358
1153389	969
1153389	211255
1153389	233367
1153389	211215
1153389	826
1153389	233376
1153389	211230
1153389	193282
1153389	233341
1153389	233361
1153389	268215
1153389	260407
1153389	233346
1153389	260396
1153389	602
1153389	644
1153389	260394
1153389	233313
1153389	233350
1153389	617
1153389	619
1153389	233353
1153389	233320
1153389	1082
1153389	1126
1153389	1050
1153389	1164
1153389	639
1153389	260424
1153389	1054
1153389	255043
1153389	233316
1153389	2732
1153389	260389
1153389	233331
1153389	260385
1153389	1069
1153389	260387
1153389	1038
1153389	268176
1153389	233319
1153389	260399
1153389	233323
1153389	1058
1153389	233315
1153389	260402
1153389	651
1153389	260403
1153389	204881
1153389	268218
1153389	204891
1153389	193297
1153389	268219
1153389	268195
1153389	204899
1153389	268157
1153389	204901
1153389	268207
1153389	268204
1153389	193296
1153389	268193
1153389	204911
1153389	268209
1153389	204863
1153389	204916
1153389	204865
1153389	204926
1153389	193268
1153389	193301
1153389	268214
1153389	268224
1153389	233360
1153389	193233
1153389	268175
1153389	204883
1153389	204904
1153389	193235
1153389	204876
1153389	268153
1153389	193275
1153389	193274
1153389	204882
1153389	204936
1153389	247079
1153389	193236
1153389	268181
1153389	1103
1153389	204930
1153389	268221
1153389	204858
1153389	204872
1153389	260442
1153389	222738
1153389	222660
1153389	260427
1153389	222658
1153389	222680
1153389	222681
1153389	222678
1153389	260431
1153389	222740
1153389	222635
1153389	222727
1153389	222689
1153389	260382
1153389	268216
1153389	222640
1153389	222747
1153389	222637
1153389	222636
1153389	222670
1153389	222745
1153389	226260
1153389	222746
1153389	260433
1153389	222736
1153389	222641
1153389	260435
1153389	260423
1153389	222665
1153389	222730
1153389	222661
1153389	222653
1153389	260411
1153389	260391
1153389	222624
1153389	222729
1153389	260436
1153389	260415
1153389	204866
1153389	260412
1153389	260418
1153389	222735
1153389	226241
1153389	222701
1153389	226278
1153389	260426
1153389	226270
1153389	226266
1153389	222698
1153389	226234
1153389	226267
1153389	197447
1153389	247011
1153389	197399
1153389	247035
1153389	226229
1153389	226236
1153389	226215
1153389	222722
1153389	226224
1153389	247034
1153389	222719
1153389	193272
1153389	268240
1153389	222674
1153389	197435
1153389	222713
1153389	222683
1153389	226255
1153389	211250
1153389	268192
1153389	222700
1153389	197423
1153389	226247
1153389	222720
1153389	222752
1153389	233379
1153389	197444
1153389	247078
1153389	211234
1153389	197443
1153389	193201
1153389	193219
1153389	625
1153389	233397
1153389	278324
1153389	841
1153389	268223
1153389	254981
1153389	247054
1153389	246996
1153389	254973
1153389	278328
1153389	197387
1153389	226251
1153389	197389
1153389	197393
1153389	222650
1153389	226243
1153389	222667
1153389	255008
1153389	278329
1153389	579
1153389	222626
1153389	226223
1153389	581
1153389	580
1153389	573
1153389	255001
1153389	247017
1153389	233333
1153389	278315
1153389	255010
1153389	260416
1153389	278357
1153389	73727
1153389	574
1153389	204913
1153389	24767
1153389	260408
1153389	222623
1153389	222654
1153389	222657
1153389	222629
1153389	204880
1153389	278403
1153389	268173
1153389	222694
1153389	222631
1153389	268167
1153389	222685
1153389	260444
1153389	222705
1153389	246999
1153389	193299
1153389	197407
1153389	222632
1153389	278401
1153389	222633
1153389	222686
1153389	278397
1153389	222673
1153389	278351
1153389	247006
1153389	204942
1153389	8380
1153389	278352
1153389	836
1153389	1138230
1153389	204937
1153389	832
1153389	707826
1153389	260398
1153389	254998
1153389	222702
1153389	246997
1153389	109308
1153389	758907
1153389	260438
1153389	278339
1153389	204919
1153389	254995
1153389	1161
1153389	204922
1153389	758927
1153389	222692
1153389	1156
1153389	278360
1153389	8384
1153389	260406
1153389	8388
1153389	260439
1153389	758905
1153389	193300
1153389	260413
1153389	278362
1153389	204921
1153389	233338
1153389	204917
1153389	222695
1153389	1117
1153389	1029
1153389	260393
1153389	268179
1153389	260381
1153389	255024
1153389	73739
1153389	671758
1153389	204918
1153389	247031
1153389	204908
1153389	630
1153389	268180
1153389	260379
1153389	254957
1153389	222668
1153389	758917
1153389	247063
1153389	758915
1153389	774396
1153389	247077
1153389	1109
1153389	226227
1153389	222676
1153389	197391
1153389	268185
1153389	1147
1153389	247023
1153389	204903
1153389	255023
1153389	255021
1153389	1046
1153389	758923
1153389	204906
1153389	193226
1153389	247073
1153389	758911
1153389	758925
1153389	247087
1153389	254956
1153389	204909
1153389	636
1153389	260395
1153389	247085
1153389	193240
1153389	211277
1153389	268203
1153389	204871
1153389	193255
1153389	268201
1153389	193270
1153389	268177
1153389	204893
1153389	193214
1153389	204885
1153389	268200
1153389	204900
1153389	172176
1153389	211278
1153389	268166
1153389	193263
1153389	204928
1153389	211221
1153389	211273
1153389	268162
1153389	204860
1153389	268206
1153389	73737
1153389	204934
1153389	197392
1153389	193273
1153389	268208
1153389	193229
1153389	172174
1153389	193221
1153389	193262
1153389	211218
1153389	204897
1153389	268178
1153389	260422
1153389	204932
1153389	268151
1153389	204892
1153389	204862
1153389	255003
1153389	860109
1153389	254979
1153389	222718
1153389	226228
1153389	278335
1153389	226237
1153389	255004
1153389	247046
1153389	211266
1153389	73747
1153389	222714
1153389	860110
1153389	233357
1153389	226239
1153389	233343
1153389	278323
1153389	226238
1153389	226233
1153389	222711
1153389	197400
1153389	222707
1153389	211252
1153389	222618
1153389	211257
1153389	226226
1153389	278346
1153389	211264
1153389	247047
1153389	211267
1153389	937350
1153389	254977
1153389	211260
1153389	278334
1153389	211259
1153389	278325
1153389	255002
1153389	255016
1153389	254990
1153389	222621
1153389	222715
1153389	233354
1153389	803066
1153389	543018
1153389	255065
1153389	255045
1153389	193208
1153389	193200
1153389	651068
1153389	255036
1153389	226254
1153389	233386
1153389	255032
1153389	193194
1153389	226250
1153389	593371
1153389	226217
1153389	651070
1153389	255049
1153389	247059
1153389	255059
1153389	233395
1153389	233373
1153389	233396
1153389	255038
1153389	233400
1153389	254951
1153389	226245
1153389	255063
1153389	233385
1153389	233312
1153389	255044
1153389	255060
1153389	233380
1153389	255039
1153389	543092
1153389	255028
1153389	233374
1153389	226248
1153389	255034
1153389	226273
1153389	255050
1153389	609
1153389	255035
1153389	543020
1153389	847
1153389	197410
1153389	651065
1153389	255014
1153389	222644
1153389	197433
1153389	197442
1153389	543050
1153389	678891
1153389	651073
1153389	197439
1153389	543058
1153389	543056
1153389	543002
1153389	678893
1153389	543052
1153389	278364
1153389	543041
1153389	540552
1153389	197422
1153389	197414
1153389	543039
1153389	197434
1153389	222649
1153389	222639
1153389	197411
1153389	543004
1153389	222645
1153389	211216
1153389	678889
1153389	543045
1153389	233391
1153389	540553
1153389	678888
1153389	543010
1153389	8394
1153389	651074
1153389	226256
1153389	254949
1153389	222647
1153389	222734
1153389	254954
1153389	278390
1153389	278391
1153389	211236
1153389	211248
1153389	278376
1153389	211245
1153389	268235
1153389	222737
1153389	268213
1153389	268234
1153389	255025
1153389	233364
1153389	278385
1153389	268229
1153389	211231
1153389	278379
1153389	268247
1153389	226277
1153389	278389
1153389	211225
1153389	247042
1153389	268237
1153389	268226
1153389	247039
1153389	226220
1153389	222739
1153389	233405
1153389	8392
1153389	226272
1153389	233363
1153389	233369
1153389	278383
1153389	193204
1153389	268250
1153389	233407
1153389	268231
1153389	268211
1153389	211246
1153389	278388
1153389	222748
1153389	222753
1153389	853
1153389	222696
1153389	211239
1153389	222741
1153389	222724
1153389	222750
1153389	278371
1153389	222749
1153389	211241
1153389	211214
1153389	204867
1153389	651071
1153389	226242
1153389	278326
1153389	222663
1153389	268239
1153389	278363
1153389	851
1153389	204886
1153389	247084
1153389	222691
1153389	8386
1153389	193256
1153389	8522
1153389	278322
1153389	197394
1153389	973
1153389	222666
1153389	1027
1153389	1023
1153389	758913
1153389	1043
1153389	222708
1153389	193261
1153389	222662
1153389	222628
1153389	803065
1153389	707825
1153389	247036
1153389	255007
1153389	222710
1153389	233389
1153389	204889
1153389	1169
1153389	841880
1153389	830
1153389	278348
1153389	211271
1153389	233347
1153389	254997
1153389	686723
1153389	268222
1153389	193276
1153389	204905
1153389	247029
1153389	278380
1153389	260419
1153389	193305
1153389	211272
1153389	233349
1153389	268186
1153389	278370
1153389	8399
1153389	226257
1153389	222704
1153389	278349
1153389	1062
1153389	278398
1153389	678885
1153389	543062
1153389	268198
1153389	247007
1153389	1088
1153389	260434
1153389	222675
1153389	278404
1153389	803064
1153389	774397
1153389	197403
1153389	255019
1153389	193251
1153389	268161
1153389	204927
1153389	204923
1153389	193260
1153389	247082
1153389	204890
1153389	254980
1153389	268205
1153389	1142
1153389	204935
1153389	197390
1153389	247010
1153389	254988
1153389	211276
1153389	758919
1153389	226222
1153389	268199
1153389	204907
1153389	925999
1153389	758909
1153389	278345
1153389	758921
1153389	222709
1153389	204940
1153389	543016
1153389	543006
1153389	255013
1153389	278367
1153389	226276
1153389	651075
1153389	255031
1153389	623
1153389	211217
1153389	651066
1153389	233402
1153389	278312
1153389	268232
1153389	254950
1153389	211235
1153389	233325
1153389	255046
1153389	211242
1153389	543054
1153389	73729
1153389	255051
1153389	678890
1153389	268249
1153389	197431
1153389	197448
1153389	268220
1153389	222646
1153389	193206
1153389	226274
1153389	197406
1153389	651067
1153389	24759
1153389	543060
1153389	278372
1153389	247038
1153389	222733
1153389	226221
1153389	255037
1153389	222726
1153389	226232
1153389	222723
1153389	254992
1153389	1006
1153389	233388
1153389	278384
1153389	247083
1153389	278319
1153389	8390
1153389	247013
1153389	255048
1153389	197441
1153389	233352
1153389	204925
1153389	543043
1153389	222630
1153389	73735
1153389	260404
1153389	211228
1153389	233392
1153389	627
1153389	167623
1153389	197398
1153389	254967
1153389	222659
1153389	222706
1153389	255026
1153389	233383
1153389	247089
1153389	651072
1153389	172178
1153389	167609
1153387	278348
1153387	222709
1153387	247085
1153387	254964
1153387	222689
1153387	8390
1153387	204928
1153387	222704
1153387	278319
1153387	278367
1153387	247035
1153387	233333
1153387	197404
1153387	278362
1153387	204896
1153387	193217
1153387	254991
1153387	543043
1153387	197412
1153387	204918
1153387	247031
1153387	222720
1153387	255027
1153387	1058
1153387	260434
1153387	803064
1153387	278346
1153387	577
1153387	247067
1153387	260444
1153387	255059
1153387	268181
1153387	211224
1153387	268238
1153387	193200
1153387	678892
1153387	1006
1153387	204934
1153387	260386
1153387	193214
1153387	222633
1153387	222713
1153387	226243
1153387	73735
1153387	278343
1153387	268204
1153387	255052
1153387	260387
1153387	651067
1153387	254974
1153387	193268
1153387	233313
1153387	255004
1153387	247092
1153387	278401
1153387	1088
1153387	578
1153387	268203
1153387	233326
1153387	233357
1153387	226220
1153387	268167
1153387	204879
1153387	268175
1153387	15
1153387	222684
1153387	254989
1153387	211259
1153387	211223
1153387	247050
1153387	260404
1153387	255021
1153387	268230
1153387	222641
1153387	211249
1153387	197422
1153387	222740
1153387	204888
1153387	278383
1153387	268235
1153387	255039
1153387	543062
1153387	255029
1153387	260409
1153387	193252
1153387	651073
1153387	268211
1153387	278352
1153387	211271
1153387	278395
1153387	222700
1153387	278404
1153387	222662
1153387	226266
1153387	247038
1153387	222639
1153387	211254
1153387	255010
1153387	222702
1153387	254984
1153387	211258
1153387	834
1153387	193236
1153387	254990
1153387	598
1153387	260429
1153387	204921
1153387	278318
1153387	678890
1153387	233389
1153387	211274
1153387	233353
1153387	222735
1153387	222657
1153387	222732
1153387	260432
1153387	278325
1153387	222629
1153387	268155
1153387	233364
1153387	278392
1153387	197409
1153387	1117
1153387	574789
1153387	222640
1153387	1046
1153387	260405
1153387	630
1153387	247076
1153387	278361
1153387	193213
1153387	193197
1153387	222671
1153387	193223
1153387	849
1153387	278374
1153387	226237
1153387	197395
1153387	260379
1153387	609
1153387	211264
1153387	193297
1153387	255056
1153387	197400
1153387	197428
1153387	193243
1153387	222708
1153387	254992
1153387	260418
1153387	254954
1153387	204868
1153387	260412
1153387	268232
1153387	268247
1153387	278357
1153387	1043
1153387	197425
1153387	193255
1153387	2732
1153387	255006
1153387	278376
1153387	1138229
1153387	952
1153387	211250
1153387	193271
1153387	193235
1153387	193233
1153387	247029
1153387	543045
1153387	193284
1153387	172178
1153387	707825
1153387	254968
1153387	233341
1153387	193261
1153387	651068
1153387	226221
1153387	222721
1153387	246994
1153387	278334
1153387	24765
1153387	226227
1153387	204905
1153387	226276
1153387	193222
1153387	193209
1153387	193288
1153387	247077
1153387	1082
1153387	254988
1153387	255031
1153387	278379
1153387	233397
1153387	268195
1153387	602
1153387	260426
1153387	222631
1153387	254966
1153387	247065
1153387	278330
1153387	247000
1153387	222688
1153387	204897
1153387	845
1153387	222705
1153387	233366
1153387	678887
1153387	197439
1153387	1142
1153387	255011
1153387	543012
1153387	758913
1153387	543060
1153387	254951
1153387	222675
1153387	625
1153387	278345
1153387	247017
1153387	233372
1153387	222717
1153387	926000
1153387	278320
1153387	678889
1153387	247020
1153387	226215
1153387	226224
1153387	278323
1153387	260441
1153387	1050
1153387	204925
1153387	278314
1153387	222625
1153387	254963
1153387	268156
1153387	260406
1153387	255045
1153387	222673
1153387	211234
1153387	222711
1153387	255064
1153387	233388
1153387	247051
1153387	255023
1153387	978
1153387	226250
1153387	822
1153387	255054
1153387	193241
1153387	247028
1153387	222753
1153387	222665
1153387	278349
1153387	222747
1153387	197446
1153387	193195
1153387	222626
1153387	222646
1153387	1038
1153387	193293
1153387	1144
1153387	627
1153387	204898
1153387	222722
1153387	255013
1153387	8392
1153387	172172
1153387	278389
1153387	278335
1153387	233328
1153387	255058
1153387	254958
1153387	268241
1153387	260443
1153387	197434
1153387	211219
1153387	211260
1153387	193259
1153387	278329
1153387	254985
1153387	211267
1153387	197427
1153387	197448
1153387	268227
1153387	211217
1153387	226235
1153387	226273
1153387	204874
1153387	651
1153387	1169
1153387	758907
1153387	268200
1153387	226229
1153387	543052
1153387	233391
1153387	254979
1153387	233378
1153387	222680
1153387	268215
1153387	247036
1153387	226251
1153387	268213
1153387	8382
1153387	197416
1153387	211221
1153387	758915
1153387	222738
1153387	172176
1153387	774397
1153387	8394
1153387	204878
1153387	254961
1153387	1164
1153387	260421
1153387	247072
1153387	222733
1153387	233331
1153387	226264
1153387	1126
1153387	211251
1153387	278347
1153387	268240
1153387	211244
1153387	204901
1153387	268187
1153387	204859
1153387	233401
1153387	583
1153387	204876
1153387	278328
1153387	233369
1153387	204881
1153387	226262
1153387	211231
1153387	247075
1153387	197388
1153387	268159
1153387	226232
1153387	278342
1153387	278356
1153387	247015
1153387	260419
1153387	222630
1153387	260401
1153387	758923
1153387	193211
1153387	254971
1153387	937350
1153387	255066
1153387	260431
1153387	247087
1153387	247061
1153387	268198
1153387	193196
1153387	254972
1153387	222719
1153387	255042
1153387	247074
1153387	211273
1153387	247064
1153387	268207
1153387	278380
1153387	260398
1153387	211252
1153387	576
1153387	543058
1153387	233373
1153387	254947
1153387	222712
1153387	193234
1153387	193206
1153387	226270
1153387	247083
1153387	233392
1153387	651065
1153387	222699
1153387	853
1153387	1122
1153387	595
1153387	278313
1153387	678893
1153387	193212
1153387	222669
1153387	824
1153387	193258
1153387	820
1153387	211257
1153387	268176
1153387	543010
1153387	211268
1153387	233318
1153387	278397
1153387	707826
1153387	260393
1153387	543050
1153387	8380
1153387	255015
1153387	268218
1153387	860110
1153387	246997
1153387	197387
1153387	247039
1153387	247043
1153387	260438
1153387	278324
1153387	8384
1153387	193298
1153387	193229
1153387	540552
1153387	193282
1153387	193205
1153387	255026
1153387	278381
1153387	268233
1153387	278353
1153387	260435
1153387	1027
1153387	255065
1153387	197438
1153387	268173
1153387	247084
1153387	233387
1153387	226278
1153387	204923
1153387	246998
1153387	255038
1153387	233319
1153387	247042
1153387	233338
1153387	222661
1153387	211233
1153387	1114
1153387	204931
1153387	543016
1153387	1062
1153387	222718
1153387	758911
1153387	580
1153387	268243
1153387	233343
1153387	211222
1153387	268192
1153387	254980
1153387	226245
1153387	226222
1153387	204885
1153387	255057
1153387	233380
1153387	260383
1153387	268219
1153387	247052
1153387	233395
1153387	211218
1153387	211226
1153387	247005
1153387	233327
1153387	193260
1153387	211237
1153387	268206
1153387	8399
1153387	233346
1153387	211238
1153387	268220
1153387	204880
1153387	193262
1153387	260395
1153387	260380
1153387	246999
1153387	233340
1153387	197423
1153387	226261
1153387	226274
1153387	758921
1153387	255000
1153387	247060
1153387	73733
1153387	247040
1153387	247082
1153387	204916
1153387	247001
1153387	204882
1153387	193292
1153387	222703
1153387	233323
1153387	193248
1153387	278341
1153387	268162
1153387	847
1153387	222636
1153387	543056
1153387	841
1153387	226265
1153387	254975
1153387	222660
1153387	255025
1153387	246993
1153387	254995
1153387	278396
1153387	222654
1153387	193204
1153387	222656
1153387	268210
1153387	233362
1153387	193281
1153387	204919
1153387	268208
1153387	226239
1153387	222679
1153387	278363
1153387	260411
1153387	247056
1153387	278344
1153387	278358
1153387	233345
1153387	211228
1153387	255048
1153387	193304
1153387	226272
1153387	222667
1153387	193210
1153387	233404
1153387	222693
1153387	247034
1153387	204886
1153387	642
1153387	247026
1153387	260439
1153387	233377
1153387	197406
1153387	193301
1153387	233351
1153387	278402
1153387	197435
1153387	254970
1153387	247088
1153387	222647
1153387	758909
1153387	233367
1153387	851
1153387	197443
1153387	1100
1153387	197437
1153387	193257
1153387	193264
1153387	247094
1153387	586
1153387	268237
1153387	543018
1153387	543092
1153387	278337
1153387	226271
1153387	268189
1153387	758925
1153387	211246
1153387	193226
1153387	832
1153387	73727
1153387	193290
1153387	226248
1153387	278377
1153387	247011
1153387	222730
1153387	204908
1153387	233325
1153387	278385
1153387	211272
1153387	255001
1153387	278321
1153387	278388
1153387	211278
1153387	222742
1153387	233315
1153387	254987
1153387	193221
1153387	1109
1153387	226246
1153387	204867
1153387	222729
1153387	193230
1153387	222694
1153387	260414
1153387	255007
1153387	268194
1153387	619
1153387	1054
1153387	255055
1153387	233361
1153387	621
1153387	204940
1153387	581
1153387	204935
1153387	211275
1153387	226236
1153387	226228
1153387	247059
1153387	828
1153387	268223
1153387	255060
1153387	254950
1153387	651071
1153387	278373
1153387	204911
1153387	278359
1153387	226268
1153387	204941
1153387	226247
1153387	226238
1153387	278394
1153387	204914
1153387	226249
1153387	278340
1153387	233393
1153387	255035
1153387	1138230
1153387	193303
1153387	204865
1153387	233352
1153387	211265
1153387	193247
1153387	193201
1153387	204892
1153387	8388
1153387	254983
1153387	193278
1153387	226267
1153387	233337
1153387	222698
1153387	247081
1153387	247016
1153387	268239
1153387	247073
1153387	222696
1153387	233320
1153387	197418
1153387	197393
1153387	278360
1153387	686723
1153387	268164
1153387	247090
1153387	211230
1153387	204938
1153387	268205
1153387	260394
1153387	268182
1153387	254997
1153387	614
1153387	193207
1153387	646
1153387	204926
1153387	222649
1153387	233356
1153387	211248
1153387	254993
1153387	268170
1153387	278332
1153387	268190
1153387	278378
1153387	268183
1153387	211215
1153387	247022
1153387	197444
1153387	255040
1153387	197420
1153387	268165
1153387	226257
1153387	255049
1153387	559
1153387	260408
1153387	678888
1153387	268250
1153387	255047
1153387	222737
1153387	247057
1153387	247046
1153387	678886
1153387	193225
1153387	167609
1153387	233384
1153387	651069
1153387	255051
1153387	671757
1153387	260385
1153387	197415
1153387	193307
1153387	543008
1153387	204900
1153387	774396
1153387	204890
1153387	222714
1153387	73747
1153387	211229
1153387	247091
1153387	254978
1153387	193300
1153387	247021
1153387	193272
1153387	226226
1153387	268228
1153387	255012
1153387	211269
1153387	211277
1153387	222724
1153387	260442
1153387	1161
1153387	222748
1153387	247054
1153387	247009
1153387	254949
1153387	268152
1153387	268229
1153387	222692
1153387	247032
1153387	226256
1153387	1147
1153387	204858
1153387	193273
1153387	268222
1153387	247070
1153387	836
1153387	226241
1153387	543020
1153387	617
1153387	197411
1153387	211261
1153387	211245
1153387	636
1153387	969
1153387	197391
1153387	268216
1153387	226259
1153387	193216
1153387	204863
1153387	260390
1153387	268166
1153387	543041
1153387	260402
1153387	268209
1153387	197389
1153387	255009
1153387	197407
1153387	255003
1153387	222710
1153387	247089
1153387	193256
1153387	233400
1153387	204917
1153387	222664
1153387	222651
1153387	222658
1153387	260389
1153387	193270
1153387	268249
1153387	233386
1153387	233385
1153387	193202
1153387	247007
1153387	268231
1153387	193250
1153387	268185
1153387	1103
1153387	671758
1153387	1065
1153387	830
1153387	204871
1153387	211255
1153387	255019
1153387	255018
1153387	222678
1153387	268245
1153387	247024
1153387	193242
1153387	204942
1153387	193246
1153387	260424
1153387	222706
1153387	233334
1153387	268244
1153387	233379
1153387	247030
1153387	651070
1153387	247047
1153387	651066
1153387	226233
1153387	1072
1153387	197392
1153387	233347
1153387	233336
1153387	233354
1153387	593371
1153387	222628
1153387	255022
1153387	255017
1153387	226216
1153387	268221
1153387	204912
1153387	211240
1153387	204866
1153387	260407
1153387	193244
1153387	278327
1153387	278351
1153387	255002
1153387	543054
1153387	246992
1153387	540553
1153387	278400
1153387	543006
1153387	254959
1153387	260427
1153387	233371
1153387	233370
1153387	222622
1153387	758927
1153387	260399
1153387	233322
1153387	193231
1153387	222653
1153387	758903
1153387	226254
1153387	204907
1153387	268157
1153387	278365
1153387	197396
1153387	268236
1153387	651072
1153387	247006
1153387	255037
1153387	255043
1153387	204891
1153387	268199
1153387	233321
1153387	222632
1153387	222670
1153387	226260
1153387	222638
1153387	222686
1153387	197401
1153387	211276
1153387	204903
1153387	255016
1153387	260413
1153387	255044
1153387	193193
1153387	254973
1153387	278369
1153387	222668
1153387	255050
1153387	247079
1153387	268161
1153387	204872
1153387	197398
1153387	222655
1153387	758905
1153387	222635
1153387	222726
1153387	222707
1153387	843
1153387	211253
1153387	211242
1153387	222728
1153387	197390
1153387	211235
1153387	193279
1153387	193276
1153387	233383
1153387	1069
1153387	197417
1153387	278371
1153387	278403
1153387	233342
1153387	204899
1153387	268177
1153387	233312
1153387	193220
1153387	204860
1153387	222697
1153387	247013
1153387	260381
1153387	803065
1153387	233403
1153387	247069
1153387	268168
1153387	247014
1153387	278364
1153387	24767
1153387	268234
1153387	247010
1153387	204870
1153387	233358
1153387	678885
1153387	193294
1153387	211216
1153387	197430
1153387	222749
1153387	233407
1153387	204909
1153387	233376
1153387	222645
1153387	222746
1153387	197447
1153387	73737
1153387	193240
1153387	1010
1153387	260423
1153387	233360
1153387	254967
1153387	211236
1153387	226255
1153387	222716
1153387	204884
1153387	222620
1153387	268186
1153387	247027
1153387	197419
1153387	233368
1153387	233406
1153387	1107
1153387	268179
1153387	204904
1153387	193291
1153387	247023
1153387	254986
1153387	278387
1153387	278317
1153387	1029
1153387	268193
1153387	260436
1153387	222618
1153387	233405
1153387	255028
1153387	222739
1153387	260396
1153387	197403
1153387	226277
1153387	278375
1153387	204893
1153387	233349
1153387	222715
1153387	172174
1153387	204932
1153387	255063
1153387	193265
1153387	211239
1153387	681045
1153387	197426
1153387	204930
1153387	222666
1153387	278370
1153387	278316
1153387	222727
1153387	254998
1153387	254977
1153387	193227
1153387	193269
1153387	211263
1153387	543004
1153387	260415
1153387	73739
1153387	222681
1153387	278393
1153387	222701
1153387	8522
1153387	222736
1153387	278333
1153387	247053
1153387	193296
1153387	204889
1153387	226242
1153387	204913
1153387	222723
1153387	278399
1153387	193299
1153387	254965
1153387	233350
1153387	247045
1153387	543039
1153387	226217
1153387	247041
1153387	278384
1153387	204937
1153387	255033
1153387	222695
1153387	193232
1153387	226218
1153387	826
1153387	193251
1153387	1023
1153387	254996
1153387	255032
1153387	222685
1153387	268196
1153387	222663
1153387	226223
1153387	543002
1153387	278372
1153387	254981
1153387	222623
1153387	574
1153387	193275
1153387	678891
1153387	211214
1153387	841880
1153387	222741
1153387	8386
1153387	278368
1153387	211266
1153387	193238
1153387	278391
1153387	260425
1153387	278315
1153387	268248
1153387	623
1153387	254994
1153387	222744
1153387	233396
1153387	247063
1153387	233363
1153387	268214
1153387	254956
1153387	204927
1153387	254957
1153387	268180
1153387	246996
1153387	260430
1153387	197433
1153387	573
1153387	204864
1153387	278312
1153387	639
1153387	247048
1153387	255024
1153387	222644
1153387	204895
1153387	211241
1153387	278398
1153387	197410
1153387	278386
1153387	193208
1153387	255062
1153387	246995
1153387	73729
1153387	222643
1153387	255014
1153387	268242
1153387	222734
1153387	193253
1153387	651075
1153387	222624
1153387	1151
1153387	193219
1153387	1156
1153387	278338
1153387	233335
1153387	233399
1153387	204902
1153387	197394
1153387	278326
1153387	226252
1153387	268151
1153387	255046
1153387	268201
1153387	233330
1153387	247093
1153387	222676
1153387	973
1153387	268158
1153387	255036
1153387	255008
1153387	278382
1153387	860109
1153387	758917
1153387	233374
1153387	222659
1153387	254962
1153387	222674
1153387	579
1153387	260422
1153387	260403
1153387	268188
1153387	193218
1153387	204936
1153387	193237
1153387	211225
1153387	653
1153387	211279
1153387	278350
1153387	204862
1153387	204873
1153387	247019
1153387	233398
1153387	197442
1153387	233316
1153387	278322
1153387	268160
1153387	226230
1153387	197399
1153387	226234
1153387	233382
1153387	193287
1153387	268246
1153387	193254
1153387	278339
1153387	255034
1153387	254952
1153387	222745
1153387	644
1153387	197414
1153387	278336
1153387	193289
1153387	193283
1153387	268172
1153387	167623
1153387	260382
1153387	193274
1153387	222750
1153387	247078
1153387	222650
1153387	803066
1153387	678894
1153387	193305
1153387	651074
1153387	197441
1153387	278354
1153387	222621
1153387	254955
1153387	193306
1153387	204883
1153387	193263
1153387	233402
1153387	268178
1153387	260433
1153387	278331
1153387	268171
1153387	268226
1153387	109308
1153387	222683
1153387	204906
1153387	260391
1153387	254948
1153387	247004
1153387	211232
1153387	758919
1153387	24759
1153387	254953
1153387	233381
1153387	1095
1153387	197405
1153387	211247
1153387	204922
1153387	585
1153387	222752
1153387	193194
1153387	925999
1153387	268224
1153387	222637
1153387	839
1153387	424885
1153387	268153
1153387	233329
1153387	260416
1153387	193280
1153387	278390
1153387	268154
1153387	222691
1153387	197431
1153387	247071
1153387	254969
\.


