1351915	dx	0
347134	dx	0
347237	dx	0
347287	dx	0
1150290	dx	0
1150314	dx	0
1150316	dx	0
1150318	dx	0
1150320	dx	0
1150321	dx	0
1152254	dx	0
1152256	dx	0
1152258	dx	0
1152832	dx	0
1152833	dx	0
1152835	dx	0
1152837	dx	0
1152908	dx	0
1153502	dx	0
347239	dx	0
347289	dx	0
223917	dx	0
239557	dx	0
240210	dx	0
240257	dx	0
240263	dx	0
240269	dx	0
216786	dx	0
216792	dx	0
223533	dx	0
223537	dx	0
224015	dx	0
224018	dx	0
239558	dx	0
239560	dx	0
239904	dx	0
239906	dx	0
240114	dx	0
240116	dx	0
240119	dx	0
240121	dx	0
240123	dx	0
240211	dx	0
240227	dx	0
240245	dx	0
240247	dx	0
240260	dx	0
1150210	dx	0
1151596	dx	0
1151597	dx	0
1151598	dx	0
1151599	dx	0
1151610	dx	0
1151637	dx	0
1152477	dx	0
1152481	dx	0
1152483	dx	0
1152486	dx	0
1152503	dx	0
1152551	dx	0
1152554	dx	0
1152888	dx	0
1152890	dx	0
1152892	dx	0
1152894	dx	0
1152896	dx	0
1152898	dx	0
1152900	dx	0
1152902	dx	0
1152906	dx	0
1152909	dx	0
1152913	dx	0
1152920	dx	0
1152924	dx	0
1152926	dx	0
1152928	dx	0
1152938	dx	0
1152940	dx	0
1153581	dx	0
1154115	dx	0
1154118	dx	0
1351916	dx	0
1452175	dx	0
1452191	dx	0
1452228	dx	0
1152930	dx	0
1153875	dx	0
1153878	dx	0
1153881	dx	0
1153884	dx	0
1153890	dx	0
1153921	dx	0
1154109	dx	0
1154112	dx	0
1151428	dx	0
1151431	dx	0
1152932	dx	0
1152935	dx	0
1152534	dx	0
1152537	dx	0
1152565	dx	0
1452281	dx	0
1452285	dx	0
347241	dx	0
347291	dx	0
347293	dx	0
424090	dx	0
424094	dx	0
424098	dx	0
424102	dx	0
624489	qrur9Dvnyt5	0
624489	oZg33kd9taw	1
624493	qrur9Dvnyt5	0
624493	oZg33kd9taw	1
624497	qrur9Dvnyt5	0
624497	oZg33kd9taw	1
624501	qrur9Dvnyt5	0
624501	oZg33kd9taw	1
624505	qrur9Dvnyt5	0
624505	oZg33kd9taw	1
624510	qrur9Dvnyt5	0
624510	oZg33kd9taw	1
624515	qrur9Dvnyt5	0
624515	oZg33kd9taw	1
624520	qrur9Dvnyt5	0
624520	oZg33kd9taw	1
624525	qrur9Dvnyt5	0
624525	oZg33kd9taw	1
858646	dx	0
858650	dx	0
858670	dx	0
858674	dx	0
858678	dx	0
858682	dx	0
858713	dx	0
858740	dx	0
858776	dx	0
858946	qrur9Dvnyt5	0
858946	oZg33kd9taw	1
858923	dx	0
858944	dx	0
858945	dx	0
858986	dx	0
860821	dx	0
860834	dx	0
860820	dx	0
860824	dx	0
860829	dx	0
860830	dx	0
860831	dx	0
860833	dx	0
860866	dx	0
860867	dx	0
860865	dx	0
860870	dx	0
861921	dx	0
862365	dx	0
862368	dx	0
862363	dx	0
862362	dx	0
889014	dx	0
889227	dx	0
889208	dx	0
910408	dx	0
\.


