23100	18908	16306	14
23101	18908	16304	14
23102	18908	16356	14
23103	18908	16354	16249
23104	18908	16357	14
23105	18908	16358	14
23106	18908	16355	14
21881	16967	16890	14
21882	16967	16812	14
21883	16967	16909	14
21884	16967	16872	14
21885	16967	16792	14
21886	16967	16916	14
21887	16967	16805	14
21888	16967	16845	14
21889	16967	16816	14
21890	16967	16896	16779
21891	16967	16828	16778
21892	16967	16873	14
21893	16967	16917	14
21894	16967	16888	14
19156	17904	17886	14
19157	17904	17889	14
19158	17904	17887	14
19159	17904	17893	14
19160	17904	18532	14
19161	17904	17891	14
19162	17904	512	14
19163	17904	17888	14
19164	17904	17890	14
21895	16967	16903	14
21896	16967	16818	14
21897	16967	16820	16778
21898	16967	16840	16778
21899	16967	16798	14
21900	16967	16910	14
21901	16967	16801	14
21902	16967	16786	14
21903	16967	16902	14
21904	16967	16914	16778
21905	16967	16807	14
21906	16967	16810	16778
21907	16967	16850	14
21908	16967	16875	16778
19165	17904	18516	14
19166	17904	17892	14
19167	17904	18203	14
19168	17904	18517	14
19169	17904	17894	14
19170	17904	17885	14
19284	8732	8506	14
19785	8715	8487	14
19786	8715	8492	8229
19787	8715	8495	14
19788	8715	8493	14
19789	8715	8486	8229
19790	8715	8494	8229
19791	8715	8491	14
19792	8715	8490	8229
19793	8715	8484	8229
19794	8715	8496	8229
19795	8715	8497	14
19796	8715	8485	14
21909	16967	16844	14
21910	16967	16860	14
21911	16967	16819	14
21912	16967	16849	14
21913	16967	16853	16778
21914	16967	16908	14
21915	16967	16794	14
21916	16967	16915	14
21917	16967	16906	14
21918	16967	16830	14
21919	16967	16913	14
21920	16967	16795	14
21921	16967	16901	14
21922	16967	16847	14
21923	16967	16826	14
21924	16967	16834	14
21925	16967	16912	14
21926	16967	16861	14
21927	16967	16789	14
21928	16967	16823	14
21929	16967	16814	14
21930	16967	16808	16778
21931	16967	16897	16779
21932	16967	16836	14
21933	16967	16884	14
21934	16967	16802	14
21935	16967	16800	14
21936	16967	16848	14
21937	16967	16854	16778
21938	16967	16920	14
21939	16967	16793	14
21940	16967	16785	14
21941	16967	16855	14
21942	16967	16804	14
21943	16967	16837	14
21944	16967	16882	14
21945	16967	16859	14
21946	16967	16827	14
21947	16967	16803	14
21948	16967	16851	14
21949	16967	16911	14
21950	16967	16905	14
21951	16967	16832	14
19766	8696	8464	8228
19767	8696	8514	14
19768	8696	8446	14
21952	16967	16918	14
21953	16967	16811	14
21954	16967	16829	16778
21955	16967	16866	14
21956	16967	16799	14
21957	16967	16898	16779
21958	16967	16857	14
21959	16967	16809	16778
21960	16967	16907	14
21961	16967	16870	14
21962	16967	16877	14
21963	16967	16891	14
21964	16967	16892	14
21965	16967	16886	14
21966	16967	16868	14
21967	16967	16784	14
21968	16967	16842	14
19769	8696	8513	14
19770	8696	8470	14
19771	8696	8465	14
19772	8696	8461	14
19773	8696	8512	14
19774	8696	8469	14
19775	8696	8463	14
19776	8696	8511	14
19777	8696	8462	8228
19778	8696	8507	14
19779	8696	8460	14
19780	8696	8471	14
19781	8696	8447	14
19782	8696	8459	8228
21969	16967	16835	14
21970	16967	16881	14
21971	16967	16919	14
21972	16967	16846	14
21973	16967	16871	14
21974	16967	16831	14
21975	16967	16893	14
21976	16967	16883	14
21977	16967	16858	14
21978	16967	16852	16778
21979	16967	16887	14
21980	16967	16821	14
21981	16967	16889	14
21982	16967	16797	16778
23558	22223	19680	14
23559	22223	19554	14
21983	16967	16900	14
21984	16967	16813	14
21985	16967	16921	14
21986	16967	16885	14
21987	16967	16825	14
21988	16967	16869	14
21989	16967	16791	14
21990	16967	16880	14
21991	16967	16878	14
21992	16967	16874	16778
21993	16967	16815	14
21994	16967	16894	14
21995	16967	16787	14
21996	16967	16833	14
21997	16967	16796	14
21998	16967	16824	14
21999	16967	16867	14
22000	16967	16862	14
22001	16967	16806	14
22002	16967	16838	16778
22003	16967	16841	16778
22004	16967	16817	14
22005	16967	16895	16779
22006	16967	16899	16779
22007	16967	16839	16778
22008	16967	16822	14
22009	16967	16843	14
22010	16967	16790	14
22011	16967	16879	14
22012	16967	16876	14
22013	16967	16904	14
22014	16967	16856	14
22015	16967	16788	14
23570	23565	16288	16250
23818	23811	16294	16250
23819	23811	16298	16250
30529	329	328	315
30530	329	321	315
30531	329	318	315
30532	329	323	315
30533	329	319	315
30534	329	324	315
30535	329	327	315
30536	329	322	315
30537	329	326	315
30538	329	342	14
30539	329	320	315
30540	329	341	14
30541	329	325	315
23820	23811	16297	16250
23821	23811	16299	16250
23822	23811	16295	16250
23823	23811	16296	16250
19261	8729	8478	8229
19262	8729	8479	14
19285	8732	8448	14
19286	8732	8449	14
19287	8732	8468	14
19288	8732	8499	14
19289	8732	8498	14
19290	8732	8445	14
19293	8779	8478	8229
19294	8779	8480	8229
19295	8779	8479	14
19296	8779	8476	8229
19297	8779	8481	14
19298	8779	8477	14
30654	17389	16865	14
30655	17389	18144	14
30656	17389	16863	14
30657	17389	16864	14
30658	17389	18143	14
30659	17389	8500	14
30660	17389	16355	14
23833	23825	16347	14
23834	23825	16366	14
23835	23825	16345	315
23836	23825	16346	315
23837	23825	16365	14
23838	23825	16367	14
25816	23541	16863	14
25817	23541	16865	14
25818	23541	16864	14
25819	22915	8500	14
26316	26315	26144	14
30550	8740	8442	14
30551	8740	8446	14
30552	8740	8510	14
30553	8740	8443	14
30554	8740	8460	14
30555	8740	8466	14
30556	8740	8501	14
30557	8740	8511	14
30558	8740	8467	14
30559	8740	8508	14
30560	8740	8444	14
30561	8740	8509	14
30562	8740	22886	22342
30563	8740	8512	14
30564	8740	8447	14
30565	8740	8505	14
30566	8740	8503	14
30567	8740	8504	14
30568	8740	8502	14
30377	16428	16288	16250
30378	16428	16284	16250
30379	16428	16289	16250
30380	16428	19308	14
30381	16428	16302	14
30382	16428	16318	14
30383	16428	22022	14
30384	16428	16316	16250
30385	16428	16301	14
30386	16428	19306	14
30387	16428	16282	16249
30388	16428	16278	16249
30389	16428	16315	16250
30390	16428	19303	14
30391	16428	16281	16249
30392	16428	16363	14
30393	16428	16320	14
30394	16428	16364	14
30395	16428	16292	16250
30396	16428	16361	14
30397	16428	16283	16250
30398	16428	16360	14
30399	16428	16305	14
30400	16428	19304	14
30401	16428	16276	16249
30402	16428	16286	16250
30403	16428	16285	16250
30404	16428	16279	16249
30405	16428	16291	16250
30406	16428	16287	16250
30407	16428	19301	14
30408	16428	16311	14
30409	16428	19307	14
30410	16428	16312	14
30411	16428	22021	14
30412	16428	16277	16249
30413	16428	16307	14
30414	16428	16362	14
30415	16428	19309	14
30416	16428	19305	14
30417	16428	16303	14
30418	16428	16317	16250
30419	16428	16359	14
30420	16428	16293	16250
30421	16428	16321	14
30422	16428	16319	14
30423	16428	16290	16250
30424	16428	16280	16249
30425	16428	19310	14
30426	16428	22020	14
30427	16481	16301	14
30428	16481	16320	14
30429	16481	16327	14
30430	16481	16334	16251
30431	16481	16341	16251
30432	16481	16285	16250
30433	16481	19305	14
30434	16481	16359	14
30435	16481	16344	16250
30436	16481	16351	16250
30437	16481	16361	14
30438	16481	16352	16250
30439	16481	16338	16250
30440	16481	16293	16250
30441	16481	16291	16250
30442	16481	16326	14
30443	16481	16303	14
30444	16481	16325	16250
30445	16481	16362	14
30446	16481	16282	16249
30447	16481	16337	16251
30448	16481	19310	14
30449	16481	16292	16250
30450	16481	16343	16250
30451	16481	16317	16250
30452	16481	16307	14
30453	16481	16316	16250
30454	16481	16328	16251
30455	16481	19301	14
30456	16481	16324	16250
30457	16481	16286	16250
30458	16481	16348	16250
30459	16481	19303	14
30460	16481	16281	16249
30461	16481	19308	14
30462	16481	16353	14
30463	16481	16284	16250
30464	16481	16283	16250
30465	16481	16336	16251
30466	16481	16342	16251
30467	16481	16333	16251
30468	16481	16290	16250
30469	16481	19306	14
30470	16481	16332	16251
30471	16481	16287	16250
30472	16481	16276	16249
30473	16481	19309	14
30474	16481	16364	14
30475	16481	16350	16250
30476	16481	16315	16250
30477	16481	19307	14
30478	16481	16277	16249
30479	16481	16363	14
30480	16481	16349	16250
30481	16481	16360	14
30482	16481	16331	14
30483	16481	16330	14
30484	16481	16323	16250
30485	16481	16329	14
30486	16481	19304	14
30487	16481	16339	14
30488	16481	16289	16250
30489	16481	16322	16250
30490	16481	16335	16251
30491	16481	16340	14
30569	8769	22922	14
30570	8769	8489	14
30571	8769	22925	14
30572	8769	8474	8229
30573	8769	8475	14
30574	8769	22924	14
30575	8769	8482	8229
30576	8769	22923	14
30577	8769	8488	8229
30578	8769	8483	14
30579	8769	8472	8229
30580	8769	8473	14
\.


