1151265	dhis-web-dashboard-integration	0
1151265	dhis-web-pivot	1
1150127	dhis-web-dashboard-integration	0
1150127	dhis-web-maintenance-program	11
1151265	dhis-web-cache-cleaner	23
1151265	dhis-web-event-capture	7
1151265	dhis-web-tracker-capture	8
1151265	dhis-web-maintenance	9
1150127	dhis-web-visualizer	2
1150127	dhis-web-mapping	3
1151265	dhis-web-settings	10
1150127	dhis-web-settings	13
1150127	dhis-web-usage-analytics	14
1150127	dhis-web-validationrule	15
1150127	dhis-web-maintenance-dataadmin	16
1150127	dhis-web-app-management	17
1150127	dhis-web-mobile	18
1150127	dhis-web-importexport	19
1150127	dhis-web-light	20
1150127	dhis-web-sms	21
1150127	dhis-web-maintenance-mobile	22
1150127	Web Portal	25
1150127	Easy Visualization	26
1150127	Custom Js Css	27
1150127	Data Table	28
1150127	dhis-web-cache-cleaner	23
1150127	dhis-web-menu-management	24
1151265	dhis-web-reporting	11
1151265	dhis-web-maintenance-user	12
1151265	dhis-web-usage-analytics	13
1151265	dhis-web-maintenance-dataadmin	14
1151265	dhis-web-maintenance-program	15
1151265	dhis-web-app-management	16
1151265	dhis-web-validationrule	17
1151265	dhis-web-visualizer	2
1151265	dhis-web-mapping	3
1151265	dhis-web-event-visualizer	4
1151265	dhis-web-event-reports	5
1151265	dhis-web-dataentry	6
1151265	dhis-web-sms	18
1151265	dhis-web-importexport	19
1151265	dhis-web-light	20
1151265	dhis-web-mobile	21
1151265	dhis-web-maintenance-mobile	22
1151265	Web Portal	24
1151265	Easy Visualization	25
1151265	Custom Js Css	26
1151265	Data Table	27
1150127	dhis-web-pivot	1
1150127	dhis-web-maintenance-user	12
1150127	dhis-web-event-capture	4
1150127	dhis-web-event-visualizer	5
1150127	dhis-web-dataentry	6
1150127	dhis-web-event-reports	7
1150127	dhis-web-maintenance	8
1150127	dhis-web-tracker-capture	9
1150127	dhis-web-reporting	10
\.


