1151310	286
1151311	287
1151323	359430
1151324	286
1151362	287
1151365	286
1151368	286
1151488	8216
1152739	286
1152740	287
1154029	286
1154030	287
1154039	286
1154042	286
1154090	286
1452137	286
1452197	286
1452200	286
1452251	358893
1452261	358893
239891	8216
240048	287
240050	286
423439	1153386
860151	1153392
860218	1153392
860387	286
906582	1153386
\.


