860049	c16No0WU1sD	\N	2016-07-04 14:27:28.686	2016-07-04 14:27:29.018	Version_1	BEST_EFFORT	\N	59af2408f336755ba99785ea77a2b057	\N
860055	mH2qTbPwbLL	\N	2016-07-04 14:27:53.185	2016-07-04 14:27:53.185	Version_2	BEST_EFFORT	\N	8c31024878943f58eb559c2b999ea381	\N
860057	EaNDxxaEWYh	\N	2016-07-04 14:27:56.596	2016-07-04 14:27:56.596	Version_3	BEST_EFFORT	\N	6cd02b2c1fe034c18ac0006bd87001ca	\N
\.


