423729	Previous deliveries	PUZaKR0Jh2k	\N	2017-01-20 12:01:59.097	Table for recording earlier deliveries	0	423910	\N	\N	f	2015-05-05 19:58:52.389	f	t	f	f	f	f	f	f	\N	\N	1	f	\N	f	f	Date of birth	\N	\N
423731	Care at birth	PFDfvmGpsR3	\N	2017-01-20 12:01:59.103	Intrapartum care / Childbirth / Labour and delivery	280	423910	\N	\N	f	2014-11-25 14:38:47.961	f	f	f	f	f	f	f	f	\N	\N	4	f	\N	f	f	Date of visit	\N	\N
423732	Postpartum care visit	bbKtnxRZKEP	\N	2017-01-20 12:01:59.105	Provision of care for the mother for some weeks after delivery	290	423910	\N	\N	f	2014-11-25 15:24:56.927	f	t	f	f	f	f	f	f	\N	\N	5	f	\N	f	f	Date of visit	\N	\N
424058	Contraceptives Voucher Program	aNLq9ZYoy9W	\N	2015-10-20 12:06:32.515	Contraceptives Voucher Program	0	424057	\N	\N	t	2015-10-20 12:05:27.388	f	f	f	f	f	f	f	f	\N	\N	1	f	\N	f	f	Report date	\N	\N
424463	Antenatal care visit - Program rules demo	dBwrot7S420	\N	2016-04-12 15:34:04.929	\N	0	424462	\N	\N	t	2016-04-12 15:30:43.806	t	f	f	f	t	f	f	f	\N	\N	1	f	\N	f	f	Visit date	\N	\N
424479	Malaria case registration	pTo4uMt3xur	\N	2016-12-06 16:37:46.128	\N	0	424482	\N	\N	t	2016-03-30 20:18:31.146	f	f	t	f	f	f	f	f	\N	\N	1	f	\N	f	f	Report date	\N	\N
860005	Lab monitoring	EPEcjy3FWmI	\N	2016-06-28 13:32:28.127	Laboratory monitoring	0	1150449	\N	\N	f	2016-06-28 13:31:51.224	f	f	f	f	f	f	f	f	\N	\N	1	f	\N	t	f	Report date	\N	\N
1150450	TB visit	ZkbAXlQUYJG	\N	2016-08-03 23:44:30.685	Routine TB visit	0	1150449	\N	\N	t	2013-03-04 11:41:07.541	f	f	t	f	f	f	f	f	\N	\N	2	f	\N	f	f	TB visit date	\N	\N
859998	Sputum smear microscopy test	jdRD35YwbRH	\N	2016-06-28 13:32:34.805	Sputum smear microscopy test	0	1150449	\N	\N	f	2016-06-28 12:56:59.838	f	f	f	f	f	f	f	f	\N	\N	3	f	\N	t	f	Report date	\N	\N
2005746	ANC 1st visit	eaDHS084uMp	\N	2013-04-10 12:15:02.041	ANC 1st visit	0	2005727	\N	\N	t	2013-03-04 11:41:07.541	f	f	f	f	f	f	f	f	false	\N	1	\N	\N	f	f	\N	\N	\N
2008131	ANC Visit (2-4+)	grIfo3oOf4Y	\N	2013-04-09 22:39:20.903	ANC visits 2 to 4+	90	2005727	\N	30	t	2013-03-04 11:41:07.541	f	t	f	f	f	f	f	f	false	\N	2	\N	\N	f	f	\N	\N	\N
2006111	Delivery	Xgk8Wvl0jHr	\N	2013-04-09 22:39:20.905	Delivery phase	280	2005727	\N	\N	t	2013-03-04 11:41:07.541	f	t	f	f	f	f	f	f	false	\N	3	\N	\N	f	f	\N	\N	\N
2006112	PNC Visit	oRySG82BKE6	\N	2013-04-09 22:39:20.907	Post Natal Care Visit	290	2005727	\N	0	t	2013-03-04 11:41:07.541	f	t	f	f	f	f	f	f	false	\N	4	\N	\N	f	f	\N	\N	\N
2006124	Birth	A03MvHHogjR	\N	2016-10-11 10:32:53.527	Birth of the baby	0	2006123	\N	\N	f	2013-03-04 11:41:07.541	f	f	f	f	f	f	f	f	\N	\N	1	f	\N	f	f	Report date	\N	\N
2006125	Baby Postnatal	ZzYYXq4fJie	\N	2015-08-06 20:16:48.321	Baby Postnatal	6	2006123	\N	\N	t	2013-03-04 11:41:07.541	f	f	f	f	f	f	f	f	\N	\N	2	f	\N	f	f	\N	\N	\N
423728	First antenatal care visit	WZbXY0S00lP	\N	2017-05-22 22:27:13.296	First antenatal care visit	0	423910	\N	\N	t	2014-06-06 21:03:17.121	f	f	f	f	t	f	t	t	enrollmentDate	\N	2	f	\N	f	f	Date of visit	Appointment date	1151265
423730	Antenatal care visit	edqlbukwRfQ	\N	2017-05-22 22:28:29.362	Antenatal care visit	56	423910	\N	\N	f	2014-06-07 13:49:55.011	f	t	f	f	t	f	f	f	\N	\N	3	f	\N	t	f	Date of visit	Appointment date	1151265
217123	Provider Follow-up and Support Tool	lST1OZ5BDJ2	\N	2015-02-18 15:15:49.554	Provider Follow-up and Support Tool	0	217120	\N	\N	t	2014-04-25 15:14:18.89	f	f	f	f	f	f	f	t	indicentDate	217189	1	\N	\N	f	f	\N	\N	\N
223567	Information Campaign	pSllsjpfLH2	\N	2015-03-31 09:54:21.808	Information Campaign	0	223566	\N	\N	t	2014-06-22 13:28:24.042	f	f	t	f	f	f	f	f	\N	223570	1	f	\N	f	f	\N	\N	\N
1150222	Inpatient morbidity and mortality	Zj7UnCAulEk	\N	2016-12-06 18:17:16.64	Anonymous and ICD-10 coded inpatient data	0	1150221	\N	\N	t	2013-02-07 14:12:20.493	f	f	t	f	f	f	f	f	\N	\N	1	f	\N	f	f	Report date	\N	\N
890608	Malaria testing and surveillance	kO3z4Dhc038	\N	2017-05-22 18:37:40.643	\N	0	890614	\N	\N	t	2017-05-22 16:34:38.357	f	t	f	f	f	f	f	f	\N	\N	1	f	\N	f	f	\N	\N	1150127
\.


