1151089	2005727
14	2006123
14	424057
14	223566
14	1150221
14	2005727
14	217120
14	1150449
14	423910
1151090	2006123
1151090	424057
1151090	223566
1151090	1150221
1151090	2005727
1151090	217120
1151090	1150449
1151090	423910
1150443	2006123
1150443	424057
1150443	223566
1150443	1150221
1150443	2005727
1150443	217120
1150443	1150449
1150443	423910
48591	2006123
48591	424057
48591	223566
48591	1150221
48591	2005727
48591	217120
48591	1150449
48591	423910
1151091	1150449
\.


