1149959	dx	0
1148544	dx	0
1149532	dx	0
363620	dx	0
363620	pe	1
543067	dx	0
1143815	pe	0
394152	dx	0
394152	pe	1
626171	dx	0
394406	dx	0
363623	dx	0
543029	dx	0
565904	dx	0
565904	pe	1
1150323	dx	0
1149958	dx	0
1149533	J5jldMd8OHv	0
1150187	co	0
1150775	dx	0
1150799	dx	0
1150821	dx	0
1150829	dx	0
1150844	J5jldMd8OHv	0
1150844	Bpx0589u8y0	1
1150847	dx	0
1150990	dx	0
1151267	pe	0
1151267	Bpx0589u8y0	1
1151269	Cbuj0VCyDjL	0
1151269	pe	1
1151308	dx	0
1151308	fMZEcRHuamy	1
1151315	dx	0
1151315	qzsxBXFf5yb	1
1152459	dx	0
1152461	dx	0
1152470	dx	0
1152654	dx	0
1152662	pe	0
1152662	dx	1
1152665	dx	0
1152675	dx	0
1152723	dx	0
1152737	dx	0
1152737	fMZEcRHuamy	1
1152737	ou	2
1152741	dx	0
1152868	jp826jAJHUc	0
1152870	dx	0
1152966	dx	0
1153651	dx	0
1153674	dx	0
1154037	dx	0
1154037	fMZEcRHuamy	1
1154040	dx	0
1154040	fMZEcRHuamy	1
1154046	dx	0
1154052	dx	0
1154052	pe	1
1154043	fMZEcRHuamy	0
1154043	pe	1
1452144	pe	0
1452144	dx	1
1452195	ou	0
1452195	fMZEcRHuamy	1
1452212	pe	0
1452212	dx	1
1452232	pe	0
1452232	dx	1
1452240	pe	0
1452240	lv8UXn17ZOm	1
1452243	pe	0
1452243	lv8UXn17ZOm	1
1452274	dx	0
1452276	dx	0
217004	pe	0
217225	pe	0
217236	pe	0
217241	dx	0
217249	ou	0
217257	pe	0
217263	dx	0
223941	dx	0
223943	dx	0
239390	dx	0
239390	YNZyaJHiHYq	1
239457	dx	0
239537	dx	0
239537	fMZEcRHuamy	1
239564	pe	0
239787	pe	0
239857	pe	0
239885	dx	0
239887	dx	0
239887	cX5k9anHEHd	1
239915	dx	0
239915	pe	1
239926	dx	0
239926	pe	1
240877	dx	0
346998	dx	0
346998	ou	1
347041	dx	0
347041	pe	1
347049	dx	0
347061	dx	0
347061	pe	1
347082	dx	0
347089	dx	0
347108	dx	0
347113	dx	0
347130	dx	0
347130	J5jldMd8OHv	1
391348	pe	0
423393	dx	0
423393	ou	1
423425	dx	0
424042	dx	0
424042	ou	1
424045	dx	0
424045	ou	1
424212	dx	0
424229	dx	0
424236	ou	0
424362	pe	0
424395	dx	0
424395	pe	1
424399	dx	0
424399	pe	1
624567	pe	0
624620	dx	0
624631	dx	0
858996	dx	0
860133	dx	0
860146	pe	0
860214	dx	0
860214	yY2bQYqNt0o	1
860374	pe	0
860374	J5jldMd8OHv	1
860374	fMZEcRHuamy	2
860417	dx	0
860417	J5jldMd8OHv	1
860964	pe	0
860964	dx	1
862122	dx	0
862454	pe	0
862526	dx	0
888964	dx	0
888964	ou	1
888977	ou	0
889004	dx	0
889060	pe	0
889068	dx	0
889068	ou	1
889126	dx	0
889126	ou	1
889139	dx	0
889139	ou	1
889520	pe	0
889520	ou	1
889550	dx	0
889550	ou	1
889690	ou	0
889690	pe	1
889710	ou	0
889710	pe	1
889962	dx	0
889974	dx	0
889992	dx	0
890004	dx	0
890029	dx	0
890029	pe	1
890055	ou	0
890075	dx	0
890075	ou	1
890286	dx	0
906510	ou	0
906679	J5jldMd8OHv	0
906721	dx	0
906731	dx	0
906762	dx	0
906773	dx	0
906952	dx	0
907001	dx	0
907032	dx	0
907032	pe	1
910335	pe	0
910364	dx	0
1495907	dx	0
\.


