1148629	559
1150302	525
1150328	525
1150506	264
1150510	525
1150512	197385
1150513	204856
1152647	525
1152885	193190
1150509	525
1150511	204856
1150511	193190
1150511	197385
240854	539
1150505	193190
1150505	264
1149563	264
1150444	559
1150504	525
\.


