861001	QoAgSVLOn0A	\N	2016-10-05 16:22:41.006753	2016-10-05 16:22:41.006753	377537	374583	\N
861002	PRodtuSUddr	\N	2016-10-05 16:22:41.006753	2016-10-05 16:22:41.006753	377537	374584	\N
861003	IPdbygL1qfg	\N	2016-10-05 16:22:41.006753	2016-10-05 16:22:41.006753	377537	8226	\N
861004	jByCMDpDD7U	\N	2016-10-05 16:22:41.006753	2016-10-05 16:22:41.006753	377537	8234	\N
861005	kbDctY5NFFc	\N	2016-10-05 16:22:41.006753	2016-10-05 16:22:41.006753	377537	8237	\N
861006	dhQFtIwOocQ	\N	2016-10-05 16:22:41.006753	2016-10-05 16:22:41.006753	377537	8227	\N
861007	YfcgLfjJ0Rk	\N	2016-10-05 16:22:41.006753	2016-10-05 16:22:41.006753	377537	8235	\N
861008	vtTSphYu97S	\N	2016-10-05 16:22:41.006753	2016-10-05 16:22:41.006753	377537	8236	\N
861009	NDBYzQCSgfy	\N	2016-10-05 16:22:41.006753	2016-10-05 16:22:41.006753	377537	374585	\N
861010	zB9elIV2sPm	\N	2016-10-05 16:22:41.006753	2016-10-05 16:22:41.006753	377537	8228	\N
861011	ChRj5Cj3Uz7	\N	2016-10-05 16:22:41.006753	2016-10-05 16:22:41.006753	363642	20855	\N
861012	SNxmPFIv3Hw	\N	2016-10-05 16:22:41.006753	2016-10-05 16:22:41.006753	363642	363640	\N
861013	umYB7RtM3wu	\N	2016-10-05 16:22:41.006753	2016-10-05 16:22:41.006753	363642	168063	\N
861014	JWqM5khuh37	\N	2016-10-05 16:22:41.006753	2016-10-05 16:22:41.006753	363642	20874	\N
861015	RgNao8TwvMZ	\N	2016-10-05 16:22:41.006753	2016-10-05 16:22:41.006753	363642	168062	\N
861016	INXb7jUuUfG	\N	2016-10-05 16:22:41.006753	2016-10-05 16:22:41.006753	363642	20844	\N
861017	AsBkPwIJucp	\N	2016-10-05 16:22:41.006753	2016-10-05 16:22:41.006753	363642	20879	\N
861018	y2U6MHsZg2n	\N	2016-10-05 16:22:41.006753	2016-10-05 16:22:41.006753	359593	359672	\N
861019	uTldoVxJby2	\N	2016-10-05 16:22:41.006753	2016-10-05 16:22:41.006753	359593	192	\N
861020	YZHPhR9A773	\N	2016-10-05 16:22:41.006753	2016-10-05 16:22:41.006753	359593	359606	\N
861021	O3GYlf4eJyx	\N	2016-10-05 16:22:41.006753	2016-10-05 16:22:41.006753	359593	359601	\N
861022	nRbFFlh3dAT	\N	2016-10-05 16:22:41.006753	2016-10-05 16:22:41.006753	359593	65	\N
861023	fQ02P1zMuHG	\N	2016-10-05 16:22:41.006753	2016-10-05 16:22:41.006753	359593	406919	\N
861024	sgsWbMfPAQg	\N	2016-10-05 16:22:41.006753	2016-10-05 16:22:41.006753	359593	359674	\N
861025	XWmD3gg4zIK	\N	2016-10-05 16:22:41.006753	2016-10-05 16:22:41.006753	359593	359603	\N
861026	jAah0nS8tIe	\N	2016-10-05 16:22:41.006753	2016-10-05 16:22:41.006753	359593	359598	\N
861027	Xf5oAKpRrGn	\N	2016-10-05 16:22:41.006753	2016-10-05 16:22:41.006753	359593	359647	\N
861028	QKg0qbpylVz	\N	2016-10-05 16:22:41.006753	2016-10-05 16:22:41.006753	359593	359602	\N
861029	B3qpLoYTJ1y	\N	2016-10-05 16:22:41.006753	2016-10-05 16:22:41.006753	359593	359657	\N
861030	EfzQKG7RuRb	\N	2016-10-05 16:22:41.006753	2016-10-05 16:22:41.006753	359593	359658	\N
861031	OHIsx7UJwWC	\N	2016-10-05 16:22:41.006753	2016-10-05 16:22:41.006753	359593	45	\N
861032	YBNIahRRWXx	\N	2016-10-05 16:22:41.006753	2016-10-05 16:22:41.006753	359593	359596	\N
861033	Kn8TkPD2rUA	\N	2016-10-05 16:22:41.006753	2016-10-05 16:22:41.006753	359593	359599	\N
861034	rCyxW7kt9Eu	\N	2016-10-05 16:22:41.006753	2016-10-05 16:22:41.006753	359593	46	\N
861035	KMLuecG1PSe	\N	2016-10-05 16:22:41.006753	2016-10-05 16:22:41.006753	359593	359597	\N
861036	LlFdp8L98BB	\N	2016-10-05 16:22:41.006753	2016-10-05 16:22:41.006753	359593	359651	\N
861037	pzYuaIte36r	\N	2016-10-05 16:22:41.006753	2016-10-05 16:22:41.006753	359593	44	\N
861038	DrLgyDwGhAs	\N	2016-10-05 16:22:41.006753	2016-10-05 16:22:41.006753	359593	359605	\N
861039	geXlpXkrYXh	\N	2016-10-05 16:22:41.006753	2016-10-05 16:22:41.006753	359593	47	\N
861040	pH761czyJ3f	\N	2016-10-05 16:22:41.006753	2016-10-05 16:22:41.006753	359593	406918	\N
861041	RaTXNa5NJir	\N	2016-10-05 16:22:41.006753	2016-10-05 16:22:41.006753	359593	359820	\N
861042	bKX4uFTImGP	\N	2016-10-05 16:22:41.006753	2016-10-05 16:22:41.006753	359593	48	\N
861043	eDHC25LvafM	\N	2016-10-05 16:22:41.006753	2016-10-05 16:22:41.006753	359593	359821	\N
861044	m3ZKzmTXU0h	\N	2016-10-05 16:22:41.006753	2016-10-05 16:22:41.006753	359593	359600	\N
861045	kvSxEaZLq9O	\N	2016-10-05 16:22:41.006753	2016-10-05 16:22:41.006753	359593	359673	\N
861046	pBGsN2JtE3m	\N	2016-10-05 16:22:41.006753	2016-10-05 16:22:41.006753	359593	359604	\N
861047	ZEbHYzbPXJA	\N	2016-10-05 16:22:41.006753	2016-10-05 16:22:41.006753	359593	359648	\N
861048	j6EGWPxWdkY	\N	2016-10-05 16:22:41.006753	2016-10-05 16:22:41.006753	363642	20843	\N
861049	eTldcUiW7Cb	\N	2016-10-05 16:22:41.006753	2016-10-05 16:22:41.006753	363642	20872	\N
861050	VJzPlEmvETs	\N	2016-10-05 16:22:41.006753	2016-10-05 16:22:41.006753	363642	20841	\N
861051	HaFYNb2yzcH	\N	2016-10-05 16:22:41.006753	2016-10-05 16:22:41.006753	363642	20847	\N
861052	W5kvd7sgYIq	\N	2016-10-05 16:22:41.006753	2016-10-05 16:22:41.006753	363642	20842	\N
861053	LXSRAEVTwet	\N	2016-10-05 16:22:41.006753	2016-10-05 16:22:41.006753	363642	20870	\N
861054	t27TvvJN2kJ	\N	2016-10-05 16:22:41.006753	2016-10-05 16:22:41.006753	363642	20877	\N
861055	YVnaEJyM0Bk	\N	2016-10-05 16:22:41.006753	2016-10-05 16:22:41.006753	363642	20849	\N
861056	HSkMo39Jn1C	\N	2016-10-05 16:22:41.006753	2016-10-05 16:22:41.006753	363642	20840	\N
861057	eLxWUBP5LsR	\N	2016-10-05 16:22:41.006753	2016-10-05 16:22:41.006753	363642	20839	\N
861058	qIW86iy8J7R	\N	2016-10-05 16:22:41.006753	2016-10-05 16:22:41.006753	363642	168059	\N
861059	mJ6nIFRAI2M	\N	2016-10-05 16:22:41.006753	2016-10-05 16:22:41.006753	363642	20860	\N
861060	wOg7dcILt7U	\N	2016-10-05 16:22:41.006753	2016-10-05 16:22:41.006753	363642	20876	\N
861061	E5QouPxrgh0	\N	2016-10-05 16:22:41.006753	2016-10-05 16:22:41.006753	363642	20852	\N
861062	XL9icAqUMli	\N	2016-10-05 16:22:41.006753	2016-10-05 16:22:41.006753	363642	363639	\N
861063	mjCLrO5oiBk	\N	2016-10-05 16:22:41.006753	2016-10-05 16:22:41.006753	363642	20868	\N
861064	qpUEdCkB3DM	\N	2016-10-05 16:22:41.006753	2016-10-05 16:22:41.006753	363642	20853	\N
861065	ulp3R9F3izc	\N	2016-10-05 16:22:41.006753	2016-10-05 16:22:41.006753	363642	20856	\N
861066	fAJz6yX7ZMn	\N	2016-10-05 16:22:41.006753	2016-10-05 16:22:41.006753	363642	20838	\N
861067	mQHv1Io4Vhf	\N	2016-10-05 16:22:41.006753	2016-10-05 16:22:41.006753	363642	20836	\N
861068	Aaw9gqiVIJW	\N	2016-10-05 16:22:41.006753	2016-10-05 16:22:41.006753	363642	20848	\N
861069	P8SHVQgi3Pz	\N	2016-10-05 16:22:41.006753	2016-10-05 16:22:41.006753	363642	168060	\N
861070	ABqJqkeOGep	\N	2016-10-05 16:22:41.006753	2016-10-05 16:22:41.006753	363642	20875	\N
861071	ueLjDhrM4AL	\N	2016-10-05 16:22:41.006753	2016-10-05 16:22:41.006753	363642	20846	\N
861072	LHhdnFX34X4	\N	2016-10-05 16:22:41.006753	2016-10-05 16:22:41.006753	363642	20845	\N
861073	fhlMBzSgeMB	\N	2016-10-05 16:22:41.006753	2016-10-05 16:22:41.006753	1148628	1148619	\N
861074	jvEOdRIdcVk	\N	2016-10-05 16:22:41.006753	2016-10-05 16:22:41.006753	1148628	1148627	\N
861075	zzNFMGAkBlH	\N	2016-10-05 16:22:41.006753	2016-10-05 16:22:41.006753	1148628	1148623	\N
861076	gyJcGp7TroE	\N	2016-10-05 16:22:41.006753	2016-10-05 16:22:41.006753	1148628	1148615	\N
861077	o2hCBAfXlfM	\N	2016-10-05 16:22:41.006753	2016-10-05 16:22:41.006753	1148628	1148616	\N
861078	qkZ6k98MGlA	\N	2016-10-05 16:22:41.006753	2016-10-05 16:22:41.006753	1148628	1148622	\N
861079	NEH5BamqeYj	\N	2016-10-05 16:22:41.006753	2016-10-05 16:22:41.006753	1148628	1148626	\N
861080	CbkD78pcLeC	\N	2016-10-05 16:22:41.006753	2016-10-05 16:22:41.006753	1148628	1148614	\N
861081	eanjY0q906E	\N	2016-10-05 16:22:41.006753	2016-10-05 16:22:41.006753	1148628	1148617	\N
861082	y2FYfw33V6V	\N	2016-10-05 16:22:41.006753	2016-10-05 16:22:41.006753	1148628	1148625	\N
861083	wAS4puFJxqk	\N	2016-10-05 16:22:41.006753	2016-10-05 16:22:41.006753	1148628	1148620	\N
861084	XQ8S68J3CHv	\N	2016-10-05 16:22:41.006753	2016-10-05 16:22:41.006753	1148628	1148618	\N
861085	HgQ4aKPWgLX	\N	2016-10-05 16:22:41.006753	2016-10-05 16:22:41.006753	1148628	1148621	\N
861086	qGCjLMX2wzI	\N	2016-10-05 16:22:41.006753	2016-10-05 16:22:41.006753	377538	374572	\N
861087	nHEtQ7wYt54	\N	2016-10-05 16:22:41.006753	2016-10-05 16:22:41.006753	377538	374581	\N
861088	AzUKFrrREgX	\N	2016-10-05 16:22:41.006753	2016-10-05 16:22:41.006753	377538	374563	\N
861089	GGjTebFTj1b	\N	2016-10-05 16:22:41.006753	2016-10-05 16:22:41.006753	377538	374565	\N
861090	hlrmXFVTAWJ	\N	2016-10-05 16:22:41.006753	2016-10-05 16:22:41.006753	377538	374571	\N
861091	RhODOgIu4P0	\N	2016-10-05 16:22:41.006753	2016-10-05 16:22:41.006753	377538	374578	\N
861092	ZjV5pofgFJH	\N	2016-10-05 16:22:41.006753	2016-10-05 16:22:41.006753	377538	374562	\N
861093	pwf3Iy4e8PB	\N	2016-10-05 16:22:41.006753	2016-10-05 16:22:41.006753	377538	374569	\N
861094	KSQtbAnq1HQ	\N	2016-10-05 16:22:41.006753	2016-10-05 16:22:41.006753	377538	374559	\N
861095	KD51jb7sjvf	\N	2016-10-05 16:22:41.006753	2016-10-05 16:22:41.006753	377538	374564	\N
861096	Eon4iI2yJFH	\N	2016-10-05 16:22:41.006753	2016-10-05 16:22:41.006753	377538	374577	\N
861097	VyiacPSkffo	\N	2016-10-05 16:22:41.006753	2016-10-05 16:22:41.006753	377538	374570	\N
861098	WWN2U6cFbhu	\N	2016-10-05 16:22:41.006753	2016-10-05 16:22:41.006753	377538	374574	\N
861099	EcSNUHWZPwO	\N	2016-10-05 16:22:41.006753	2016-10-05 16:22:41.006753	377538	374567	\N
861100	pNqDfRiB59Y	\N	2016-10-05 16:22:41.006753	2016-10-05 16:22:41.006753	377538	374579	\N
861101	H2sEUxg2hlU	\N	2016-10-05 16:22:41.006753	2016-10-05 16:22:41.006753	377538	374568	\N
861102	syp8LEN8SAL	\N	2016-10-05 16:22:41.006753	2016-10-05 16:22:41.006753	377538	374573	\N
861103	zDrQmtMlHUe	\N	2016-10-05 16:22:41.006753	2016-10-05 16:22:41.006753	377538	374575	\N
861104	rZzn5rLhCBV	\N	2016-10-05 16:22:41.006753	2016-10-05 16:22:41.006753	377538	374580	\N
861105	k9hwNfENrER	\N	2016-10-05 16:22:41.006753	2016-10-05 16:22:41.006753	377538	374560	\N
861106	UV4HhfP2AES	\N	2016-10-05 16:22:41.006753	2016-10-05 16:22:41.006753	377538	374566	\N
861107	qsOg3vj4HR4	\N	2016-10-05 16:22:41.006753	2016-10-05 16:22:41.006753	377538	374576	\N
861108	hDIJIW0NnPi	\N	2016-10-05 16:22:41.006753	2016-10-05 16:22:41.006753	377538	374561	\N
861109	cXGDm9DqR2Y	\N	2016-10-05 16:22:41.006753	2016-10-05 16:22:41.006753	394131	475167	\N
861110	aZSR9NYQICU	\N	2016-10-05 16:22:41.006753	2016-10-05 16:22:41.006753	394131	374680	\N
861111	NMdmDqPSOxp	\N	2016-10-05 16:22:41.006753	2016-10-05 16:22:41.006753	394131	374633	\N
861112	R1RU58mxXIN	\N	2016-10-05 16:22:41.006753	2016-10-05 16:22:41.006753	394131	475166	\N
861113	iZN2yeA1yQD	\N	2016-10-05 16:22:41.006753	2016-10-05 16:22:41.006753	394131	374621	\N
861114	O2G8IZN6Eix	\N	2016-10-05 16:22:41.006753	2016-10-05 16:22:41.006753	394131	374649	\N
861115	S3sUfgrnuWD	\N	2016-10-05 16:22:41.006753	2016-10-05 16:22:41.006753	394131	374594	\N
861116	yP1bPsQgwiY	\N	2016-10-05 16:22:41.006753	2016-10-05 16:22:41.006753	394131	374623	\N
861117	uggStdXSQtL	\N	2016-10-05 16:22:41.006753	2016-10-05 16:22:41.006753	394131	8258	\N
861118	zEqfvTQIXNX	\N	2016-10-05 16:22:41.006753	2016-10-05 16:22:41.006753	394131	8250	\N
861119	Mpn76JtehnB	\N	2016-10-05 16:22:41.006753	2016-10-05 16:22:41.006753	394131	374648	\N
861120	E6uhTCyDOxH	\N	2016-10-05 16:22:41.006753	2016-10-05 16:22:41.006753	394131	8252	\N
861121	vT2OjBlxZ0d	\N	2016-10-05 16:22:41.006753	2016-10-05 16:22:41.006753	394131	8247	\N
861122	CxZLh4tK5yH	\N	2016-10-05 16:22:41.006753	2016-10-05 16:22:41.006753	394131	374670	\N
861123	jWatKd78k2R	\N	2016-10-05 16:22:41.006753	2016-10-05 16:22:41.006753	394131	8241	\N
861124	YG1esp3iI6W	\N	2016-10-05 16:22:41.006753	2016-10-05 16:22:41.006753	394131	8240	\N
861125	dI3d2EZqLFD	\N	2016-10-05 16:22:41.006753	2016-10-05 16:22:41.006753	394131	8243	\N
861126	gzOFxMqpeJw	\N	2016-10-05 16:22:41.006753	2016-10-05 16:22:41.006753	394131	374663	\N
861127	SoeBiDKeZtm	\N	2016-10-05 16:22:41.006753	2016-10-05 16:22:41.006753	394131	8242	\N
861128	QMeYmLksOMh	\N	2016-10-05 16:22:41.006753	2016-10-05 16:22:41.006753	394131	374677	\N
861129	XSVp8AJIxgw	\N	2016-10-05 16:22:41.006753	2016-10-05 16:22:41.006753	394131	374679	\N
861130	PhUWszvbbFo	\N	2016-10-05 16:22:41.006753	2016-10-05 16:22:41.006753	394131	374639	\N
861131	wdQHD9VPhyi	\N	2016-10-05 16:22:41.006753	2016-10-05 16:22:41.006753	394131	374613	\N
861132	tdg3noqJb9r	\N	2016-10-05 16:22:41.006753	2016-10-05 16:22:41.006753	394131	374592	\N
861133	oVZlH1CMf8p	\N	2016-10-05 16:22:41.006753	2016-10-05 16:22:41.006753	394131	8255	\N
861134	pGtwb9TPhLt	\N	2016-10-05 16:22:41.006753	2016-10-05 16:22:41.006753	394131	374656	\N
861135	DEWsvgKuN6F	\N	2016-10-05 16:22:41.006753	2016-10-05 16:22:41.006753	394131	374682	\N
861136	ghNdkZ9jFwp	\N	2016-10-05 16:22:41.006753	2016-10-05 16:22:41.006753	394131	374599	\N
861137	qiHx1XUDGYH	\N	2016-10-05 16:22:41.006753	2016-10-05 16:22:41.006753	394131	374626	\N
861138	YH39SoMOuzw	\N	2016-10-05 16:22:41.006753	2016-10-05 16:22:41.006753	394131	374637	\N
861139	xTXWS6bFmPo	\N	2016-10-05 16:22:41.006753	2016-10-05 16:22:41.006753	394131	374646	\N
861140	mDgGYjNxrq4	\N	2016-10-05 16:22:41.006753	2016-10-05 16:22:41.006753	394131	8251	\N
861141	fqMP2b9sO6B	\N	2016-10-05 16:22:41.006753	2016-10-05 16:22:41.006753	394131	374662	\N
861142	fSUiuaKAE4D	\N	2016-10-05 16:22:41.006753	2016-10-05 16:22:41.006753	394131	374622	\N
861143	fAcKOP25Kdl	\N	2016-10-05 16:22:41.006753	2016-10-05 16:22:41.006753	394131	8297	\N
861144	TseyrMDoOo6	\N	2016-10-05 16:22:41.006753	2016-10-05 16:22:41.006753	394131	374636	\N
861145	cMq8XqDRuoS	\N	2016-10-05 16:22:41.006753	2016-10-05 16:22:41.006753	394131	365337	\N
861146	KzgcrbmLDA3	\N	2016-10-05 16:22:41.006753	2016-10-05 16:22:41.006753	394131	8246	\N
861147	bylt1P7gMgt	\N	2016-10-05 16:22:41.006753	2016-10-05 16:22:41.006753	394131	8244	\N
861148	ufGjiXUMqhB	\N	2016-10-05 16:22:41.006753	2016-10-05 16:22:41.006753	394131	374655	\N
861149	K9tom4rmyPb	\N	2016-10-05 16:22:41.006753	2016-10-05 16:22:41.006753	394131	374588	\N
861150	V8Tp6z2div8	\N	2016-10-05 16:22:41.006753	2016-10-05 16:22:41.006753	394131	374673	\N
861151	iVgCptsNv5M	\N	2016-10-05 16:22:41.006753	2016-10-05 16:22:41.006753	394131	374605	\N
861152	ZkzZSbNh3ng	\N	2016-10-05 16:22:41.006753	2016-10-05 16:22:41.006753	394131	374606	\N
861153	KTcCL6k64PR	\N	2016-10-05 16:22:41.006753	2016-10-05 16:22:41.006753	394131	8254	\N
861154	XS6LBJ67Wah	\N	2016-10-05 16:22:41.006753	2016-10-05 16:22:41.006753	394131	374608	\N
861155	KzznDXgq3t9	\N	2016-10-05 16:22:41.006753	2016-10-05 16:22:41.006753	394131	8253	\N
861156	SvKSVGNlYo4	\N	2016-10-05 16:22:41.006753	2016-10-05 16:22:41.006753	394131	374651	\N
861157	Rz5fw31NaDC	\N	2016-10-05 16:22:41.006753	2016-10-05 16:22:41.006753	394131	374660	\N
861158	OrGnOwh7w3s	\N	2016-10-05 16:22:41.006753	2016-10-05 16:22:41.006753	394131	374675	\N
861159	xMEEZpcEkx4	\N	2016-10-05 16:22:41.006753	2016-10-05 16:22:41.006753	394131	374616	\N
861160	aSqYK3zO6G6	\N	2016-10-05 16:22:41.006753	2016-10-05 16:22:41.006753	394131	374634	\N
861161	CuKzRHmLzjX	\N	2016-10-05 16:22:41.006753	2016-10-05 16:22:41.006753	394131	8256	\N
861162	vnwkF1K3vpM	\N	2016-10-05 16:22:41.006753	2016-10-05 16:22:41.006753	394131	8249	\N
861163	XEXV4lSAhUu	\N	2016-10-05 16:22:41.006753	2016-10-05 16:22:41.006753	394131	374591	\N
861164	kKCzwNpVkj9	\N	2016-10-05 16:22:41.006753	2016-10-05 16:22:41.006753	394131	374612	\N
861165	TJFOT899LbE	\N	2016-10-05 16:22:41.006753	2016-10-05 16:22:41.006753	394131	374618	\N
861166	cx8JF9rauZk	\N	2016-10-05 16:22:41.006753	2016-10-05 16:22:41.006753	394131	374604	\N
861167	oOX94tkds7n	\N	2016-10-05 16:22:41.006753	2016-10-05 16:22:41.006753	394131	374669	\N
861168	qM6xL68nAga	\N	2016-10-05 16:22:41.006753	2016-10-05 16:22:41.006753	394131	374683	\N
861169	zqg8X6sxheC	\N	2016-10-05 16:22:41.006753	2016-10-05 16:22:41.006753	394131	374638	\N
861170	ve6oEaXCDLO	\N	2016-10-05 16:22:41.006753	2016-10-05 16:22:41.006753	394131	374627	\N
861171	z8a57E6de5J	\N	2016-10-05 16:22:41.006753	2016-10-05 16:22:41.006753	394131	374601	\N
861172	A3h7lUfGXak	\N	2016-10-05 16:22:41.006753	2016-10-05 16:22:41.006753	394131	475164	\N
861173	QEptcrwo6wn	\N	2016-10-05 16:22:41.006753	2016-10-05 16:22:41.006753	394131	374628	\N
861174	TskboE6jN7c	\N	2016-10-05 16:22:41.006753	2016-10-05 16:22:41.006753	394131	374615	\N
861175	n4EGaKd0ux5	\N	2016-10-05 16:22:41.006753	2016-10-05 16:22:41.006753	394131	374610	\N
861176	VgXHTCEGpby	\N	2016-10-05 16:22:41.006753	2016-10-05 16:22:41.006753	394131	374607	\N
861177	N2cUzCiweTr	\N	2016-10-05 16:22:41.006753	2016-10-05 16:22:41.006753	394131	374645	\N
861178	dZHt27dq23M	\N	2016-10-05 16:22:41.006753	2016-10-05 16:22:41.006753	394131	374665	\N
861179	NBgSFm7haOZ	\N	2016-10-05 16:22:41.006753	2016-10-05 16:22:41.006753	394131	374667	\N
861180	uiO5GBaZs9z	\N	2016-10-05 16:22:41.006753	2016-10-05 16:22:41.006753	394131	374659	\N
861181	rssxMYqGk6H	\N	2016-10-05 16:22:41.006753	2016-10-05 16:22:41.006753	394131	374586	\N
861182	GONtMuKaKD8	\N	2016-10-05 16:22:41.006753	2016-10-05 16:22:41.006753	394131	374589	\N
861183	V9FaZeJZT9I	\N	2016-10-05 16:22:41.006753	2016-10-05 16:22:41.006753	394131	374658	\N
861184	BxUadaBahIp	\N	2016-10-05 16:22:41.006753	2016-10-05 16:22:41.006753	394131	374597	\N
861185	n21fCSpGREF	\N	2016-10-05 16:22:41.006753	2016-10-05 16:22:41.006753	394131	8248	\N
861186	Tff1o4LoCNc	\N	2016-10-05 16:22:41.006753	2016-10-05 16:22:41.006753	394131	374661	\N
861187	To6xpWVxBGq	\N	2016-10-05 16:22:41.006753	2016-10-05 16:22:41.006753	394131	374643	\N
861188	umsMSyeW402	\N	2016-10-05 16:22:41.006753	2016-10-05 16:22:41.006753	394131	374642	\N
861189	VshU3MXHouv	\N	2016-10-05 16:22:41.006753	2016-10-05 16:22:41.006753	394131	374641	\N
861190	eib64O8B52n	\N	2016-10-05 16:22:41.006753	2016-10-05 16:22:41.006753	394131	475165	\N
861191	hE6ciTWZLwI	\N	2016-10-05 16:22:41.006753	2016-10-05 16:22:41.006753	394131	374596	\N
861192	lGC5eJjP5Ky	\N	2016-10-05 16:22:41.006753	2016-10-05 16:22:41.006753	394131	374647	\N
861193	SGslFug7YKC	\N	2016-10-05 16:22:41.006753	2016-10-05 16:22:41.006753	394131	374617	\N
861194	Rmln9BzvJi2	\N	2016-10-05 16:22:41.006753	2016-10-05 16:22:41.006753	394131	374676	\N
861195	JdXUDmQNamU	\N	2016-10-05 16:22:41.006753	2016-10-05 16:22:41.006753	394131	374631	\N
861196	IOa4uXS5anh	\N	2016-10-05 16:22:41.006753	2016-10-05 16:22:41.006753	394131	8245	\N
861197	BQhDFTMnMXH	\N	2016-10-05 16:22:41.006753	2016-10-05 16:22:41.006753	394131	374611	\N
861198	dsKM9Ymlsw0	\N	2016-10-05 16:22:41.006753	2016-10-05 16:22:41.006753	394131	374598	\N
861199	Hqlg9g7mE92	\N	2016-10-05 16:22:41.006753	2016-10-05 16:22:41.006753	394131	374629	\N
861200	fC85PmHmuqV	\N	2016-10-05 16:22:41.006753	2016-10-05 16:22:41.006753	394131	374619	\N
861201	v2UTf6BSwK9	\N	2016-10-05 16:22:41.006753	2016-10-05 16:22:41.006753	394131	374681	\N
861202	Tr84ol8oekq	\N	2016-10-05 16:22:41.006753	2016-10-05 16:22:41.006753	394131	374678	\N
861203	Yf5FnizU3uN	\N	2016-10-05 16:22:41.006753	2016-10-05 16:22:41.006753	394131	374674	\N
861204	LDtKFB7PBU7	\N	2016-10-05 16:22:41.006753	2016-10-05 16:22:41.006753	394131	374664	\N
861205	zOmkNQFy7hU	\N	2016-10-05 16:22:41.006753	2016-10-05 16:22:41.006753	394131	374614	\N
861206	un7bcRVMekP	\N	2016-10-05 16:22:41.006753	2016-10-05 16:22:41.006753	394131	374650	\N
861207	LuVPrlQCiPR	\N	2016-10-05 16:22:41.006753	2016-10-05 16:22:41.006753	394131	374632	\N
861208	I0ea6TXdnRH	\N	2016-10-05 16:22:41.006753	2016-10-05 16:22:41.006753	394131	374609	\N
861209	esj1EwWoCjZ	\N	2016-10-05 16:22:41.006753	2016-10-05 16:22:41.006753	394131	374624	\N
861210	TyH8FJgVarL	\N	2016-10-05 16:22:41.006753	2016-10-05 16:22:41.006753	394131	374640	\N
861211	wHIOfl2wtcf	\N	2016-10-05 16:22:41.006753	2016-10-05 16:22:41.006753	394131	374620	\N
861212	PUkEqOHQoeF	\N	2016-10-05 16:22:41.006753	2016-10-05 16:22:41.006753	394131	374668	\N
861213	ndK49fVqrRy	\N	2016-10-05 16:22:41.006753	2016-10-05 16:22:41.006753	394131	374654	\N
861214	rgTbYGK1ldL	\N	2016-10-05 16:22:41.006753	2016-10-05 16:22:41.006753	394131	374672	\N
861215	Ki2apJFKO0n	\N	2016-10-05 16:22:41.006753	2016-10-05 16:22:41.006753	394131	8257	\N
861216	Vvn5HUnZId5	\N	2016-10-05 16:22:41.006753	2016-10-05 16:22:41.006753	394131	374653	\N
861217	Y5UjGLLkWXI	\N	2016-10-05 16:22:41.006753	2016-10-05 16:22:41.006753	394131	374671	\N
861218	MxyY39ntnDf	\N	2016-10-05 16:22:41.006753	2016-10-05 16:22:41.006753	394131	374666	\N
861219	O9nlnCuG7NC	\N	2016-10-05 16:22:41.006753	2016-10-05 16:22:41.006753	394131	374595	\N
861220	OwId7t0U2FI	\N	2016-10-05 16:22:41.006753	2016-10-05 16:22:41.006753	394131	374600	\N
861221	keBqHvULRlK	\N	2016-10-05 16:22:41.006753	2016-10-05 16:22:41.006753	394131	374603	\N
861222	vMx6644K6M6	\N	2016-10-05 16:22:41.006753	2016-10-05 16:22:41.006753	394131	374625	\N
861223	Ep4yfPqlYXF	\N	2016-10-05 16:22:41.006753	2016-10-05 16:22:41.006753	394131	374635	\N
861224	VENLYZd9jXM	\N	2016-10-05 16:22:41.006753	2016-10-05 16:22:41.006753	394131	374602	\N
861225	TUISPTPbQVH	\N	2016-10-05 16:22:41.006753	2016-10-05 16:22:41.006753	394131	374593	\N
861226	IJnZ0OyOUNT	\N	2016-10-05 16:22:41.006753	2016-10-05 16:22:41.006753	394131	374657	\N
861227	cZr62rgQ34l	\N	2016-10-05 16:22:41.006753	2016-10-05 16:22:41.006753	394131	374652	\N
861228	BM1VcSlxav6	\N	2016-10-05 16:22:41.006753	2016-10-05 16:22:41.006753	394131	365336	\N
861229	DLxS9CmNVKn	\N	2016-10-05 16:22:41.006753	2016-10-05 16:22:41.006753	394131	374644	\N
861230	CHgunxniZpv	\N	2016-10-05 16:22:41.006753	2016-10-05 16:22:41.006753	394131	374590	\N
861231	NANjmA9Y7Dk	\N	2016-10-05 16:22:41.006753	2016-10-05 16:22:41.006753	394131	374630	\N
861232	nVkx8yIJbLQ	\N	2016-10-05 16:22:41.006753	2016-10-05 16:22:41.006753	490350	20824	\N
861233	y54vjdLOObP	\N	2016-10-05 16:22:41.006753	2016-10-05 16:22:41.006753	490350	20826	\N
861234	XA2bAQYD0JZ	\N	2016-10-05 16:22:41.006753	2016-10-05 16:22:41.006753	490350	20899	\N
861235	W6YPFhqQypM	\N	2016-10-05 16:22:41.006753	2016-10-05 16:22:41.006753	490350	5808	\N
861236	lbvMmAaDQ1E	\N	2016-10-05 16:22:41.006753	2016-10-05 16:22:41.006753	490350	20825	\N
861237	GTEYsHP2hqz	\N	2016-10-05 16:22:41.006753	2016-10-05 16:22:41.006753	543073	98454	\N
861238	w54dmLRRXAs	\N	2016-10-05 16:22:41.006753	2016-10-05 16:22:41.006753	543073	98457	\N
861239	HMVJnYafdiy	\N	2016-10-05 16:22:41.006753	2016-10-05 16:22:41.006753	543073	98450	\N
861240	b7hoMZM2OHy	\N	2016-10-05 16:22:41.006753	2016-10-05 16:22:41.006753	543073	98445	\N
861241	HkaU2rs2a2F	\N	2016-10-05 16:22:41.006753	2016-10-05 16:22:41.006753	543073	98456	\N
861242	nBsKbNnACK7	\N	2016-10-05 16:22:41.006753	2016-10-05 16:22:41.006753	543073	98446	\N
861243	dzJ9BCOJ0Xt	\N	2016-10-05 16:22:41.006753	2016-10-05 16:22:41.006753	543073	98463	\N
861244	Osl8aeZSkKU	\N	2016-10-05 16:22:41.006753	2016-10-05 16:22:41.006753	543073	98453	\N
861245	PVwg8wjJuI8	\N	2016-10-05 16:22:41.006753	2016-10-05 16:22:41.006753	543073	98447	\N
861246	uHA6WJxt3Eb	\N	2016-10-05 16:22:41.006753	2016-10-05 16:22:41.006753	543073	98455	\N
861247	aC29cLjmg27	\N	2016-10-05 16:22:41.006753	2016-10-05 16:22:41.006753	543073	98464	\N
861248	PZ6F8FzHEtP	\N	2016-10-05 16:22:41.006753	2016-10-05 16:22:41.006753	543073	98452	\N
861249	DqlNdUGhwmk	\N	2016-10-05 16:22:41.006753	2016-10-05 16:22:41.006753	543073	98458	\N
861250	ilC0LpWEnpe	\N	2016-10-05 16:22:41.006753	2016-10-05 16:22:41.006753	543073	98444	\N
861251	evcplktVzxB	\N	2016-10-05 16:22:41.006753	2016-10-05 16:22:41.006753	543073	98449	\N
861252	WBfvIDiuoNW	\N	2016-10-05 16:22:41.006753	2016-10-05 16:22:41.006753	543073	98461	\N
861253	jEiWbn9HHj3	\N	2016-10-05 16:22:41.006753	2016-10-05 16:22:41.006753	543073	98462	\N
861254	eOeK80Aw1bx	\N	2016-10-05 16:22:41.006753	2016-10-05 16:22:41.006753	543073	98451	\N
861255	TN6avrE9DvD	\N	2016-10-05 16:22:41.006753	2016-10-05 16:22:41.006753	543073	98459	\N
861256	fIfPImWrf66	\N	2016-10-05 16:22:41.006753	2016-10-05 16:22:41.006753	543073	98460	\N
861257	AH40HrsieGw	\N	2016-10-05 16:22:41.006753	2016-10-05 16:22:41.006753	543073	98448	\N
861258	WghIlhMXlyf	\N	2016-10-05 16:22:41.006753	2016-10-05 16:22:41.006753	1149441	359941	\N
861259	FDntaVPXSQe	\N	2016-10-05 16:22:41.006753	2016-10-05 16:22:41.006753	1149441	360075	\N
861260	KGm4zLY570c	\N	2016-10-05 16:22:41.006753	2016-10-05 16:22:41.006753	1149441	360103	\N
861261	a8ECKbn87tC	\N	2016-10-05 16:22:41.006753	2016-10-05 16:22:41.006753	1149441	360049	\N
861262	fdc7szP8UcF	\N	2016-10-05 16:22:41.006753	2016-10-05 16:22:41.006753	1149441	360018	\N
861263	xW4Iv0GlSlk	\N	2016-10-05 16:22:41.006753	2016-10-05 16:22:41.006753	1149441	360021	\N
861264	TnuyQtwAwYd	\N	2016-10-05 16:22:41.006753	2016-10-05 16:22:41.006753	1149441	359967	\N
861265	MVMElKYEQVa	\N	2016-10-05 16:22:41.006753	2016-10-05 16:22:41.006753	1149441	359995	\N
861266	JeMBkyTLYqy	\N	2016-10-05 16:22:41.006753	2016-10-05 16:22:41.006753	1149441	360126	\N
861267	IeF3RFppi3B	\N	2016-10-05 16:22:41.006753	2016-10-05 16:22:41.006753	1149441	360072	\N
861268	n8n5XrLsIWN	\N	2016-10-05 16:22:41.006753	2016-10-05 16:22:41.006753	1149441	359964	\N
861269	RYxJr8hYxr3	\N	2016-10-05 16:22:41.006753	2016-10-05 16:22:41.006753	1149441	360129	\N
861270	tkK7Q0gK1RI	\N	2016-10-05 16:22:41.006753	2016-10-05 16:22:41.006753	359711	359706	\N
861271	ZMfMYOUvboJ	\N	2016-10-05 16:22:41.006753	2016-10-05 16:22:41.006753	359711	23	\N
861272	My1NVPADI3o	\N	2016-10-05 16:22:41.006753	2016-10-05 16:22:41.006753	359711	359726	\N
861273	P14JXEBoMg1	\N	2016-10-05 16:22:41.006753	2016-10-05 16:22:41.006753	359711	359734	\N
861274	ksP6CBXrLlf	\N	2016-10-05 16:22:41.006753	2016-10-05 16:22:41.006753	359711	359738	\N
861275	Cz1Sz4atitk	\N	2016-10-05 16:22:41.006753	2016-10-05 16:22:41.006753	359711	359730	\N
861276	Y37h4mtadbI	\N	2016-10-05 16:22:41.006753	2016-10-05 16:22:41.006753	359711	33	\N
861277	lXKuv25XX8M	\N	2016-10-05 16:22:41.006753	2016-10-05 16:22:41.006753	359711	268	\N
861278	MQCJqvsaVLT	\N	2016-10-05 16:22:41.006753	2016-10-05 16:22:41.006753	359711	359707	\N
861279	QsO5boZ3wIR	\N	2016-10-05 16:22:41.006753	2016-10-05 16:22:41.006753	359711	24	\N
861280	x3CzyZMwlbC	\N	2016-10-05 16:22:41.006753	2016-10-05 16:22:41.006753	359711	36	\N
861281	hltZTKueeEN	\N	2016-10-05 16:22:41.006753	2016-10-05 16:22:41.006753	359711	359725	\N
861282	l9pWZiJhzGa	\N	2016-10-05 16:22:41.006753	2016-10-05 16:22:41.006753	359711	359731	\N
861283	t6PRJB2kEgM	\N	2016-10-05 16:22:41.006753	2016-10-05 16:22:41.006753	359711	35	\N
861284	q5g8qAduOLu	\N	2016-10-05 16:22:41.006753	2016-10-05 16:22:41.006753	359711	25	\N
861285	uiJbrqRyHJv	\N	2016-10-05 16:22:41.006753	2016-10-05 16:22:41.006753	359711	359727	\N
861286	Sa4YTfczrRv	\N	2016-10-05 16:22:41.006753	2016-10-05 16:22:41.006753	359711	359709	\N
861287	LPbOsMc46Vc	\N	2016-10-05 16:22:41.006753	2016-10-05 16:22:41.006753	359711	359735	\N
861288	FxKwE94OuRp	\N	2016-10-05 16:22:41.006753	2016-10-05 16:22:41.006753	359711	359733	\N
861289	ip8KIy2ZkFp	\N	2016-10-05 16:22:41.006753	2016-10-05 16:22:41.006753	359711	21	\N
861290	BUYOwSKIvR6	\N	2016-10-05 16:22:41.006753	2016-10-05 16:22:41.006753	359711	359722	\N
861291	wDB68PqP4W4	\N	2016-10-05 16:22:41.006753	2016-10-05 16:22:41.006753	359711	359724	\N
861292	ugCrYcReHTy	\N	2016-10-05 16:22:41.006753	2016-10-05 16:22:41.006753	359711	359729	\N
861293	ailxtujAqfE	\N	2016-10-05 16:22:41.006753	2016-10-05 16:22:41.006753	359711	359710	\N
861294	kbC7IS2eMvB	\N	2016-10-05 16:22:41.006753	2016-10-05 16:22:41.006753	359711	359737	\N
861295	Ndarv4zFtUn	\N	2016-10-05 16:22:41.006753	2016-10-05 16:22:41.006753	359711	22	\N
861296	RHWFrXwMbeo	\N	2016-10-05 16:22:41.006753	2016-10-05 16:22:41.006753	359711	34	\N
861297	ZbxwUR9GTOj	\N	2016-10-05 16:22:41.006753	2016-10-05 16:22:41.006753	359711	20	\N
861298	m6VovaXGEsO	\N	2016-10-05 16:22:41.006753	2016-10-05 16:22:41.006753	359711	359723	\N
861299	Wx5ykIPEwtg	\N	2016-10-05 16:22:41.006753	2016-10-05 16:22:41.006753	359711	19	\N
861300	df01e6Ktg4q	\N	2016-10-05 16:22:41.006753	2016-10-05 16:22:41.006753	359711	359732	\N
861301	sicS5iWnwxb	\N	2016-10-05 16:22:41.006753	2016-10-05 16:22:41.006753	359414	358956	\N
861302	klBz1GmkmLG	\N	2016-10-05 16:22:41.006753	2016-10-05 16:22:41.006753	359414	359062	\N
861303	YDlZNU6HBxp	\N	2016-10-05 16:22:41.006753	2016-10-05 16:22:41.006753	359414	358955	\N
861304	YFlBcPxPrf1	\N	2016-10-05 16:22:41.006753	2016-10-05 16:22:41.006753	359414	384	\N
861305	lUsz7TbIZ5L	\N	2016-10-05 16:22:41.006753	2016-10-05 16:22:41.006753	359414	358936	\N
861306	AVZVRhXFM0K	\N	2016-10-05 16:22:41.006753	2016-10-05 16:22:41.006753	359414	358948	\N
861307	q1mDp2uKtdf	\N	2016-10-05 16:22:41.006753	2016-10-05 16:22:41.006753	359414	359055	\N
861308	XScvulKqxLB	\N	2016-10-05 16:22:41.006753	2016-10-05 16:22:41.006753	359414	358939	\N
861309	KhSu5X7vivn	\N	2016-10-05 16:22:41.006753	2016-10-05 16:22:41.006753	359414	358923	\N
861310	JySEjdxC9PV	\N	2016-10-05 16:22:41.006753	2016-10-05 16:22:41.006753	359414	359061	\N
861311	YAGELw2XxF5	\N	2016-10-05 16:22:41.006753	2016-10-05 16:22:41.006753	359414	358927	\N
861312	Fz0dwlCiOOW	\N	2016-10-05 16:22:41.006753	2016-10-05 16:22:41.006753	359414	358954	\N
861313	cS6BG8BVTeV	\N	2016-10-05 16:22:41.006753	2016-10-05 16:22:41.006753	359414	370	\N
861314	VjhMb49gzFW	\N	2016-10-05 16:22:41.006753	2016-10-05 16:22:41.006753	359414	359244	\N
861315	ijJRmrf0EDJ	\N	2016-10-05 16:22:41.006753	2016-10-05 16:22:41.006753	359414	396	\N
861316	AFP9HlSl7sK	\N	2016-10-05 16:22:41.006753	2016-10-05 16:22:41.006753	359414	358944	\N
861317	Z5mY4IOAf3j	\N	2016-10-05 16:22:41.006753	2016-10-05 16:22:41.006753	359414	358946	\N
861318	hKLVqCauLaz	\N	2016-10-05 16:22:41.006753	2016-10-05 16:22:41.006753	359414	394	\N
861319	WZ6Csi9btdW	\N	2016-10-05 16:22:41.006753	2016-10-05 16:22:41.006753	359414	358947	\N
861320	R2QdGR9A0nK	\N	2016-10-05 16:22:41.006753	2016-10-05 16:22:41.006753	359414	358938	\N
861321	B81EZlQzbrP	\N	2016-10-05 16:22:41.006753	2016-10-05 16:22:41.006753	359414	359066	\N
861322	Uu76uZpNvAG	\N	2016-10-05 16:22:41.006753	2016-10-05 16:22:41.006753	359414	390	\N
861323	CeNTdNJHYMG	\N	2016-10-05 16:22:41.006753	2016-10-05 16:22:41.006753	359414	359056	\N
861324	NQf1hUSPjr9	\N	2016-10-05 16:22:41.006753	2016-10-05 16:22:41.006753	359414	359248	\N
861325	bnt6T7rUEuy	\N	2016-10-05 16:22:41.006753	2016-10-05 16:22:41.006753	359414	358941	\N
861326	ODSeNZ2ZfIq	\N	2016-10-05 16:22:41.006753	2016-10-05 16:22:41.006753	359414	359245	\N
861327	AAOVTd5Acco	\N	2016-10-05 16:22:41.006753	2016-10-05 16:22:41.006753	359414	358913	\N
861328	KZ7JHRN1Gf5	\N	2016-10-05 16:22:41.006753	2016-10-05 16:22:41.006753	359414	359038	\N
861329	U9Jy2jUBPVB	\N	2016-10-05 16:22:41.006753	2016-10-05 16:22:41.006753	359414	359051	\N
861330	ZqU7mVZF9le	\N	2016-10-05 16:22:41.006753	2016-10-05 16:22:41.006753	359414	399	\N
861331	xvlO9cUeYse	\N	2016-10-05 16:22:41.006753	2016-10-05 16:22:41.006753	359414	359054	\N
861332	bhWG1XWNZ04	\N	2016-10-05 16:22:41.006753	2016-10-05 16:22:41.006753	359414	358920	\N
861333	mxgFNlEyGBk	\N	2016-10-05 16:22:41.006753	2016-10-05 16:22:41.006753	359414	358922	\N
861334	kPjKjEiSiGz	\N	2016-10-05 16:22:41.006753	2016-10-05 16:22:41.006753	359414	359050	\N
861335	vMrSi4sZycM	\N	2016-10-05 16:22:41.006753	2016-10-05 16:22:41.006753	359414	358959	\N
861336	RhZ6mOCnzu2	\N	2016-10-05 16:22:41.006753	2016-10-05 16:22:41.006753	359414	359047	\N
861337	V4cdduBjk7w	\N	2016-10-05 16:22:41.006753	2016-10-05 16:22:41.006753	359414	358912	\N
861338	PPUN8uBa6X8	\N	2016-10-05 16:22:41.006753	2016-10-05 16:22:41.006753	359414	359063	\N
861339	SUkkXNZHGyC	\N	2016-10-05 16:22:41.006753	2016-10-05 16:22:41.006753	359414	359042	\N
861340	dSgTUF4R1Mh	\N	2016-10-05 16:22:41.006753	2016-10-05 16:22:41.006753	359414	359057	\N
861341	KZf6b63y4PJ	\N	2016-10-05 16:22:41.006753	2016-10-05 16:22:41.006753	359414	359067	\N
861342	Z0gsQnyFqXX	\N	2016-10-05 16:22:41.006753	2016-10-05 16:22:41.006753	359414	358945	\N
861343	KrrSl9KygXN	\N	2016-10-05 16:22:41.006753	2016-10-05 16:22:41.006753	359414	359064	\N
861344	CTp8Ne2cnXT	\N	2016-10-05 16:22:41.006753	2016-10-05 16:22:41.006753	359414	358909	\N
861345	IFjx4oeRCr9	\N	2016-10-05 16:22:41.006753	2016-10-05 16:22:41.006753	359414	359243	\N
861346	m9ktJZQgmS0	\N	2016-10-05 16:22:41.006753	2016-10-05 16:22:41.006753	359414	358935	\N
861347	PREwKhah0jm	\N	2016-10-05 16:22:41.006753	2016-10-05 16:22:41.006753	359414	358957	\N
861348	VXhE1zHiy1i	\N	2016-10-05 16:22:41.006753	2016-10-05 16:22:41.006753	359414	359044	\N
861349	Vlsy1PaKGtc	\N	2016-10-05 16:22:41.006753	2016-10-05 16:22:41.006753	359414	358958	\N
861350	Igmr6Jhfw73	\N	2016-10-05 16:22:41.006753	2016-10-05 16:22:41.006753	359414	393	\N
861351	QCvIJT7A2Wl	\N	2016-10-05 16:22:41.006753	2016-10-05 16:22:41.006753	359414	397	\N
861352	eKdzlo5UGG0	\N	2016-10-05 16:22:41.006753	2016-10-05 16:22:41.006753	359414	359247	\N
861353	lxw2VSpSM8V	\N	2016-10-05 16:22:41.006753	2016-10-05 16:22:41.006753	359414	358934	\N
861354	xHeREfJaHul	\N	2016-10-05 16:22:41.006753	2016-10-05 16:22:41.006753	359414	358951	\N
861355	fkMPggVmXEZ	\N	2016-10-05 16:22:41.006753	2016-10-05 16:22:41.006753	359414	385	\N
861356	I6udlDpkZms	\N	2016-10-05 16:22:41.006753	2016-10-05 16:22:41.006753	359414	358925	\N
861357	u4xZEOhyzIY	\N	2016-10-05 16:22:41.006753	2016-10-05 16:22:41.006753	359414	386	\N
861358	BX4itg6x6Gt	\N	2016-10-05 16:22:41.006753	2016-10-05 16:22:41.006753	359414	358937	\N
861359	kjVvP5K2oDw	\N	2016-10-05 16:22:41.006753	2016-10-05 16:22:41.006753	359414	359046	\N
861360	Wd0pApeJDgg	\N	2016-10-05 16:22:41.006753	2016-10-05 16:22:41.006753	359414	359059	\N
861361	yEQfADcHxJr	\N	2016-10-05 16:22:41.006753	2016-10-05 16:22:41.006753	359414	358961	\N
861362	H46EEysIlJl	\N	2016-10-05 16:22:41.006753	2016-10-05 16:22:41.006753	359414	358933	\N
861363	XymHTvLzSJ3	\N	2016-10-05 16:22:41.006753	2016-10-05 16:22:41.006753	359414	358916	\N
861364	cp4lHCYQthL	\N	2016-10-05 16:22:41.006753	2016-10-05 16:22:41.006753	359414	358914	\N
861365	jlPeUYFd9hS	\N	2016-10-05 16:22:41.006753	2016-10-05 16:22:41.006753	359414	358921	\N
861366	gplY0aqAUOp	\N	2016-10-05 16:22:41.006753	2016-10-05 16:22:41.006753	359414	358929	\N
861367	N0xSPDBwPrY	\N	2016-10-05 16:22:41.006753	2016-10-05 16:22:41.006753	359414	358953	\N
861368	ZMs2SM20fff	\N	2016-10-05 16:22:41.006753	2016-10-05 16:22:41.006753	359414	359048	\N
861369	F3VhjW2yBIp	\N	2016-10-05 16:22:41.006753	2016-10-05 16:22:41.006753	359414	358952	\N
861370	qa42crIJGmW	\N	2016-10-05 16:22:41.006753	2016-10-05 16:22:41.006753	359414	359052	\N
861371	rfoCYeh3Aow	\N	2016-10-05 16:22:41.006753	2016-10-05 16:22:41.006753	359414	358919	\N
861372	SMWsFKuN0jo	\N	2016-10-05 16:22:41.006753	2016-10-05 16:22:41.006753	359414	398	\N
861373	nbGcjQiMmYs	\N	2016-10-05 16:22:41.006753	2016-10-05 16:22:41.006753	359414	358924	\N
861374	OaGv7AwmwIz	\N	2016-10-05 16:22:41.006753	2016-10-05 16:22:41.006753	359414	359040	\N
861375	H04TkIJJw4l	\N	2016-10-05 16:22:41.006753	2016-10-05 16:22:41.006753	359414	359043	\N
861376	uXLJ5YwUGDu	\N	2016-10-05 16:22:41.006753	2016-10-05 16:22:41.006753	359414	358917	\N
861377	LzsNlVAtKJj	\N	2016-10-05 16:22:41.006753	2016-10-05 16:22:41.006753	359414	391	\N
861378	DdKNnT9i535	\N	2016-10-05 16:22:41.006753	2016-10-05 16:22:41.006753	359414	359039	\N
861379	FC1eyLl26yr	\N	2016-10-05 16:22:41.006753	2016-10-05 16:22:41.006753	359414	358930	\N
861380	iCSADBKNlPq	\N	2016-10-05 16:22:41.006753	2016-10-05 16:22:41.006753	359414	359049	\N
861381	ocUFb3BVyHX	\N	2016-10-05 16:22:41.006753	2016-10-05 16:22:41.006753	359414	359065	\N
861382	jmM2OEyDwdF	\N	2016-10-05 16:22:41.006753	2016-10-05 16:22:41.006753	359414	358932	\N
861383	DdJGnWs2DeU	\N	2016-10-05 16:22:41.006753	2016-10-05 16:22:41.006753	359414	359041	\N
861384	TkwQlHFtfvV	\N	2016-10-05 16:22:41.006753	2016-10-05 16:22:41.006753	359414	358960	\N
861385	lojxcmj5soZ	\N	2016-10-05 16:22:41.006753	2016-10-05 16:22:41.006753	359414	359058	\N
861386	tuCOd5R7Ppi	\N	2016-10-05 16:22:41.006753	2016-10-05 16:22:41.006753	359414	358950	\N
861387	C5JKB2qxOYb	\N	2016-10-05 16:22:41.006753	2016-10-05 16:22:41.006753	359414	359060	\N
861388	qL4bvzJZOBK	\N	2016-10-05 16:22:41.006753	2016-10-05 16:22:41.006753	359414	358918	\N
861389	OPnMhlcMJfI	\N	2016-10-05 16:22:41.006753	2016-10-05 16:22:41.006753	359414	358926	\N
861390	QpJMV7auZP6	\N	2016-10-05 16:22:41.006753	2016-10-05 16:22:41.006753	359414	359053	\N
861391	QqrI0HX2SpH	\N	2016-10-05 16:22:41.006753	2016-10-05 16:22:41.006753	359414	359045	\N
861392	w1phU1rz9Af	\N	2016-10-05 16:22:41.006753	2016-10-05 16:22:41.006753	359414	392	\N
861393	HM0Gnlf2hyj	\N	2016-10-05 16:22:41.006753	2016-10-05 16:22:41.006753	359414	395	\N
861394	N7ZXVRpAZl2	\N	2016-10-05 16:22:41.006753	2016-10-05 16:22:41.006753	359414	359246	\N
861395	DJM61B51hEE	\N	2016-10-05 16:22:41.006753	2016-10-05 16:22:41.006753	359414	388	\N
861396	ULs9rlhgKwd	\N	2016-10-05 16:22:41.006753	2016-10-05 16:22:41.006753	359414	358940	\N
861397	eKz1z0RbsWk	\N	2016-10-05 16:22:41.006753	2016-10-05 16:22:41.006753	359414	358910	\N
861398	vSb6NTdSY1d	\N	2016-10-05 16:22:41.006753	2016-10-05 16:22:41.006753	359414	358911	\N
861399	F1KsYq2LKdV	\N	2016-10-05 16:22:41.006753	2016-10-05 16:22:41.006753	359414	358928	\N
861400	AUK0mmi8MdQ	\N	2016-10-05 16:22:41.006753	2016-10-05 16:22:41.006753	359414	358942	\N
861401	iae84wWwQdn	\N	2016-10-05 16:22:41.006753	2016-10-05 16:22:41.006753	359414	358915	\N
861402	WMCHFNSijS3	\N	2016-10-05 16:22:41.006753	2016-10-05 16:22:41.006753	359414	358943	\N
861403	mIfWqdjKuNl	\N	2016-10-05 16:22:41.006753	2016-10-05 16:22:41.006753	359414	358949	\N
861404	MMfBjRRD5sP	\N	2016-10-05 16:22:41.006753	2016-10-05 16:22:41.006753	359414	358931	\N
861405	yzULH3uZwfi	\N	2016-10-05 16:22:41.006753	2016-10-05 16:22:41.006753	360545	360543	\N
861406	O1PvaZgoAu0	\N	2016-10-05 16:22:41.006753	2016-10-05 16:22:41.006753	360545	360533	\N
861407	bwZyDdtwsrm	\N	2016-10-05 16:22:41.006753	2016-10-05 16:22:41.006753	360545	360542	\N
861408	C3u6oJtJsAA	\N	2016-10-05 16:22:41.006753	2016-10-05 16:22:41.006753	360545	360530	\N
861409	xwbXSFYD64z	\N	2016-10-05 16:22:41.006753	2016-10-05 16:22:41.006753	360545	360529	\N
861410	Ts3zcqiJSmC	\N	2016-10-05 16:22:41.006753	2016-10-05 16:22:41.006753	360545	360532	\N
861411	BirMR04S11F	\N	2016-10-05 16:22:41.006753	2016-10-05 16:22:41.006753	360545	360531	\N
861412	POXYmbVhQsP	\N	2016-10-05 16:22:41.006753	2016-10-05 16:22:41.006753	360545	360528	\N
861413	Jir0G1Js4LR	\N	2016-10-05 16:22:41.006753	2016-10-05 16:22:41.006753	360545	360538	\N
861414	fXjbS2TJ7lY	\N	2016-10-05 16:22:41.006753	2016-10-05 16:22:41.006753	360545	360536	\N
861415	RABwViDDyOl	\N	2016-10-05 16:22:41.006753	2016-10-05 16:22:41.006753	360545	360537	\N
861416	aFsXObRZs2x	\N	2016-10-05 16:22:41.006753	2016-10-05 16:22:41.006753	360545	360540	\N
861417	PUFKnPIPneP	\N	2016-10-05 16:22:41.006753	2016-10-05 16:22:41.006753	360545	360527	\N
861418	iQkOUoCiQin	\N	2016-10-05 16:22:41.006753	2016-10-05 16:22:41.006753	360545	360539	\N
861419	y52ZMRIFFba	\N	2016-10-05 16:22:41.006753	2016-10-05 16:22:41.006753	360545	360534	\N
861420	JmDauTDOitf	\N	2016-10-05 16:22:41.006753	2016-10-05 16:22:41.006753	360545	360535	\N
861421	H7zx9YEhBCd	\N	2016-10-05 16:22:41.006753	2016-10-05 16:22:41.006753	360545	360541	\N
861422	vcqMlvRCLco	\N	2016-10-05 16:22:41.006753	2016-10-05 16:22:41.006753	360545	360526	\N
861423	N2Zi6oHpJQm	\N	2016-10-05 16:22:41.006753	2016-10-05 16:22:41.006753	1151032	1151034	\N
861424	zEmXIKZLnTo	\N	2016-10-05 16:22:41.006753	2016-10-05 16:22:41.006753	1151032	1151040	\N
861425	QfPFwSRP7hH	\N	2016-10-05 16:22:41.006753	2016-10-05 16:22:41.006753	1151032	1151043	\N
861426	TGDBNtLeVKi	\N	2016-10-05 16:22:41.006753	2016-10-05 16:22:41.006753	1151032	1151035	\N
861427	yiqI72wRgGw	\N	2016-10-05 16:22:41.006753	2016-10-05 16:22:41.006753	1151032	1151037	\N
861428	oMjEeyCB6ZI	\N	2016-10-05 16:22:41.006753	2016-10-05 16:22:41.006753	1151032	1151042	\N
861429	AaVtmzFwYDU	\N	2016-10-05 16:22:41.006753	2016-10-05 16:22:41.006753	1151032	1151041	\N
861430	ELS78jdEWPR	\N	2016-10-05 16:22:41.006753	2016-10-05 16:22:41.006753	1151032	1151036	\N
861431	wUvvWxrv5rM	\N	2016-10-05 16:22:41.006753	2016-10-05 16:22:41.006753	1151032	1151039	\N
861432	OazHflfj6kv	\N	2016-10-05 16:22:41.006753	2016-10-05 16:22:41.006753	1151033	1151062	\N
861433	MhtyByKQFGl	\N	2016-10-05 16:22:41.006753	2016-10-05 16:22:41.006753	1151033	1151063	\N
861434	r17njtiQ6zr	\N	2016-10-05 16:22:41.006753	2016-10-05 16:22:41.006753	1151033	1151060	\N
861435	o6NXcwTChik	\N	2016-10-05 16:22:41.006753	2016-10-05 16:22:41.006753	1151033	1151061	\N
861436	OXlFh2KoeBg	\N	2016-10-05 16:22:41.006753	2016-10-05 16:22:41.006753	1151444	1151443	\N
861437	XoFLNVIDD49	\N	2016-10-05 16:22:41.006753	2016-10-05 16:22:41.006753	1151444	1151441	\N
861438	ORcDlelKF2h	\N	2016-10-05 16:22:41.006753	2016-10-05 16:22:41.006753	1151444	1151440	\N
861439	j8FjItDKPfy	\N	2016-10-05 16:22:41.006753	2016-10-05 16:22:41.006753	1151444	1151445	\N
861440	RrBqzEutEBB	\N	2016-10-05 16:22:41.006753	2016-10-05 16:22:41.006753	1151444	1151448	\N
861441	bFmBqxGjUxi	\N	2016-10-05 16:22:41.006753	2016-10-05 16:22:41.006753	1151444	1151447	\N
861442	VXrJa1Y6ptn	\N	2016-10-05 16:22:41.006753	2016-10-05 16:22:41.006753	1151444	1151449	\N
861443	kacwKM0MNXR	\N	2016-10-05 16:22:41.006753	2016-10-05 16:22:41.006753	1151444	1151450	\N
861444	sY8nfi8SGXp	\N	2016-10-05 16:22:41.006753	2016-10-05 16:22:41.006753	1151444	1151455	\N
861445	phGo5CUppBF	\N	2016-10-05 16:22:41.006753	2016-10-05 16:22:41.006753	1151444	1151452	\N
861446	HxQVocjBuaa	\N	2016-10-05 16:22:41.006753	2016-10-05 16:22:41.006753	1151444	1151454	\N
861447	lD5RCOXa4K7	\N	2016-10-05 16:22:41.006753	2016-10-05 16:22:41.006753	1151444	1151453	\N
861448	Az2DJitKn28	\N	2016-10-05 16:22:41.006753	2016-10-05 16:22:41.006753	1151444	1152328	\N
861449	vNmWxoGNEzR	\N	2016-10-05 16:22:41.006753	2016-10-05 16:22:41.006753	1151444	1152329	\N
861450	FTPetKpqLej	\N	2016-10-05 16:22:41.006753	2016-10-05 16:22:41.006753	1148628	1153190	\N
861451	hH8yv1wpEZB	\N	2016-10-05 16:22:41.006753	2016-10-05 16:22:41.006753	1153709	1153703	\N
861452	CIFI8WJFpYj	\N	2016-10-05 16:22:41.006753	2016-10-05 16:22:41.006753	1153709	1153696	\N
861453	dPFutp9Xw8L	\N	2016-10-05 16:22:41.006753	2016-10-05 16:22:41.006753	1153709	1153698	\N
861454	r8N4XPwbX1j	\N	2016-10-05 16:22:41.006753	2016-10-05 16:22:41.006753	1153709	1153708	\N
861455	Ltc3IBTrRYb	\N	2016-10-05 16:22:41.006753	2016-10-05 16:22:41.006753	1153709	1153699	\N
861456	DbY0ZjYPilJ	\N	2016-10-05 16:22:41.006753	2016-10-05 16:22:41.006753	1153709	1153706	\N
861457	x05YOx8lArD	\N	2016-10-05 16:22:41.006753	2016-10-05 16:22:41.006753	1153709	1153697	\N
861458	vzFNgWm8Xqa	\N	2016-10-05 16:22:41.006753	2016-10-05 16:22:41.006753	1153709	1153704	\N
861459	nh0U6F3hO0Y	\N	2016-10-05 16:22:41.006753	2016-10-05 16:22:41.006753	1153709	1153701	\N
861460	IOn6MO73R2t	\N	2016-10-05 16:22:41.006753	2016-10-05 16:22:41.006753	1153709	1153700	\N
861461	TGQttOGZp17	\N	2016-10-05 16:22:41.006753	2016-10-05 16:22:41.006753	1153709	1153707	\N
861462	aM3kGby6z8L	\N	2016-10-05 16:22:41.006753	2016-10-05 16:22:41.006753	1153709	1153702	\N
861463	Y5Xr3R9wAW2	\N	2016-10-05 16:22:41.006753	2016-10-05 16:22:41.006753	1153709	1153705	\N
861464	NGlfMBKE8qR	\N	2016-10-05 16:22:41.006753	2016-10-05 16:22:41.006753	1151444	216998	\N
861465	tQXTFUIEflA	\N	2016-10-05 16:22:41.006753	2016-10-05 16:22:41.006753	1151444	216997	\N
861466	uS3KRqKojbu	\N	2016-10-05 16:22:41.006753	2016-10-05 16:22:41.006753	1151444	216996	\N
861467	J67MHCLxTDE	\N	2016-10-05 16:22:41.006753	2016-10-05 16:22:41.006753	217115	217042	\N
861468	kXJCfNhHOaZ	\N	2016-10-05 16:22:41.006753	2016-10-05 16:22:41.006753	217115	217087	\N
861469	GlryvVXNGiK	\N	2016-10-05 16:22:41.006753	2016-10-05 16:22:41.006753	217115	217074	\N
861470	DvRF7FZBJHY	\N	2016-10-05 16:22:41.006753	2016-10-05 16:22:41.006753	217115	217026	\N
861471	QJ3hrAvHa3s	\N	2016-10-05 16:22:41.006753	2016-10-05 16:22:41.006753	217115	217072	\N
861472	GredFsjo2nZ	\N	2016-10-05 16:22:41.006753	2016-10-05 16:22:41.006753	217115	217039	\N
861473	ItXPIYZPwsZ	\N	2016-10-05 16:22:41.006753	2016-10-05 16:22:41.006753	217115	217041	\N
861474	jPGrBOI47Qm	\N	2016-10-05 16:22:41.006753	2016-10-05 16:22:41.006753	217115	217051	\N
861475	XurKTWC7wMq	\N	2016-10-05 16:22:41.006753	2016-10-05 16:22:41.006753	217115	217061	\N
861476	Hczi1FUkeBz	\N	2016-10-05 16:22:41.006753	2016-10-05 16:22:41.006753	217115	217057	\N
861477	ft0z1vwIXO2	\N	2016-10-05 16:22:41.006753	2016-10-05 16:22:41.006753	217115	217030	\N
861478	EYMbbJNo0XG	\N	2016-10-05 16:22:41.006753	2016-10-05 16:22:41.006753	217115	217094	\N
861479	j58vQiPRY0B	\N	2016-10-05 16:22:41.006753	2016-10-05 16:22:41.006753	217115	217085	\N
861480	Mp3AcBYr4dG	\N	2016-10-05 16:22:41.006753	2016-10-05 16:22:41.006753	217115	217109	\N
861481	F5hRILHfSxb	\N	2016-10-05 16:22:41.006753	2016-10-05 16:22:41.006753	217115	217036	\N
861482	Niryx9MoAbU	\N	2016-10-05 16:22:41.006753	2016-10-05 16:22:41.006753	217115	217059	\N
861483	ucw50d0Tj7O	\N	2016-10-05 16:22:41.006753	2016-10-05 16:22:41.006753	217115	217103	\N
861484	GOXSW3kJU1r	\N	2016-10-05 16:22:41.006753	2016-10-05 16:22:41.006753	217115	217086	\N
861485	BpfB2KBTe5w	\N	2016-10-05 16:22:41.006753	2016-10-05 16:22:41.006753	217115	217045	\N
861486	O1mvr6VpLc3	\N	2016-10-05 16:22:41.006753	2016-10-05 16:22:41.006753	217115	217046	\N
861487	dvPcWZxNHz3	\N	2016-10-05 16:22:41.006753	2016-10-05 16:22:41.006753	217115	217053	\N
861488	g0vx1FSx1jp	\N	2016-10-05 16:22:41.006753	2016-10-05 16:22:41.006753	217115	217076	\N
861489	ZUWaqClI6L4	\N	2016-10-05 16:22:41.006753	2016-10-05 16:22:41.006753	217115	217047	\N
861490	KnQlbesQXVG	\N	2016-10-05 16:22:41.006753	2016-10-05 16:22:41.006753	217115	217020	\N
861491	HJ8ObwFAbjV	\N	2016-10-05 16:22:41.006753	2016-10-05 16:22:41.006753	217115	217114	\N
861492	qAB0lKwwE8a	\N	2016-10-05 16:22:41.006753	2016-10-05 16:22:41.006753	217115	217063	\N
861493	Sj10SINoPWx	\N	2016-10-05 16:22:41.006753	2016-10-05 16:22:41.006753	217115	217106	\N
861494	LkOAqPbPkPP	\N	2016-10-05 16:22:41.006753	2016-10-05 16:22:41.006753	217115	217083	\N
861495	gG1x2o11FNa	\N	2016-10-05 16:22:41.006753	2016-10-05 16:22:41.006753	217115	217044	\N
861496	xDtFRXUnKiO	\N	2016-10-05 16:22:41.006753	2016-10-05 16:22:41.006753	217115	217098	\N
861497	Vi4oAKPQa2W	\N	2016-10-05 16:22:41.006753	2016-10-05 16:22:41.006753	217115	217060	\N
861498	PpP6hGBvg9z	\N	2016-10-05 16:22:41.006753	2016-10-05 16:22:41.006753	217115	217096	\N
861499	NEGnZuy88Og	\N	2016-10-05 16:22:41.006753	2016-10-05 16:22:41.006753	217115	217050	\N
861500	u3hDJxeBKwr	\N	2016-10-05 16:22:41.006753	2016-10-05 16:22:41.006753	217115	217110	\N
861501	VsPfuACtzSy	\N	2016-10-05 16:22:41.006753	2016-10-05 16:22:41.006753	217115	217101	\N
861502	w5NquLo9si2	\N	2016-10-05 16:22:41.006753	2016-10-05 16:22:41.006753	217115	217111	\N
861503	NlBDGDN2vml	\N	2016-10-05 16:22:41.006753	2016-10-05 16:22:41.006753	217115	217025	\N
861504	AHVAJF0c3wY	\N	2016-10-05 16:22:41.006753	2016-10-05 16:22:41.006753	217115	217056	\N
861505	GcISHHBpARR	\N	2016-10-05 16:22:41.006753	2016-10-05 16:22:41.006753	217115	217058	\N
861506	BVXFiP0L01T	\N	2016-10-05 16:22:41.006753	2016-10-05 16:22:41.006753	217115	217091	\N
861507	K1dSs5LeTT7	\N	2016-10-05 16:22:41.006753	2016-10-05 16:22:41.006753	217115	217043	\N
861508	YmEkntk5AmQ	\N	2016-10-05 16:22:41.006753	2016-10-05 16:22:41.006753	217115	217035	\N
861509	UsznjAeaUrS	\N	2016-10-05 16:22:41.006753	2016-10-05 16:22:41.006753	217115	217073	\N
861510	p9AtLfDecfG	\N	2016-10-05 16:22:41.006753	2016-10-05 16:22:41.006753	217115	217081	\N
861511	bGuPrpQT5oC	\N	2016-10-05 16:22:41.006753	2016-10-05 16:22:41.006753	217115	217079	\N
861512	mSlvxBFeU2d	\N	2016-10-05 16:22:41.006753	2016-10-05 16:22:41.006753	217115	217097	\N
861513	Rmo0pJSLPyR	\N	2016-10-05 16:22:41.006753	2016-10-05 16:22:41.006753	217115	217071	\N
861514	zE8oVSk9VUS	\N	2016-10-05 16:22:41.006753	2016-10-05 16:22:41.006753	217115	217069	\N
861515	xFF8KjSDDnq	\N	2016-10-05 16:22:41.006753	2016-10-05 16:22:41.006753	217115	217048	\N
861516	ldV1vhHkyGp	\N	2016-10-05 16:22:41.006753	2016-10-05 16:22:41.006753	217115	217062	\N
861517	pvAGVAbqSYw	\N	2016-10-05 16:22:41.006753	2016-10-05 16:22:41.006753	217115	217024	\N
861518	UX78pABTruw	\N	2016-10-05 16:22:41.006753	2016-10-05 16:22:41.006753	217115	217064	\N
861519	CmiktIZ0yNm	\N	2016-10-05 16:22:41.006753	2016-10-05 16:22:41.006753	217115	217084	\N
861520	qT8zvoIJagg	\N	2016-10-05 16:22:41.006753	2016-10-05 16:22:41.006753	217115	217078	\N
861521	TeMYgfFRSI3	\N	2016-10-05 16:22:41.006753	2016-10-05 16:22:41.006753	217115	217112	\N
861522	stnAIeyVGnp	\N	2016-10-05 16:22:41.006753	2016-10-05 16:22:41.006753	217115	217093	\N
861523	DcatkkJHHhm	\N	2016-10-05 16:22:41.006753	2016-10-05 16:22:41.006753	217115	217089	\N
861524	Q6I0BaIKT93	\N	2016-10-05 16:22:41.006753	2016-10-05 16:22:41.006753	217115	217100	\N
861525	x9CbyXhbCm3	\N	2016-10-05 16:22:41.006753	2016-10-05 16:22:41.006753	217115	217028	\N
861526	YVeDfmLCOf8	\N	2016-10-05 16:22:41.006753	2016-10-05 16:22:41.006753	217115	217102	\N
861527	TVAxeLHdFEd	\N	2016-10-05 16:22:41.006753	2016-10-05 16:22:41.006753	217115	217054	\N
861528	GfReCthonAA	\N	2016-10-05 16:22:41.006753	2016-10-05 16:22:41.006753	217115	217077	\N
861529	GEfuPh8ugWF	\N	2016-10-05 16:22:41.006753	2016-10-05 16:22:41.006753	217115	217107	\N
861530	bKkrRDwVh41	\N	2016-10-05 16:22:41.006753	2016-10-05 16:22:41.006753	217115	217033	\N
861531	rY4i6iL6jTB	\N	2016-10-05 16:22:41.006753	2016-10-05 16:22:41.006753	217115	217052	\N
861532	DEQlDBHZHoj	\N	2016-10-05 16:22:41.006753	2016-10-05 16:22:41.006753	217115	217099	\N
861533	kW1vJMSDEHc	\N	2016-10-05 16:22:41.006753	2016-10-05 16:22:41.006753	217115	217032	\N
861534	yqYh2VGLXKP	\N	2016-10-05 16:22:41.006753	2016-10-05 16:22:41.006753	217115	217113	\N
861535	hwSp4swiRd5	\N	2016-10-05 16:22:41.006753	2016-10-05 16:22:41.006753	217115	217090	\N
861536	HPEVhHZpkYW	\N	2016-10-05 16:22:41.006753	2016-10-05 16:22:41.006753	217115	217066	\N
861537	z5OUBZrMpV8	\N	2016-10-05 16:22:41.006753	2016-10-05 16:22:41.006753	217115	217070	\N
861538	yA2qxb8RWHg	\N	2016-10-05 16:22:41.006753	2016-10-05 16:22:41.006753	217115	217088	\N
861539	WdDi3tIRFHN	\N	2016-10-05 16:22:41.006753	2016-10-05 16:22:41.006753	217115	217068	\N
861540	QcPtKbZfZXg	\N	2016-10-05 16:22:41.006753	2016-10-05 16:22:41.006753	217115	217092	\N
861541	PETtDkFLHgo	\N	2016-10-05 16:22:41.006753	2016-10-05 16:22:41.006753	217115	217080	\N
861542	JEi4Nz9VCTy	\N	2016-10-05 16:22:41.006753	2016-10-05 16:22:41.006753	217115	217075	\N
861543	PD8tceJ0Bb5	\N	2016-10-05 16:22:41.006753	2016-10-05 16:22:41.006753	217115	217037	\N
861544	RK95QKDwyN1	\N	2016-10-05 16:22:41.006753	2016-10-05 16:22:41.006753	217115	217065	\N
861545	TIEMHaPbOhe	\N	2016-10-05 16:22:41.006753	2016-10-05 16:22:41.006753	217115	217067	\N
861546	LQ7rZyt1tEC	\N	2016-10-05 16:22:41.006753	2016-10-05 16:22:41.006753	217115	217055	\N
861547	lAS3DFrR6EZ	\N	2016-10-05 16:22:41.006753	2016-10-05 16:22:41.006753	217115	217023	\N
861548	BRhbh8qEd3V	\N	2016-10-05 16:22:41.006753	2016-10-05 16:22:41.006753	217115	217038	\N
861549	WlvPVm9ZosZ	\N	2016-10-05 16:22:41.006753	2016-10-05 16:22:41.006753	217115	217082	\N
861550	xldCTu8YJ9p	\N	2016-10-05 16:22:41.006753	2016-10-05 16:22:41.006753	217115	217022	\N
861551	jbMpHRJBmkn	\N	2016-10-05 16:22:41.006753	2016-10-05 16:22:41.006753	217115	217095	\N
861552	U08AzYpixmJ	\N	2016-10-05 16:22:41.006753	2016-10-05 16:22:41.006753	217115	217104	\N
861553	OpcBn0Kng1E	\N	2016-10-05 16:22:41.006753	2016-10-05 16:22:41.006753	217115	217040	\N
861554	mhMBqOoR2CI	\N	2016-10-05 16:22:41.006753	2016-10-05 16:22:41.006753	217115	217049	\N
861555	sD7PsgDVpUA	\N	2016-10-05 16:22:41.006753	2016-10-05 16:22:41.006753	217115	217105	\N
861556	GVo9gRfXWP4	\N	2016-10-05 16:22:41.006753	2016-10-05 16:22:41.006753	217115	217108	\N
861557	dQly53q7BhA	\N	2016-10-05 16:22:41.006753	2016-10-05 16:22:41.006753	217115	217027	\N
861558	zwtfzFKKGTf	\N	2016-10-05 16:22:41.006753	2016-10-05 16:22:41.006753	217115	217034	\N
861559	nSBCyZZDU8U	\N	2016-10-05 16:22:41.006753	2016-10-05 16:22:41.006753	217115	217031	\N
861560	wwPzcN0ANzw	\N	2016-10-05 16:22:41.006753	2016-10-05 16:22:41.006753	217115	217021	\N
861561	yUmDfxJyS4G	\N	2016-10-05 16:22:41.006753	2016-10-05 16:22:41.006753	217115	217029	\N
861562	R64tV8EUTAG	\N	2016-10-05 16:22:41.006753	2016-10-05 16:22:41.006753	239776	239773	\N
861563	dzjwpjAfW7z	\N	2016-10-05 16:22:41.006753	2016-10-05 16:22:41.006753	239776	239772	\N
861564	zBVwKJFFQZB	\N	2016-10-05 16:22:41.006753	2016-10-05 16:22:41.006753	239776	239771	\N
861565	JJXKOsdOzCD	\N	2016-10-05 16:22:41.006753	2016-10-05 16:22:41.006753	239776	239774	\N
861566	Uyt8yOVwEVx	\N	2016-10-05 16:22:41.006753	2016-10-05 16:22:41.006753	239776	239775	\N
861567	VI8jND0nFCx	\N	2016-10-05 16:22:41.006753	2016-10-05 16:22:41.006753	1151444	240542	\N
861568	YMCLqQBsUZh	\N	2016-10-05 16:22:41.006753	2016-10-05 16:22:41.006753	423999	423990	\N
861569	DYWSuJWG7wO	\N	2016-10-05 16:22:41.006753	2016-10-05 16:22:41.006753	423999	423991	\N
861570	wWc9NGFP4ib	\N	2016-10-05 16:22:41.006753	2016-10-05 16:22:41.006753	423999	423994	\N
861571	wuHMv0gLYkk	\N	2016-10-05 16:22:41.006753	2016-10-05 16:22:41.006753	423999	423996	\N
861572	n2V4Pb1CpxZ	\N	2016-10-05 16:22:41.006753	2016-10-05 16:22:41.006753	423999	423998	\N
861573	GwmO21IbTEL	\N	2016-10-05 16:22:41.006753	2016-10-05 16:22:41.006753	423999	423997	\N
861574	WR7RyJqYubR	\N	2016-10-05 16:22:41.006753	2016-10-05 16:22:41.006753	423999	423995	\N
861575	EVhgNkLA9Tx	\N	2016-10-05 16:22:41.006753	2016-10-05 16:22:41.006753	423999	423989	\N
861576	fipdrGwvSOD	\N	2016-10-05 16:22:41.006753	2016-10-05 16:22:41.006753	423999	423992	\N
861577	Nf1ZMQJniP9	\N	2016-10-05 16:22:41.006753	2016-10-05 16:22:41.006753	1151444	624645	\N
861747	Uyjexcmg3wH	\N	2016-10-12 13:21:05.528	2016-10-12 13:21:06.472	861746	1148614	861743
861748	vbsrYRYWNVJ	\N	2016-10-12 13:21:05.528	2016-10-12 13:21:06.471	861746	1148615	861743
861749	r9D5Rv4g2op	\N	2016-10-12 13:21:05.522	2016-10-12 13:21:06.471	861746	1148616	861743
861750	f5nAq6mHMqx	\N	2016-10-12 13:21:05.528	2016-10-12 13:21:06.471	861746	1148617	861743
861751	DuBhDYPp53W	\N	2016-10-12 13:21:05.528	2016-10-12 13:21:06.472	861746	1148618	861743
861753	fpNUTHJF4jb	\N	2016-10-12 13:21:05.528	2016-10-12 13:21:06.472	861746	1148619	861743
861754	fcwr3WlZbLA	\N	2016-10-12 13:21:05.528	2016-10-12 13:21:06.471	861746	1148620	861743
861755	poJUT2SLhXT	\N	2016-10-12 13:21:05.528	2016-10-12 13:21:06.471	861746	1148621	861743
861756	E7CceKGlTWn	\N	2016-10-12 13:21:05.528	2016-10-12 13:21:06.471	861746	1148622	861743
861757	gd4sO0ZUKgd	\N	2016-10-12 13:21:05.522	2016-10-12 13:21:06.471	861746	1148623	861743
861758	JqTC1YaXDb0	\N	2016-10-12 13:21:05.528	2016-10-12 13:21:06.471	861746	1148625	861743
861759	cwBSnyB22ZT	\N	2016-10-12 13:21:05.528	2016-10-12 13:21:06.472	861746	1148626	861743
861760	IXCSkkrYStv	\N	2016-10-12 13:21:05.528	2016-10-12 13:21:06.472	861746	1148627	861743
861752	WxJoRgPRJSY	\N	2016-10-12 13:21:05.522	2016-10-12 13:21:06.471	861746	1153190	861743
862374	LgzMkSHYne2	\N	2016-10-12 13:20:45.268	2016-10-12 13:20:46.156	861766	1148627	861761
861767	BdqcACwTAb5	\N	2016-10-12 13:20:45.268	2016-10-12 13:20:46.156	861766	1148614	861761
861768	Kx6Jh1lveLf	\N	2016-10-12 13:20:45.268	2016-10-12 13:20:46.156	861766	1148615	861761
861769	eNyClP6NZzz	\N	2016-10-12 13:20:45.268	2016-10-12 13:20:46.156	861766	1148616	861761
861770	t1Ok3wwW6sN	\N	2016-10-12 13:20:45.268	2016-10-12 13:20:46.156	861766	1148617	861761
861771	g9m55m93yks	\N	2016-10-12 13:20:45.268	2016-10-12 13:20:46.156	861766	1148618	861761
861772	dgRmcJHlHOb	\N	2016-10-12 13:20:45.268	2016-10-12 13:20:46.156	861766	1153190	861761
861773	oxq5wsT9LMP	\N	2016-10-12 13:20:45.268	2016-10-12 13:20:46.156	861766	1148619	861761
861774	BWT37A4vOFN	\N	2016-10-12 13:20:45.268	2016-10-12 13:20:46.156	861766	1148620	861761
861775	KYuKua0u6RN	\N	2016-10-12 13:20:45.268	2016-10-12 13:20:46.156	861766	1148621	861761
861776	dKiXRLHz4lL	\N	2016-10-12 13:20:45.268	2016-10-12 13:20:46.156	861766	1148622	861761
861777	W0HsuaPmsNy	\N	2016-10-12 13:20:45.268	2016-10-12 13:20:46.156	861766	1148623	861761
861778	jrPBtlFFc4i	\N	2016-10-12 13:20:45.268	2016-10-12 13:20:46.156	861766	1148625	861761
861779	i1bcEShmZZc	\N	2016-10-12 13:20:45.268	2016-10-12 13:20:46.156	861766	1148626	861761
\.


