475192	8	2017-01-01	2017-01-31
574791	8	2017-03-01	2017-03-31
574790	8	2017-04-01	2017-04-30
725505	8	2017-05-01	2017-05-31
725506	8	2017-06-01	2017-06-30
815296	8	2017-07-01	2017-07-31
863214	8	2017-08-01	2017-08-31
978403	8	2017-09-01	2017-09-30
1023571	8	2017-10-01	2017-10-31
1023570	8	2017-11-01	2017-11-30
1091452	8	2017-12-01	2017-12-31
475170	10	2017-01-01	2017-06-30
475169	11	2017-01-01	2017-12-31
475171	10	2017-07-01	2017-12-31
223543	9	2017-01-01	2017-03-31
424001	9	2017-07-01	2017-09-30
424025	9	2017-04-01	2017-06-30
1149701	11	2016-01-01	2016-12-31
1149702	10	2016-01-01	2016-06-30
1149703	10	2016-07-01	2016-12-31
1149705	8	2016-02-01	2016-02-28
1149706	8	2016-03-01	2016-03-31
1149707	8	2016-04-01	2016-04-30
1149708	8	2016-05-01	2016-05-31
1149709	8	2016-06-01	2016-06-30
1149710	8	2016-07-01	2016-07-31
1149711	8	2016-08-01	2016-08-31
1149712	8	2016-09-01	2016-09-30
1149713	8	2016-10-01	2016-10-31
1149714	8	2016-11-01	2016-11-30
1149715	8	2016-12-01	2016-12-31
1150154	9	2016-07-01	2016-09-30
1150155	9	2016-10-01	2016-12-31
1149704	8	2016-01-01	2016-01-31
217119	6	2016-12-31	2016-12-31
490351	8	2017-02-01	2017-02-28
\.


