1152215	ZKmSdQcSAPl	\N	2013-10-06 12:30:32.642	2013-10-06 12:30:32.642	af	Afrikaans	\N
1152216	yOCa2ceCpya	\N	2013-10-06 12:30:32.677	2013-10-06 12:30:32.677	ar	Arabic	\N
1152217	COEqVJgeUo2	\N	2013-10-06 12:30:32.683	2013-10-06 12:30:32.683	bi	Bislama	\N
1152219	AtXLVVvs12j	\N	2013-10-06 12:30:32.688	2013-10-06 12:30:32.688	de	German	\N
1152222	wj2g0Klq1z5	\N	2013-10-06 12:30:32.702	2013-10-06 12:30:32.702	es	Spanish	\N
1152223	yUvUf2QBTp4	\N	2013-10-06 12:30:32.707	2013-10-06 12:30:32.707	fa	Persian	\N
1152226	PpkbwOkEh57	\N	2013-10-06 12:30:32.722	2013-10-06 12:30:32.722	hi	Hindi	\N
1152228	ypThHMslaIW	\N	2013-10-06 12:30:32.73	2013-10-06 12:30:32.73	it	Italian	\N
1152232	NfMxTM8SNBk	\N	2013-10-06 12:30:32.753	2013-10-06 12:30:32.753	ne	Nepali	\N
1152233	zatTgHVCOhc	\N	2013-10-06 12:30:32.759	2013-10-06 12:30:32.759	nl	Dutch	\N
1152235	Wopbb9BeVk2	\N	2013-10-06 12:30:32.77	2013-10-06 12:30:32.77	ps	Pushto	\N
1152237	CXoH1TyYINk	\N	2013-10-06 12:30:32.78	2013-10-06 12:30:32.78	ru	Russian	\N
1152238	X0E8WRTAR4B	\N	2013-10-06 12:30:32.786	2013-10-06 12:30:32.786	rw	Kinyarwanda	\N
1152239	jeblPSTD43N	\N	2013-10-06 12:30:32.791	2013-10-06 12:30:32.791	sw	Swahili	\N
1152241	zKXyVL1J6EY	\N	2013-10-06 12:30:32.802	2013-10-06 12:30:32.802	vi	Vietnamese	\N
1152661	HNPSBZZsQXh	\N	2013-10-16 16:18:08.52	2013-10-16 16:18:08.52	es_MX	Spanish (Mexico)	\N
1152831	dSspqwWuFqp	\N	2013-11-04 23:34:50.617	2013-11-04 23:34:50.617	es_GT	Spanish (Guatemala)	\N
1152867	VdO7aLjItea	\N	2013-11-05 12:48:25.258	2013-11-05 12:48:25.258	fr_SN	French (Senegal)	\N
52280	UYO3tugQ83J	\N	2013-11-18 13:00:43.768	2013-11-18 13:00:43.768	am	Amharic	\N
52282	aAWAyLVxGqa	\N	2013-11-18 13:00:43.776	2013-11-18 13:00:43.776	dz	Dzongkha	\N
52283	PtUMDC8qqEj	\N	2013-11-18 13:00:43.78	2013-11-18 13:00:43.78	en	English	\N
52286	CURNUpOkTOV	\N	2013-11-18 13:00:43.791	2013-11-18 13:00:43.791	fr	French	\N
52287	Yike1Cb9lDC	\N	2013-11-18 13:00:43.796	2013-11-18 13:00:43.796	gu	Gujarati	\N
52289	EONEjS9PbWQ	\N	2013-11-18 13:00:43.805	2013-11-18 13:00:43.805	in	Indonesian	\N
52291	MTjeE6D179x	\N	2013-11-18 13:00:43.814	2013-11-18 13:00:43.814	km	Khmer	\N
52292	rnvjSrk7uEg	\N	2013-11-18 13:00:43.82	2013-11-18 13:00:43.82	lo	Lao	\N
52293	cPjCyswY5Kt	\N	2013-11-18 13:00:43.824	2013-11-18 13:00:43.824	my	Burmese	\N
52296	oBMTTQceViV	\N	2013-11-18 13:00:43.837	2013-11-18 13:00:43.837	no	Norwegian	\N
52298	p1acj6TIwrZ	\N	2013-11-18 13:00:43.848	2013-11-18 13:00:43.848	pt	Portuguese	\N
52302	Z3sGgX9i23w	\N	2013-11-18 13:00:43.865	2013-11-18 13:00:43.865	tg	Tajik	\N
52304	BF5VLeNQIhN	\N	2013-11-18 13:00:43.876	2013-11-18 13:00:43.876	zh	Chinese	\N
57424	BsbfBieSw1G	\N	2013-11-28 12:15:47.792	2013-11-28 12:15:47.792	en_UG	English (Uganda)	\N
60748	gjYFjyhfjTL	\N	2013-12-12 14:40:31.013	2013-12-12 14:40:31.013	fr_SN	French (Senegal)	\N
155089	i0ntSg5B48D	\N	2014-02-04 09:19:01.519	2014-02-04 09:19:01.519	en_KH	English (Cambodia)	\N
182165	gBAQtl6rB5r	\N	2014-02-13 13:04:11.621	2014-02-13 13:04:11.621	en_TZ	English (Tanzania)	\N
239598	BXSwwmUe8fv	\N	2014-11-07 15:34:41.403	2014-11-07 15:34:41.403	en_BW	English (Botswana)	\N
\.


