48574	2	District	wjP19dkFeIk	\N	2015-08-09 12:58:04.997	2011-12-24 12:24:22.935	\N	\N	[]
48575	3	Chiefdom	tTUf91fCytl	\N	2015-08-09 12:58:05.001	2011-12-24 12:24:22.935	\N	\N	[]
48576	1	National	H1KlN4QIauv	\N	2015-08-09 12:58:05.003	2011-12-24 12:24:22.935	\N	\N	[]
48577	4	Facility	m9lBJogzE95	\N	2015-08-09 12:58:05.005	2011-12-24 12:24:22.935	\N	\N	[]
\.


