1150775	pe	0
1150844	pe	0
1150847	Bpx0589u8y0	0
1150990	pe	0
1151308	ou	0
1151315	pe	0
394406	pe	0
1152459	pe	0
1152461	pe	0
1152470	pe	0
1152654	pe	0
1152665	pe	0
1152966	ou	0
1153651	ou	0
1153651	fMZEcRHuamy	1
1153651	YNZyaJHiHYq	2
1154037	ou	0
1154040	pe	0
1452195	pe	0
1452240	ou	0
1452274	ou	0
1452276	pe	0
217004	ou	0
217225	ou	0
217241	ou	0
217263	ou	0
223941	ou	0
223943	ou	0
239564	ou	0
239787	ou	0
239857	ou	0
239885	ou	0
239887	ou	0
240877	ou	0
347049	ou	0
347082	pe	0
347089	pe	0
347113	pe	0
391348	ou	0
423425	ou	0
424236	pe	0
424362	ou	0
624567	ou	0
624620	ou	0
858996	Bpx0589u8y0	0
858996	J5jldMd8OHv	1
860133	ou	0
860146	ou	0
860214	ou	0
862122	ou	0
862526	ou	0
889004	ou	0
906679	pe	0
906679	ou	1
906721	ou	0
906731	ou	0
906762	ou	0
906952	Bpx0589u8y0	0
906952	J5jldMd8OHv	1
907001	ou	0
\.


