358907	358903
358908	358904
358963	358889
358964	358890
358965	358891
358966	358892
358733	358727
358733	8215
358734	358727
358734	8214
4	1
289	285
289	283
290	285
290	282
291	283
291	284
167661	284
292	282
292	284
167660	285
358735	358728
358735	8215
358736	358728
358736	8214
358737	358729
358737	8215
358738	358729
358738	8214
358739	358730
358739	8215
358740	358730
358740	8214
359660	359611
359660	167630
359661	359611
359661	167629
359662	359612
359662	167630
359663	359612
359663	167629
359664	359613
359664	167630
359665	359613
359665	167629
359666	359614
359666	167630
359667	359614
359667	167629
359668	359615
359668	167630
359669	359615
359669	167629
359670	359616
359670	167630
359671	359616
359671	167629
359756	167630
359756	359739
359757	167630
359757	359740
359758	167630
359758	359741
359759	167630
359759	359742
359760	167630
359760	359743
359761	167630
359761	359744
359762	167630
359762	359745
359763	167630
359763	359746
359764	167630
359764	359747
359765	167630
359765	359748
359766	167630
359766	359749
359767	167630
359767	359750
359768	167630
359768	359751
359769	167630
359769	359752
359770	167630
359770	359753
359771	167629
359771	359739
359772	167629
359772	359740
359773	167629
359773	359741
359774	167629
359774	359742
359775	167629
359775	359743
359776	167629
359776	359744
359777	167629
359777	359745
359778	167629
359778	359746
359779	167629
359779	359747
359780	167629
359780	359748
359781	167629
359781	359749
359782	167629
359782	359750
359783	167629
359783	359751
359784	167629
359784	359752
359785	167629
359785	359753
359790	359786
359790	359739
359791	359786
359791	359740
359792	359786
359792	359741
359793	359786
359793	359742
359794	359786
359794	359743
359795	359786
359795	359744
359796	359786
359796	359745
359797	359786
359797	359746
359798	359786
359798	359747
359799	359786
359799	359748
359800	359786
359800	359749
359801	359786
359801	359750
359802	359786
359802	359751
359803	359786
359803	359752
359804	359786
359804	359753
359805	359787
359805	359739
359806	359787
359806	359740
359807	359787
359807	359741
359808	359787
359808	359742
359809	359787
359809	359743
359810	359787
359810	359744
359811	359787
359811	359745
359812	359787
359812	359746
359813	359787
359813	359747
359814	359787
359814	359748
359815	359787
359815	359749
359816	359787
359816	359750
359817	359787
359817	359751
359818	359787
359818	359752
359819	359787
359819	359753
360270	360265
360271	360266
360272	360267
360524	360520
360525	360521
363358	358727
363359	358728
363360	358729
363361	358730
374553	374548
374553	8215
374554	374548
374554	8214
374555	374549
374555	8215
374556	374549
374556	8214
374557	374550
374557	8215
374558	374550
374558	8214
1150805	359428
1150805	284
1150806	359429
1150806	284
1150807	359428
1150807	359426
1150808	285
1150808	359428
1150809	359426
1150809	359429
1150810	285
1150810	359429
1151058	1151055
1151059	1151054
1153394	1153382
1153394	1153387
1153395	1153384
1153395	1153391
1153396	1153371
1153396	1153387
1153397	1153374
1153397	1153388
1153398	1153388
1153398	1153379
1153399	1153370
1153399	1153387
1153400	1153374
1153400	1153387
1153401	1153389
1153401	1153380
1153402	1153381
1153402	1153387
1153403	1153383
1153403	1153387
1153404	1153389
1153404	1153379
1153405	1153389
1153405	1153383
1153406	1153388
1153406	1153369
1153407	1153371
1153407	1153388
1153408	1153383
1153408	1153388
1153409	1153391
1153409	1153380
1153410	1153384
1153410	1153388
1153411	1153389
1153411	1153376
1153412	1153388
1153412	1153375
1153413	1153383
1153413	1153391
1153414	1153376
1153414	1153391
1153415	1153389
1153415	1153369
1153416	1153387
1153416	1153372
1153417	1153384
1153417	1153387
1153418	1153387
1153418	1153375
1153419	1153376
1153419	1153387
1153420	1153389
1153420	1153377
1153421	1153389
1153421	1153370
1153422	1153389
1153422	1153372
1153423	1153389
1153423	1153374
1153424	1153385
1153424	1153391
1153425	1153388
1153425	1153377
1153426	1153387
1153426	1153377
1153427	1153389
1153427	1153381
1153428	1153389
1153428	1153371
1153429	1153382
1153429	1153391
1153430	1153374
1153430	1153391
1153431	1153376
1153431	1153388
1153432	1153391
1153432	1153377
1153433	1153385
1153433	1153388
1153434	1153389
1153434	1153378
1153435	1153391
1153435	1153369
1153436	1153389
1153436	1153384
1153437	1153379
1153437	1153387
1153438	1153378
1153438	1153387
1153439	1153389
1153439	1153385
1153440	1153388
1153440	1153370
1153441	1153385
1153441	1153387
1153442	1153389
1153442	1153375
1153443	1153381
1153443	1153391
1153444	1153371
1153444	1153391
1153445	1153388
1153445	1153372
1153446	1153388
1153446	1153378
1153447	1153379
1153447	1153391
1153448	1153387
1153448	1153369
1153449	1153391
1153449	1153372
1153450	1153370
1153450	1153391
1153451	1153381
1153451	1153388
1153452	1153378
1153452	1153391
1153453	1153391
1153453	1153375
1153454	1153388
1153454	1153380
1153455	1153389
1153455	1153382
1153456	1153387
1153456	1153380
1153457	1153382
1153457	1153388
1153693	1153688
1153695	1153689
1153734	1153733
1452090	1153391
1452091	1153389
1452092	1153387
1452093	1153388
424061	1153370
424062	1153372
424063	1153369
424064	1153380
424065	1153385
424066	1153375
424067	1153383
424068	1153378
424069	1153371
424070	1153384
424071	1153374
424072	1153379
424073	1153381
424074	1153382
424075	1153377
424076	1153376
624551	359611
624551	8215
624552	359611
624552	8214
624553	359612
624553	8215
624554	359612
624554	8214
624555	8215
624555	359613
624556	8214
624556	359613
624557	359614
624557	8215
624558	359614
624558	8214
624559	359615
624559	8215
624560	359615
624560	8214
624561	359616
624561	8215
624562	359616
624562	8214
861744	8215
861745	8214
861762	358889
861763	358890
861764	358891
861765	358892
889861	889837
889862	889838
889926	889922
889927	889923
\.


