1148600	Immunization: IPT 1 and 2 Coverage	LINE	f	f	\N		Percentage %	f	nwqNUFG9Vky	2015-07-15 15:25:20.036		dx	pe	\N	\N	\N	\N	f	f	2012-07-31 19:08:54.571	1150557	r-------	f	\N	f	f	f	\N	\N	\N	\N	0	DEFAULT	f	\N	LINEAR
1150002	ANC: IPT 1 and 2 trends	LINE	f	f	\N	\N	\N	f	PaszHM9rIGA	2015-07-15 15:25:20.067	\N	dx	pe	\N	\N	\N	\N	f	f	2012-07-31 19:22:13.513	1150533	r-------	f	\N	f	f	f	\N	\N	\N	\N	0	DEFAULT	f	\N	LINEAR
1150788	Child Health: Diarrhoea <5	LINE	f	f	\N	\N	\N	f	mLuTXsWCilP	2015-07-15 15:25:20.112	\N	dx	pe	1150504	\N	\N	\N	f	t	2013-03-19 16:16:07.394	1150812	r-------	f	\N	f	f	f	\N	\N	\N	\N	0	DEFAULT	f	\N	LINEAR
1151378	ANC: Coverages with baseline / target last 12 months	COLUMN	f	t	60	Target line	\N	f	O52HFRvCjIi	2015-07-15 15:25:20.123	\N	dx	pe	1150127	\N	85	Base line	f	f	2013-05-29 16:35:23.504	216815	rw------	f	\N	f	f	f	\N	\N	\N	\N	0	DEFAULT	f	\N	LINEAR
1452249	DS: Malaria new cases by age by orgunit last year	STACKED_COLUMN	f	f	\N	\N	\N	f	GyvS3xZv0fM	2014-04-06 12:18:00.366	\N	fkAkrdC7eJF	ou	1150127	\N	\N	\N	t	f	2014-04-06 12:18:00.366	1452250	rw------	f	\N	f	f	f	\N	\N	\N	\N	0	DEFAULT	f	\N	NONE
1452253	DS: Malaria new cases by orgunit last year	STACKED_COLUMN	f	f	\N	\N	\N	f	wjITJz3cIjf	2014-04-06 12:19:19.759	\N	jp826jAJHUc	ou	1150127	\N	\N	\N	t	f	2014-04-06 12:19:19.759	1452254	rw------	f	\N	f	f	f	\N	\N	\N	\N	0	DEFAULT	f	\N	NONE
1149589	Immunization: Indicator bar chart last 12 months	BAR	f	f	\N	\N	\N	f	nxopkCcmdcT	2015-07-15 15:25:20.047	\N	dx	pe	1150127	\N	\N	\N	f	f	2011-12-25 17:35:45.737	1153094	rw------	f	\N	f	f	f	\N	\N	\N	\N	0	DEFAULT	f	\N	NONE
216794	ANC: 1-3 trend lines last 12 months	LINE	f	f	\N	\N	\N	f	DkPKc1EUmC2	2015-07-15 15:25:19.943	\N	dx	pe	1150127	\N	\N	\N	f	f	2014-04-16 11:04:55.4	216813	-------	f	\N	f	f	f	\N	\N	\N	\N	0	DEFAULT	f	\N	NONE
1149991	ANC: 1st and 3rd trends Monthly	LINE	f	t	\N	\N	\N	f	gnROK20DfAA	2015-07-15 15:25:20.063	\N	dx	pe	1150127	\N	\N	\N	f	f	2012-11-05 09:00:29.592	216817	r-------	f	\N	f	f	f	\N	\N	\N	\N	0	DEFAULT	f	\N	NONE
1150183	RCH: ANC-Delivery-Reporting Rates Monthly	LINE	f	f	\N	\N	\N	f	AzIjKqbEiqo	2015-07-15 15:25:20.384	\N	dx	pe	1150127	\N	\N	\N	f	f	2015-01-21 15:04:56.281	240240	r-------	f	\N	f	f	f	\N	\N	\N	\N	0	DEFAULT	f	\N	NONE
1150218	Immunization: Measles Coverage Monthly	LINE	f	f	80	\N	Percentage %	f	arEjHRx6fgl	2015-07-15 15:25:20.385	\N	dx	pe	1150127	\N	\N	\N	f	f	2015-01-21 15:04:33.409	240239	r-------	f	\N	f	f	f	\N	\N	\N	\N	0	DEFAULT	f	\N	NONE
1150786	Immunization: Key Trends	LINE	f	f	\N	\N	\N	f	aSfMPM7oQKm	2015-07-15 15:25:20.109	\N	dx	pe	1150504	\N	\N	\N	f	f	2013-03-19 16:00:03.274	1150787	r-------	f	\N	f	f	f	\N	\N	\N	\N	0	DEFAULT	f	\N	NONE
239257	ANC: LLITN coverage last month	GAUGE	f	f	\N	\N	\N	f	tdN0eivf6NR	2015-07-15 15:25:19.979	\N	dx	pe	1150127	\N	\N	\N	f	t	2014-09-28 20:29:11.506	239258	rw------	f	\N	f	f	f	\N	\N	\N	\N	0	DEFAULT	f	\N	NONE
239303	Immunization: OPV Coverage meter chart last quarter	GAUGE	f	f	\N	\N	\N	f	qrHHe626tmv	2015-07-15 15:25:19.983	\N	dx	pe	1150127	\N	\N	\N	f	t	2014-10-13 15:25:48.08	239306	rw------	f	\N	f	f	f	\N	\N	\N	\N	0	DEFAULT	f	\N	NONE
239620	ANC: ANC LLITN coverage this year (gauge)	GAUGE	f	f	\N	\N	\N	f	EmzsInikj26	2015-07-15 15:25:19.986	\N	dx	J5jldMd8OHv	1150127	\N	\N	\N	f	f	2014-11-10 18:27:42.983	239621	rw------	f	\N	f	f	f	\N	\N	\N	\N	0	DEFAULT	f	\N	NONE
239622	ANC: ANC 3 coverage this year (gauge)	GAUGE	f	f	\N	\N	\N	f	dw62KezChat	2015-07-15 15:25:19.988	\N	dx	J5jldMd8OHv	1150127	\N	\N	\N	f	f	2014-11-10 18:28:26.466	239623	rw------	f	\N	f	f	f	\N	\N	\N	\N	0	DEFAULT	f	\N	NONE
239624	ANC: ANC 2 coverage this year (gauge)	GAUGE	f	f	\N	\N	\N	f	iqR6gvQKpGx	2015-07-15 15:25:19.991	\N	dx	J5jldMd8OHv	1150127	\N	\N	\N	f	f	2014-11-10 18:28:51.172	239625	rw------	f	\N	f	f	f	\N	\N	\N	\N	0	DEFAULT	f	\N	NONE
239255	Immunization: OPV 3 coverage last month	GAUGE	f	f	\N	\N	\N	f	DNRhUsVbTgT	2015-07-15 15:25:19.975	\N	dx	pe	1150127	\N	\N	\N	f	t	2014-09-28 20:29:28.683	239259	rw------	f	\N	f	f	f	\N	\N	\N	\N	0	DEFAULT	f	\N	NONE
223811	Immunization: BCG, measles, yellow fever last 12 months (stacked)	STACKED_COLUMN	f	f	\N	\N	\N	f	Qyuliufvfjl	2015-07-15 15:25:20.2	\N	dx	pe	1150127	\N	\N	\N	f	t	2014-07-18 14:47:35.617	223812	rw------	f	\N	f	f	f	\N	\N	\N	\N	0	DEFAULT	f	\N	NONE
223815	ANC: 1-4 visits by districts this year (stacked)	STACKED_COLUMN	f	f	\N	\N	\N	f	IvXcdp2cFHa	2015-07-15 15:25:20.204	\N	dx	ou	1150127	\N	\N	\N	t	t	2015-03-26 09:31:24.049	240521	rw------	f	\N	f	f	f	\N	\N	\N	\N	0	DEFAULT	f	\N	NONE
1452135	ANC: Fixed vs Outreach last year	STACKED_COLUMN	f	t	\N	\N	\N	f	AVZpYsdG44G	2015-07-15 15:25:20.312	\N	fMZEcRHuamy	dx	1150127	\N	\N	\N	f	f	2014-04-03 14:07:29.442	1452136	rw------	f	\N	f	f	f	\N	\N	\N	\N	0	DEFAULT	f	\N	NONE
1452198	Immunization: Doses administered by location fixed/outreach last year	STACKED_COLUMN	f	t	\N	\N	\N	f	EgbyekMd3m8	2015-07-15 15:25:20.32	\N	fMZEcRHuamy	dx	1150127	\N	\N	\N	f	f	2014-04-03 14:49:09.933	1452199	rw------	f	\N	f	f	f	\N	\N	\N	\N	0	DEFAULT	f	\N	NONE
1151395	ANC: Total visits by fixed/outreach (stacked bar)	STACKED_COLUMN	f	f	\N	\N	\N	f	wbTNJrvfytf	2015-07-15 15:25:20.34	\N	dx	ou	1150127	\N	\N	\N	f	t	2013-05-29 17:39:04.263	1151413	rw------	f	\N	f	f	f	\N	\N	\N	\N	0	DEFAULT	f	\N	NONE
1452131	ANC: 1st and 3rd visit coverage by orgunit last year	BAR	f	t	\N	\N	\N	f	bmbGtJv6dcR	2015-07-15 15:25:20.152	\N	dx	ou	1150127	\N	\N	\N	t	f	2014-04-03 14:05:10.234	216818	rw------	f	\N	f	f	f	\N	\N	\N	\N	0	DEFAULT	f	\N	NONE
1150169	RCH: ANC-Delivery-Immunisation Yearly	BAR	f	f	\N	\N	\N	f	cq2oIV2UlPn	2015-07-15 15:25:20.226	\N	dx	ou	1151265	\N	\N	\N	t	f	2014-11-20 19:58:47.962	239872	r-------	f	\N	f	f	f	\N	\N	\N	\N	0	DEFAULT	f	\N	NONE
223820	ANC: 1-4 visits last 12 months	LINE	f	f	\N	\N	\N	f	Tun9tJb3sQt	2015-07-15 15:25:20.207	\N	dx	pe	1150127	\N	\N	\N	f	t	2014-07-18 15:01:08.19	223821	rw------	f	\N	f	f	f	\N	\N	\N	\N	0	DEFAULT	f	\N	NONE
1152695	Immunization: Indicators last 12 months radar	RADAR	f	f	\N	\N	\N	f	FYZwn1ISVBY	2015-07-15 15:25:20.136	\N	dx	pe	1150127	\N	\N	\N	f	t	2013-10-16 19:50:52.464	1152698	rw------	f	\N	f	f	f	\N	\N	\N	\N	0	DEFAULT	f	\N	NONE
1153852	Commodities: Child health consumption districts this year	COLUMN	f	f	\N	\N	\N	f	SEI5bGkNBQA	2015-07-15 15:25:20.352	\N	dx	ou	1150127	\N	\N	\N	f	f	2014-03-02 21:12:43.411	1153853	rw------	f	\N	f	f	f	\N	\N	\N	\N	0	DEFAULT	f	\N	NONE
1153856	Commodities: Reproductive health consumption districts this year	COLUMN	f	f	\N	\N	\N	f	DpKcKiZNqHf	2015-07-15 15:25:20.357	\N	dx	ou	1150127	\N	\N	\N	f	f	2014-03-02 21:14:03.476	1153857	rw------	f	\N	f	f	f	\N	\N	\N	\N	0	DEFAULT	f	\N	NONE
1149966	Reporting Rates: PHUF Forms Last 4 Quarters	COLUMN	f	f	\N	\N	\N	f	vkVZOjsLq0E	2015-07-15 15:25:20.381	\N	dx	pe	1150127	\N	\N	\N	f	f	2012-04-28 00:03:18.316	1153893	r-------	f	\N	f	f	f	\N	\N	\N	\N	0	DEFAULT	f	\N	NONE
1452125	Reporting Rates: RH by orgunit last year	COLUMN	f	t	\N	\N	\N	f	jgBWy5wBehm	2015-07-15 15:25:20.387	\N	dx	ou	1150127	\N	\N	\N	t	f	2014-04-03 14:02:15.521	1452126	rw------	f	\N	f	f	f	\N	\N	\N	\N	0	DEFAULT	f	\N	NONE
1452179	Reporting Rates: Child Health by orgunit last year	COLUMN	f	t	\N	\N	\N	f	O28OSh0mi0T	2015-07-15 15:25:20.389	\N	dx	ou	1150127	\N	\N	\N	t	f	2014-04-03 14:40:41.889	1452180	rw------	f	\N	f	f	f	\N	\N	\N	\N	0	DEFAULT	f	\N	NONE
1452237	Reporting rates: Morbidity by orgunit last year	COLUMN	f	t	\N	\N	\N	f	hlzEdAWPd4L	2015-07-15 15:25:20.392	\N	dx	ou	1150127	\N	\N	\N	t	f	2014-04-06 12:05:03.122	1452238	rw------	f	\N	f	f	f	\N	\N	\N	\N	0	DEFAULT	f	\N	NONE
1452262	Reporting rates: Major forms last year	COLUMN	f	t	\N	\N	\N	f	ULpRSaJ6o1L	2015-07-15 15:25:20.395	\N	dx	pe	1150127	\N	\N	\N	f	f	2014-04-06 12:25:07.289	1452263	rw------	f	\N	f	f	f	\N	\N	\N	\N	0	DEFAULT	f	\N	NONE
1452264	Reporting rates: Major forms last 12 months	COLUMN	f	t	\N	\N	\N	f	V6reIBFJtej	2015-07-15 15:25:20.398	\N	dx	pe	1150127	\N	\N	\N	f	f	2014-04-06 12:25:47.508	1452265	rw------	f	\N	f	f	f	\N	\N	\N	\N	0	DEFAULT	f	\N	NONE
1452268	Reporting rates: Child Health by orgunit last year	COLUMN	f	t	\N	\N	\N	f	jJ9UTD9CnXI	2015-07-15 15:25:20.401	\N	dx	ou	1150127	\N	\N	\N	t	f	2014-04-06 12:27:22.376	1452269	rw------	f	\N	f	f	f	\N	\N	\N	\N	0	DEFAULT	f	\N	NONE
1452271	Reporting Rates: RH by orgunit last year	COLUMN	f	t	\N	\N	\N	f	at9trhbfF9n	2015-07-15 15:25:20.404	\N	dx	ou	1150127	\N	\N	\N	t	f	2014-04-06 12:28:10.414	1452272	rw------	f	\N	f	f	f	\N	\N	\N	\N	0	DEFAULT	f	\N	NONE
1452289	Reporting rates: Major forms last month	COLUMN	f	t	\N	\N	\N	f	NJqkznQyMm1	2015-07-15 15:25:20.409	\N	dx	pe	1150127	\N	\N	\N	f	f	2014-04-06 12:34:01.135	1452290	rw------	f	\N	f	f	f	\N	\N	\N	\N	0	DEFAULT	f	\N	NONE
1452291	Reporting Rates: RH by orgunit last month	COLUMN	f	t	\N	\N	\N	f	dfg0ZNVjGSy	2015-07-15 15:25:20.412	\N	dx	ou	1150127	\N	\N	\N	t	f	2014-04-06 12:34:32.648	1452292	rw------	f	\N	f	f	f	\N	\N	\N	\N	0	DEFAULT	f	\N	NONE
347006	Inpatient: ANC coverage, height, weight, BMI last 12 months	COLUMN	f	f	\N	\N	\N	f	qpIt5yG7zFO	2015-07-15 18:25:20.898	\N	dx	pe	1150127	\N	\N	\N	f	t	2015-07-15 18:25:20.897	347007	rw------	f	\N	f	f	f	\N	\N	\N	\N	0	DEFAULT	f	\N	NONE
1153866	Commodities: Magnesium sulfate consumption districts last 12 months	LINE	f	f	\N	\N	\N	f	MgslKDFqAiy	2015-07-15 15:25:20.36	\N	dx	pe	1150127	\N	\N	\N	f	f	2014-03-02 21:46:40.133	1153867	rw------	f	\N	f	f	f	\N	\N	\N	\N	0	DEFAULT	f	\N	NONE
1153869	Commodities: Oral Rehydration Salts consumption last 12 months	LINE	f	f	\N	\N	\N	f	UiuH6HV1G2d	2015-07-15 15:25:20.363	\N	dx	pe	1150127	\N	\N	\N	f	f	2014-03-02 21:47:14.551	1153870	rw------	f	\N	f	f	f	\N	\N	\N	\N	0	DEFAULT	f	\N	NONE
1153872	Commodities: Emergency Contraception consumption last 12 months	LINE	f	f	\N	\N	\N	f	CCdEVq3woqb	2015-07-15 15:25:20.367	\N	dx	pe	1150127	\N	\N	\N	f	f	2014-03-02 21:47:48.212	1153929	rw------	f	\N	f	f	f	\N	\N	\N	\N	0	DEFAULT	f	\N	NONE
1149964	Reporting Rates: HIV, PMTCT, TB Trends	LINE	f	f	\N	\N	\N	f	eFgscqpt52d	2015-07-15 15:25:20.377	\N	dx	pe	\N	\N	\N	\N	f	f	2012-04-27 23:57:57.874	1150529	r-------	f	\N	f	f	f	\N	\N	\N	\N	0	DEFAULT	f	\N	NONE
1149967	Reporting Rates: PHUF Forms Trends	LINE	f	f	\N	\N	\N	f	ThknkPfqeLj	2015-07-15 15:25:20.384	\N	dx	pe	1150127	\N	\N	\N	f	f	2015-01-21 15:06:07.974	240244	r-------	f	\N	f	f	f	\N	\N	\N	\N	0	DEFAULT	f	\N	NONE
1150217	RCH: Deliveries in PHU vs Community Yearly	PIE	f	f	\N	\N	\N	f	iedc5pshYbW	2015-07-15 15:25:20.091	\N	ou	dx	\N	\N	\N	\N	f	t	2012-11-05 20:34:42.293	1150546	r-------	f	\N	f	f	f	\N	\N	\N	\N	0	DEFAULT	f	\N	NONE
1452160	Delivery: Births (registered) in PHU vs Community last year	PIE	f	t	\N	\N	\N	f	C8JAoMRqZCd	2015-07-15 15:25:20.159	\N	pe	dx	1150127	\N	\N	\N	f	f	2014-04-03 14:22:29.671	1452161	rw------	f	\N	f	f	f	\N	\N	\N	\N	0	DEFAULT	f	\N	NONE
1452222	Nutrition: Weight for height rates last year	PIE	f	t	\N	\N	\N	f	RZfXDFj0jLi	2015-07-15 15:25:20.187	\N	pe	dx	1150127	\N	\N	\N	f	f	2014-04-06 11:37:05.794	1452223	rw------	f	\N	f	f	f	\N	\N	\N	\N	0	DEFAULT	f	\N	NONE
1149534	ANC: Visit 1-4+ as Data Area Monthly	PIE	f	f	\N	\N	\N	f	j1gNXBgwKVm	2015-07-15 15:25:20.219	\N	ou	dx	\N	\N	\N	\N	f	t	2012-11-05 09:20:20.433	1151372	r-------	f	\N	f	f	f	\N	\N	\N	\N	0	DEFAULT	f	\N	NONE
1150168	ANC: 4+ visits by Facility this year	PIE	f	f	\N	\N	\N	f	Wlkz2NhhRIY	2015-07-15 15:25:20.222	\N	dx	J5jldMd8OHv	1150127	\N	\N	\N	f	f	2012-11-05 09:05:26.682	216825	r-------	f	\N	f	f	f	\N	\N	\N	\N	0	DEFAULT	f	\N	NONE
1151300	Immunization: Fully Immunized by Facility Type	PIE	f	f	\N	\N	\N	f	YulSNzGXp7p	2015-07-15 15:25:20.238	\N	dx	J5jldMd8OHv	1150127	\N	\N	\N	f	t	2013-05-28 09:15:07.336	1151301	rw------	f	\N	f	f	f	\N	\N	\N	\N	0	DEFAULT	f	\N	NONE
1151345	OPD: New cases comparison this year	PIE	f	f	\N	\N	\N	f	WmReJSbL2h8	2015-07-15 15:25:20.249	\N	pe	dx	1150127	\N	\N	\N	f	t	2013-05-29 11:47:59.362	1151346	rw------	f	\N	f	f	f	\N	\N	\N	\N	0	DEFAULT	f	\N	NONE
1151347	Delivery: Still births by facility type	PIE	f	f	\N	\N	\N	f	O0CNToC1CeV	2015-07-15 15:25:20.253	\N	dx	J5jldMd8OHv	1150127	\N	\N	\N	f	t	2013-05-29 11:55:18.109	1151348	rw------	f	\N	f	f	f	\N	\N	\N	\N	0	DEFAULT	f	\N	NONE
239630	Delivery: Birth by skilled attendant this year (sorted)	COLUMN	f	f	\N	\N	\N	f	Evi1ACuIaYX	2015-07-15 15:25:19.995	\N	dx	ou	1150127	\N	\N	\N	f	t	2014-11-10 18:43:54.596	239631	rw------	f	\N	f	f	f	\N	\N	\N	\N	1	DEFAULT	f	\N	NONE
239633	Delivery: Birth by skilled attendant (estimated vs population, sorted)	COLUMN	f	f	\N	\N	\N	f	uSkYP6tcYu5	2015-07-15 15:25:19.999	\N	dx	ou	1150127	\N	\N	\N	f	t	2014-11-10 18:45:00.04	239634	rw------	f	\N	f	f	f	\N	\N	\N	\N	1	DEFAULT	f	\N	NONE
240038	ANC: ANC 1 coverage western chiefdoms this year	COLUMN	f	f	\N	\N	\N	f	zKl0LcQyxPl	2015-07-15 15:25:20.004	\N	dx	ou	1151265	\N	\N	\N	f	t	2015-01-15 16:50:34.302	240040	rw------	f	\N	f	f	f	\N	\N	\N	\N	0	DEFAULT	f	\N	NONE
240044	Immunization: BCG, Measles, Penta 1, FIC this year by districts	COLUMN	f	f	\N	\N	\N	f	pmjfdomXfxG	2015-07-15 15:25:20.01	\N	dx	ou	1151265	\N	\N	\N	f	t	2015-01-15 16:56:28.732	240045	rw------	f	\N	f	f	f	\N	\N	\N	\N	0	DEFAULT	f	\N	NONE
1149588	ANC: Key Coverages	COLUMN	f	f	\N	\N	\N	f	R0DVGvXDUNP	2015-07-15 15:25:20.043	\N	dx	pe	1149563	\N	\N	\N	f	f	2011-12-25 17:34:15.752	1150988	rw------	f	\N	f	f	f	\N	\N	\N	\N	0	DEFAULT	f	\N	NONE
347046	Inpatient: BMI this year by districts	COLUMN	f	f	\N	\N	\N	f	hIpKqCfcMXq	2015-07-19 19:01:59.803	\N	dx	ou	1150127	\N	\N	\N	f	t	2015-07-19 19:01:59.802	347047	rw------	f	\N	f	f	f	\N	\N	\N	\N	0	DEFAULT	f	\N	NONE
347118	Measles: Coverage and drop-out (user org unit children)	COLUMN	f	f	\N	\N	\N	f	l49Xj5POupZ	2015-08-03 12:03:36.814	\N	dx	ou	1150127	\N	\N	\N	t	t	2015-08-03 12:03:36.814	347119	rw------	f	\N	f	f	f	\N	\N	\N	\N	0	DEFAULT	f	\N	NONE
1452256	DS: Child diseases last year	COLUMN	f	t	\N	\N	\N	f	n9TzAIrVfOa	2014-04-06 12:23:05.023	\N	jp826jAJHUc	ou	1150127	\N	\N	\N	f	f	2014-04-06 12:22:09.017	1452260	rw------	f	\N	f	f	f	\N	\N	\N	\N	0	DEFAULT	f	\N	NONE
347001	Inpatient: Height, weight, BMI last 12 months	COLUMN	f	f	\N	\N	\N	f	vn1oXZsqH4F	2015-07-15 18:20:39.698	\N	dx	pe	1150127	\N	\N	\N	f	t	2015-07-15 18:20:39.698	347002	rw------	f	\N	f	f	f	\N	\N	\N	\N	0	DEFAULT	f	\N	NONE
347125	Measles: Follow-up, new, referrals by facility type (user org unit)	COLUMN	f	t	\N	\N	\N	f	GxsiESWvqnt	2015-08-03 12:05:15.244	\N	J5jldMd8OHv	dx	1150127	\N	\N	\N	f	t	2015-08-03 12:05:15.244	347126	rw------	f	\N	f	f	f	\N	\N	\N	\N	0	DEFAULT	f	\N	NONE
216929	Immunization: Coverages with range 70-110% this year	COLUMN	f	f	\N	\N	Percentage	f	BqUYzUotRlr	2015-07-15 15:25:19.958	Immunization Coverages	dx	pe	1150127	\N	\N	\N	f	t	2014-04-21 22:30:33.182	216934	rw------	f	\N	f	f	f	110	15	1	70	0	DEFAULT	f	\N	NONE
217318	Immunization: Coverage last 12 months 50-120% range	COLUMN	f	f	\N	\N	\N	f	DrqOYDGA11X	2015-07-15 15:25:19.967	\N	dx	pe	1150127	\N	\N	\N	f	t	2014-05-23 16:11:54.668	217322	rw------	f	\N	f	f	f	120	20	1	50	0	DEFAULT	f	\N	NONE
223934	Immunization: BCG, Measles, FIC coverage and doses administered	COLUMN	f	f	\N	\N	\N	f	m0Fv9zt5E79	2015-07-15 15:25:20.208	\N	dx	pe	1150127	\N	\N	\N	f	t	2014-07-25 01:36:12.823	223935	rw------	f	\N	f	f	f	\N	\N	\N	\N	0	DEFAULT	f	\N	NONE
394721	Immunization: Drop Out Penta 1-3	COLUMN	f	f	\N		Percentage %	f	hjrucWPaRG4	2015-07-15 15:25:20.019		dx	ou	\N	\N	\N	\N	f	f	2012-02-17 21:21:00.795	1150552	r-------	f	\N	f	f	f	\N	\N	\N	\N	0	DEFAULT	f	\N	NONE
394781	ANC: LLITN Coverage	COLUMN	f	f	80	Target coverage	Percentage %	f	Emq3LEyWb15	2015-07-15 15:25:20.025		dx	ou	1151265	\N	\N	\N	f	f	2012-02-17 21:17:00.342	1150551	r-------	f	\N	f	f	f	\N	\N	\N	\N	0	DEFAULT	f	\N	NONE
394784	Immunization: Fully immunized by districts	COLUMN	f	f	80	Target Coverage	Percentage %	f	X6mK8NSNXxn	2015-07-15 15:25:20.028		dx	ou	\N	\N	\N	\N	f	f	2012-02-17 21:21:59.394	1150553	r-------	f	\N	f	f	f	\N	\N	\N	\N	0	DEFAULT	f	\N	NONE
394789	Delivery: Births attended by skilled health personel	COLUMN	f	f	\N	\N	Percentage %	f	E9D9KmjyHnd	2015-07-15 15:25:20.032	\N	dx	ou	\N	\N	\N	\N	t	f	2012-11-05 09:27:51.358	1150556	r-------	f	\N	f	f	f	\N	\N	\N	\N	0	DEFAULT	f	\N	NONE
1149971	Immunization: FIC, Penta 3 with Baseline and Target	COLUMN	f	f	80	Target	\N	f	aYRnuCBirzk	2015-07-15 15:25:20.049	\N	dx	ou	\N	\N	60	Baseline	f	t	2012-11-05 15:30:39.693	1151335	r-------	f	\N	f	f	f	\N	\N	\N	\N	0	DEFAULT	f	\N	NONE
1149980	HIV: ZDV rates last 4 quarters	COLUMN	f	f	\N	\N	Percentage	f	BTVvNnrsdJv	2015-07-15 15:25:20.052	\N	dx	pe	1150127	\N	\N	\N	f	t	2015-01-21 15:05:46.161	240243	r-------	f	\N	f	f	f	\N	\N	\N	\N	0	DEFAULT	f	\N	NONE
1149981	Nutrition: Malnutrition and well nourished	COLUMN	f	f	\N	\N	\N	f	TPLm2dVoCtO	2015-07-15 15:25:20.055	\N	dx	pe	1150127	\N	\N	\N	f	f	2015-01-21 15:05:15.493	240241	r-------	f	\N	f	f	f	\N	\N	\N	\N	0	DEFAULT	f	\N	NONE
1149982	Immunization: Essential vaccines	COLUMN	f	f	80	Target	Percentage	f	pRBQ77mhEJ8	2015-07-15 15:25:20.06	\N	dx	ou	\N	\N	\N	\N	f	f	2012-11-13 15:16:48.565	1150548	r-------	f	\N	f	f	f	\N	\N	\N	\N	0	DEFAULT	f	\N	NONE
1150170	ANC: 1-3 dropout rate Yearly	COLUMN	f	f	25	Target	Percentage %	f	LW0O27b7TdD	2015-07-15 15:25:20.071	\N	dx	ou	\N	\N	\N	\N	f	f	2012-11-05 09:17:23.388	1150539	r-------	f	\N	f	f	f	\N	\N	\N	\N	0	DEFAULT	f	\N	NONE
1150171	Delivery: Institutional delivery rates Yearly	COLUMN	f	f	\N	\N	Rate	f	HDEDqV3yv3H	2015-07-15 15:25:20.076	\N	dx	ou	\N	\N	\N	\N	f	t	2012-11-05 09:28:52.273	1150541	r-------	f	\N	f	f	f	\N	\N	\N	\N	0	DEFAULT	f	\N	NONE
1150172	RCH: MMR (by registered live births) Yearly	COLUMN	f	f	\N	\N	Maternal deaths by 100 000 live births	f	IC97MoXqmrP	2015-07-15 15:25:20.079	\N	dx	ou	\N	\N	\N	\N	t	t	2012-11-13 16:32:57.621	1150549	r-------	f	\N	f	f	f	\N	\N	\N	\N	0	DEFAULT	f	\N	NONE
1150330	ANC: ANC, Births and BCG	COLUMN	f	f	\N	\N	\N	f	QUHnfRTrf8d	2015-07-15 15:25:20.102	\N	dx	pe	1150302	\N	\N	\N	f	f	2012-11-14 11:58:26.909	1150550	r-------	f	\N	f	f	f	\N	\N	\N	\N	0	DEFAULT	f	\N	NONE
1150794	Child Health: Breast feeding and well nourished rate	COLUMN	f	f	\N	\N	\N	f	Kt3GsRHXkaU	2015-07-15 15:25:20.116	\N	dx	ou	1150504	\N	\N	\N	f	f	2013-03-19 16:31:07.656	1150795	r-------	f	\N	f	f	f	\N	\N	\N	\N	0	DEFAULT	f	\N	NONE
1151370	ANC: LLITN last 12 months (user org unit)	COLUMN	f	t	\N	\N	\N	f	Vduboi9Xs5D	2015-07-15 15:25:20.12	\N	dx	pe	1150127	\N	\N	\N	f	t	2013-05-29 15:49:17.686	216816	rw------	f	\N	f	f	f	\N	\N	\N	\N	0	DEFAULT	f	\N	NONE
1152463	Immunization: Fully Immunized MCHPs in Bo	COLUMN	f	f	\N	\N	\N	f	W0PPvNjsGya	2015-07-15 15:25:20.125	\N	dx	ou	1151265	\N	\N	\N	f	t	2013-10-15 18:25:20.58	1152464	rw------	f	\N	f	f	f	\N	\N	\N	\N	0	DEFAULT	f	\N	NONE
1152465	Immunization: Measles Coverage Chiefdoms in Bo and Bombali 	COLUMN	f	f	\N	\N	\N	f	XDjerozqh69	2015-07-15 15:25:20.128	\N	dx	ou	1150127	\N	\N	\N	f	t	2013-10-15 18:27:45.444	216933	rw------	f	\N	f	f	f	\N	\N	\N	\N	0	DEFAULT	f	\N	NONE
1152473	Delivery: Births att skilled personel "user grand children org units"	COLUMN	f	f	\N	\N	\N	f	ozYelYfoePH	2015-07-15 15:25:20.131	\N	dx	ou	1150127	\N	\N	\N	f	t	2013-10-15 18:45:39.573	1152919	rw------	f	\N	f	t	f	\N	\N	\N	\N	0	DEFAULT	f	\N	NONE
1153234	ANC: LLITN districts comparison	COLUMN	f	f	80	Target coverage	Percentage %	f	yVHlJPmiypq	2015-07-15 15:25:20.139	\N	dx	ou	1151265	\N	\N	\N	f	f	2013-11-12 22:31:29.725	1153235	-------	f	\N	f	f	f	\N	\N	\N	\N	0	DEFAULT	f	\N	NONE
1153246	LLITN coverage last 12 months (malaria)	COLUMN	f	f	\N	\N	\N	f	Z3huviX9EYR	2015-07-15 15:25:20.143	\N	dx	pe	1150127	\N	\N	\N	f	t	2013-11-13 13:23:24.621	1153247	-------	f	\N	f	f	f	\N	\N	\N	\N	0	DEFAULT	f	\N	NONE
1153249	Malaria LLITN	COLUMN	f	f	\N	\N	\N	f	mCzQnPorKts	2015-07-15 15:25:20.147	\N	dx	pe	1150504	\N	\N	\N	f	t	2013-11-13 13:28:56.665	1153250	rw------	f	\N	t	f	f	\N	\N	\N	\N	0	DEFAULT	f	\N	NONE
1452133	ANC: 1st to 3rd visit drop-out rate by orgunit last year	COLUMN	f	t	\N	\N	\N	f	hewtA7a025J	2015-07-15 15:25:20.155	\N	dx	ou	1150127	\N	\N	\N	t	f	2014-04-03 14:05:57.193	1452134	rw------	f	\N	f	f	f	\N	\N	\N	\N	0	DEFAULT	f	\N	NONE
1452163	Delivery: ANC coverage vs PHU delivery rate last year	COLUMN	f	t	\N	\N	\N	f	XGcG2PFIvOU	2015-07-15 15:25:20.164	\N	dx	pe	1150127	\N	\N	\N	f	f	2014-04-03 14:27:46.471	1452164	rw------	f	\N	f	f	f	\N	\N	\N	\N	0	DEFAULT	f	\N	NONE
1452166	Delivery: PHU delivery rates last year	COLUMN	f	t	\N	\N	\N	f	rwKtZHvFCTl	2015-07-15 15:25:20.168	\N	dx	pe	1150127	\N	\N	\N	f	f	2014-04-03 14:29:07.873	1452167	rw------	f	\N	f	f	f	\N	\N	\N	\N	0	DEFAULT	f	\N	NONE
1452169	Delivery: PHU delivery rate (by pop.) by orgunit last year	COLUMN	f	t	\N	\N	\N	f	JTVC50MEbER	2015-07-15 15:25:20.17	\N	dx	ou	1150127	\N	\N	\N	t	f	2014-04-03 14:32:23.599	1452170	rw------	f	\N	f	f	f	\N	\N	\N	\N	0	DEFAULT	f	\N	NONE
1452172	Delivery: Births attended by skilled health personnel by orgunit last year	COLUMN	f	t	\N	\N	\N	f	kGgfOK62oaT	2015-07-15 15:25:20.173	\N	dx	ou	1150127	\N	\N	\N	t	f	2014-04-03 14:33:51.651	1452173	rw------	f	\N	f	f	f	\N	\N	\N	\N	0	DEFAULT	f	\N	NONE
1452182	Immunization: Coverage rates last year	COLUMN	f	t	80	\N	\N	f	HT5CaBKUlKg	2015-07-15 15:25:20.179	\N	ou	dx	1150127	\N	\N	\N	f	f	2014-04-03 14:42:19.038	1452206	rw------	f	\N	f	f	f	\N	\N	\N	\N	0	DEFAULT	f	\N	NONE
1452185	Immunization: Measles coverage <1y by orgunit last year	COLUMN	f	t	\N	\N	\N	f	n8H6oyH7oRM	2015-07-15 15:25:20.181	\N	dx	ou	1150127	\N	\N	\N	t	f	2014-04-03 14:43:22.238	1452186	rw------	f	\N	f	f	f	\N	\N	\N	\N	0	DEFAULT	f	\N	NONE
1452187	Immunization: Fully Immunized <1y by orgunit last year	COLUMN	f	t	\N	\N	\N	f	MCpkrvG1X6a	2015-07-15 15:25:20.184	\N	dx	ou	1150127	\N	\N	\N	t	f	2014-04-03 14:43:54.62	1452188	rw------	f	\N	f	f	f	\N	\N	\N	\N	0	DEFAULT	f	\N	NONE
1452225	Nutrition: Weight for height <70% rate by orgunit last year	COLUMN	f	t	\N	\N	\N	f	d4DpGY24NjY	2015-07-15 15:25:20.189	\N	dx	ou	1150127	\N	\N	\N	t	f	2014-04-06 11:40:35.187	1452226	rw------	f	\N	f	f	f	\N	\N	\N	\N	0	DEFAULT	f	\N	NONE
1452246	DS: Diarrhoea <5y incidence rate (%) by orgunit last year	COLUMN	f	t	\N	\N	\N	f	GyUDZU26wKi	2015-07-15 15:25:20.192	\N	dx	ou	1150127	\N	\N	\N	t	f	2014-04-06 12:15:20.393	1452247	rw------	f	\N	f	f	f	\N	\N	\N	\N	0	DEFAULT	f	\N	NONE
239920	Delivery: Live births in facilities last quarter	COLUMN	f	f	\N	\N	\N	f	kblkoqSA22I	2015-07-15 15:25:20.211	\N	dx	ou	1150127	\N	\N	\N	f	t	2014-11-26 13:18:36.417	239921	rw------	f	\N	f	f	f	\N	\N	\N	\N	0	DEFAULT	f	\N	NONE
345989	Immunization: Std dev doses given last 12 months	COLUMN	f	f	\N	\N	\N	f	OjZxVHWKwi7	2015-07-15 15:25:20.215	\N	dx	pe	1150127	\N	\N	\N	f	t	2015-05-05 15:15:22.554	345990	rw------	f	\N	f	f	f	\N	\N	\N	\N	0	STDDEV	f	\N	NONE
1150174	Immunization: All Vaccines Yearly	COLUMN	f	f	\N	\N	\N	f	INtKDA1VJC0	2015-07-15 15:25:20.232	\N	ou	dx	\N	\N	\N	\N	f	f	2012-11-05 13:01:33.622	1150542	r-------	f	\N	f	f	f	\N	\N	\N	\N	0	DEFAULT	f	\N	NONE
1150797	Burns: Follow-up, new and referrals this year	COLUMN	f	f	\N	\N	\N	f	t9ZKESyHq2R	2015-07-15 15:25:20.236	\N	dx	ou	1150504	\N	\N	\N	f	f	2013-03-19 17:18:37.493	1150798	r-------	f	\N	f	f	f	\N	\N	\N	\N	0	DEFAULT	f	\N	NONE
1151360	Immunization: Doses administered over/under 1y	COLUMN	f	f	\N	\N	\N	f	OAeeTRB4Y9E	2015-07-15 15:25:20.268	\N	dx	YNZyaJHiHYq	1150127	\N	\N	\N	f	t	2013-05-29 13:30:29.543	1151361	rw------	f	\N	f	f	f	\N	\N	\N	\N	0	DEFAULT	f	\N	NONE
1151363	Immunization: Doses administered by location fixed/outreach	COLUMN	f	f	\N	\N	\N	f	LRFDsb8jcG0	2015-07-15 15:25:20.273	\N	dx	fMZEcRHuamy	1150127	\N	\N	\N	f	t	2013-05-29 13:31:17.855	1151364	rw------	f	\N	f	f	f	\N	\N	\N	\N	0	DEFAULT	f	\N	NONE
1151366	ANC: ANC visits by fixed/outreach this year	COLUMN	f	f	\N	\N	\N	f	ZAPz0rpNFNr	2015-07-15 15:25:20.276	\N	dx	fMZEcRHuamy	1150127	\N	\N	\N	f	t	2013-05-29 13:52:01.772	1151367	rw------	f	\N	f	f	f	\N	\N	\N	\N	0	DEFAULT	f	\N	NONE
1151392	Immunization: TT doses given (user org unit)	COLUMN	f	t	\N	\N	\N	f	hVZpTk84Vid	2015-07-15 15:25:20.281	\N	ou	dx	1150127	\N	\N	\N	f	t	2013-05-29 16:51:14.48	1151393	rw------	f	\N	f	f	f	\N	\N	\N	\N	0	DEFAULT	f	\N	NONE
1151484	ANC: Visits by facility type	COLUMN	f	f	\N	\N	\N	f	iRCGbznvyG8	2015-07-15 15:25:20.287	\N	dx	J5jldMd8OHv	1151265	\N	\N	\N	f	t	2013-05-30 11:58:42.023	1151485	rw------	f	\N	f	f	f	\N	\N	\N	\N	0	DEFAULT	f	\N	NONE
1151486	HIV: HIV testing by gender	COLUMN	f	f	\N	\N	\N	f	mKjgsRMJt0H	2015-07-15 15:25:20.291	\N	dx	cX5k9anHEHd	1151265	\N	\N	\N	f	t	2013-05-30 12:02:36.525	1151487	rw------	f	\N	f	f	f	\N	\N	\N	\N	0	DEFAULT	f	\N	NONE
1153676	Staffing: Staff numbers by period	COLUMN	f	f	\N	\N	\N	f	q60WgmVe96y	2015-07-15 15:25:20.3	\N	dx	pe	1150127	\N	\N	\N	f	f	2015-01-21 15:04:01.794	240238	rw------	f	\N	f	f	f	\N	\N	\N	\N	0	DEFAULT	f	\N	NONE
1153861	Commodities: Magnesium sulfate cosumption districts this year	COLUMN	f	f	\N	\N	\N	f	bDhkM10HzKO	2015-07-15 15:25:20.302	\N	dx	ou	1150127	\N	\N	\N	f	f	2014-03-02 21:18:31.757	217297	rw------	f	\N	f	f	f	\N	\N	\N	\N	0	DEFAULT	f	\N	NONE
1153863	Commodities: Zink consumption districts last quarter	COLUMN	f	f	\N	\N	\N	f	ME1zXcf4zvu	2015-07-15 15:25:20.305	\N	dx	ou	1150127	\N	\N	\N	f	f	2014-03-02 21:19:11.347	1153864	rw------	f	\N	f	f	f	\N	\N	\N	\N	0	DEFAULT	f	\N	NONE
1151414	ANC: Visits at facility this year	COLUMN	f	f	\N	\N	\N	f	Uj1deSURTSR	2015-07-15 15:25:20.348	\N	dx	ou	1150127	\N	\N	\N	f	t	2013-05-29 17:40:34.345	1151415	rw------	f	\N	f	f	f	\N	\N	\N	\N	0	DEFAULT	f	\N	NONE
1151349	Malaria: At PHU/community before/after 24 hrs	PIE	f	f	\N	\N	\N	f	oUr17qgbKm1	2015-07-15 15:25:20.26	\N	pe	dx	1150127	\N	\N	\N	f	t	2013-05-29 12:25:00.743	1151350	rw------	f	\N	f	f	f	\N	\N	\N	\N	0	DEFAULT	f	\N	NONE
1151355	Immunization: BCG, Measles, YF doses comparison	PIE	f	f	\N	\N	\N	f	R9A0rvAydpn	2015-07-15 15:25:20.264	\N	ou	dx	1150127	\N	\N	\N	f	t	2013-05-29 12:52:54.56	1151369	rw------	f	\N	f	f	f	\N	\N	\N	\N	0	DEFAULT	f	\N	NONE
1452128	ANC: 4th visit coverage by orgunit last year	PIE	f	f	\N	\N	\N	f	m0iOebfws61	2015-07-15 15:25:20.307	\N	dx	J5jldMd8OHv	1150127	\N	\N	\N	f	f	2014-04-03 14:03:30.128	216820	rw------	f	\N	f	f	f	\N	\N	\N	\N	0	DEFAULT	f	\N	NONE
1452138	ANC: 4+ visits by Facility Type last year	PIE	f	t	\N	\N	\N	f	ZfQMIA4o2s3	2015-07-15 15:25:20.315	\N	dx	J5jldMd8OHv	1150127	\N	\N	\N	f	f	2014-04-03 14:09:05.734	216823	rw------	f	\N	f	f	f	\N	\N	\N	\N	0	DEFAULT	f	\N	NONE
1452209	Immunization: Fully Immunised by Facility Type last year	PIE	f	t	\N	\N	\N	f	jj2y3G88Dg7	2015-07-15 15:25:20.322	\N	dx	J5jldMd8OHv	1150127	\N	\N	\N	f	f	2014-04-06 11:16:53.941	1452210	rw------	f	\N	f	f	f	\N	\N	\N	\N	0	DEFAULT	f	\N	NONE
1452215	Immunization: Doses given by antigen comparison last year	PIE	f	t	\N	\N	\N	f	YkBZNE5KuzJ	2015-07-15 15:25:20.327	\N	pe	dx	1150127	\N	\N	\N	f	f	2014-04-06 11:22:10.67	1452216	rw------	f	\N	f	f	f	\N	\N	\N	\N	0	DEFAULT	f	\N	NONE
860262	ANC: IPT 1 Coverage by districts last 4 quarters	COLUMN	f	f	\N	\N	\N	f	DHPu0vtZ2mW	2016-08-02 11:58:28.517	\N	pe	ou	1150127	\N	\N	\N	f	t	2016-08-02 11:53:53.607	860305	rw------	f	\N	f	f	f	\N	\N	\N	\N	0	DEFAULT	f	\N	NONE
860296	Immunization: Penta 1 coverage by districts last 4 quarters	COLUMN	f	f	\N	\N	\N	f	D3oOqWAM0az	2016-08-02 11:59:36.766	\N	pe	ou	1150127	\N	\N	\N	f	t	2016-08-02 11:57:39.476	860319	rw------	f	\N	f	f	f	\N	\N	\N	\N	0	DEFAULT	f	\N	NONE
860291	Immunization: Measles coverage by districts last 4 quarters	COLUMN	f	f	\N	\N	\N	f	uwtuVAnbt6E	2016-08-02 12:00:50.709	\N	ou	pe	1150127	\N	\N	\N	f	t	2016-08-02 11:57:10.648	860327	rw------	f	\N	f	f	f	\N	\N	\N	\N	0	DEFAULT	f	\N	NONE
860903	Immunization: Fully immunized by districts and last 12 m stacked	STACKED_COLUMN	f	f	\N	\N	\N	f	tZCI4NSC8dc	2016-08-05 18:55:35.712	\N	ou	pe	1150127	\N	\N	\N	f	t	2016-08-05 18:54:22.554	860913	rw------	f	\N	f	f	f	\N	\N	\N	\N	0	DEFAULT	f	\N	NONE
860267	ANC: ANC 3 coverage by districts last 4 quarters	COLUMN	f	f	\N	\N	\N	f	CNkMibmx1Zr	2016-10-10 17:08:15.277	\N	ou	pe	1150127	\N	\N	\N	f	f	2016-10-10 17:08:15.277	861794	rw------	f	\N	f	f	f	\N	\N	\N	\N	0	DEFAULT	f	\N	NONE
861801	ANC: ANC IPT 1 Coverage last 12 months districts	LINE	f	f	\N	\N	\N	f	VffWmdKFHSq	2016-10-10 17:24:49.196	\N	ou	pe	1150127	\N	\N	\N	f	f	2016-10-10 17:24:49.196	861822	\N	f	\N	f	f	f	\N	\N	\N	\N	0	DEFAULT	f	\N	NONE
240034	ANC: ANC 1 coverage all chiefdoms this year	COLUMN	f	f	\N	\N	\N	f	Riq1WfQCaVo	2016-10-11 17:53:15.116	\N	dx	ou	1150127	\N	\N	\N	f	f	2016-10-11 17:53:15.116	862338	rw------	f	ANC 1 coverage all chiefdoms	f	f	f	\N	\N	\N	\N	0	DEFAULT	f	This chart compares the various chiefdom areas across the country. The chart should identify poor performing areas when compared to their peers.	NONE
394754	ANC: 1 and 3 coverage Yearly	BAR	f	t	\N	\N	\N	f	UlfTKWZWV4u	2016-10-11 18:13:17.551	\N	dx	ou	1151265	\N	\N	\N	t	f	2016-10-11 18:13:17.551	862345	rw------	f	\N	f	f	f	\N	\N	\N	\N	0	DEFAULT	f	This chart allows us to compare the performance of districts and allows peers to measure their performance against each other. This implies we can spot poor performers as we all as top performers.	NONE
862431	ANC: ANC visits 1-3	COLUMN	f	f	\N	\N	\N	f	TXEuSlSmajM	2016-10-12 13:43:51.865	\N	dx	pe	1150127	\N	\N	\N	f	f	2016-10-12 13:43:51.865	862498	\N	f	ANC: ANC visits 1-3	f	f	f	\N	\N	\N	\N	0	DEFAULT	f	ANC: ANC visits 1-3	NONE
862505	ANC: LLITN coverage	COLUMN	f	f	\N	\N	\N	f	zxkAyDSS2Ok	2016-10-12 13:45:01.232	\N	dx	pe	1150127	\N	\N	\N	f	f	2016-10-12 13:45:01.232	862512	rw------	f	LLITN coverage	f	f	f	\N	\N	\N	\N	0	DEFAULT	f	LLITN coverage at ANC	NONE
889216	ANC: ANC by area this year	COLUMN	f	f	\N	\N	\N	f	St1UOGb1JlY	2017-01-27 17:57:54.981	\N	dx	uIuxlbV1vRT	1150127	\N	\N	\N	f	t	2017-01-27 17:57:54.981	889217	rw------	f	\N	f	f	f	\N	\N	\N	\N	0	DEFAULT	f	ANC by area this year	NONE
\.


