858836	nI9mPOEvHXU	\N	2016-04-26 19:48:57.928	2017-05-23 00:32:15.478	858834	SHOWWARNING	\N	\N	Please enter a street name followed by a number	\N	423909	1150457	\N	\N	1151265	\N
423976	FBn9BggFMPK	\N	2015-10-15 15:12:57.588	2017-05-23 00:32:32.496	423974	SHOWWARNING	\N	\N	The womans age is outside the normal range. With the birthdate entered, the age would be:	d2:yearsBetween(A{born},V{current_date})	423909	423722	\N	\N	1151265	\N
858843	vBtnt6XvYXO	\N	2016-04-26 20:04:07.485	2017-05-23 00:32:43.648	858841	SHOWWARNING	\N	\N	Valid mobile number can not contain 555	\N	\N	423725	\N	\N	1151265	\N
423958	actonrw1055	\N	2015-10-15 14:49:19.714	2017-05-23 00:29:24.465	423957	HIDEFIELD	423665	\N	\N	\N	\N	\N	\N	\N	1151265	\N
423446	IrmpncBsypT	\N	2015-08-09 16:01:44.913	2017-05-23 00:29:24.468	423444	HIDEFIELD	423442	\N	\N	\N	240850	\N	\N	\N	1151265	\N
423423	iwGAWKvStTt	\N	2015-08-07 18:41:55.21	2017-05-23 00:29:24.468	423421	HIDEFIELD	391382	\N	\N	\N	\N	\N	\N	\N	1151265	\N
423973	actonrw1063	\N	2015-10-15 14:50:24.046	2017-05-23 00:29:24.458	423965	HIDEFIELD	423625	\N	\N	\N	\N	\N	\N	\N	1151265	\N
423971	actonrw1062	\N	2015-10-15 14:50:23.793	2017-05-23 00:29:24.459	423965	HIDEFIELD	423628	\N	\N	\N	\N	\N	\N	\N	1151265	\N
423972	actonrw1064	\N	2015-10-15 14:50:23.923	2017-05-23 00:29:24.459	423965	HIDEFIELD	423629	\N	\N	\N	\N	\N	\N	\N	1151265	\N
423970	actonrw1065	\N	2015-10-15 14:50:23.572	2017-05-23 00:29:24.46	423966	HIDEFIELD	423609	\N	\N	\N	\N	\N	\N	\N	1151265	\N
423968	actonrw1066	\N	2015-10-15 14:50:19.52	2017-05-23 00:29:24.461	423967	HIDEFIELD	423651	\N	\N	\N	\N	\N	\N	\N	1151265	\N
423940	hLOEPUPseEv	\N	2015-10-15 11:37:03.694	2017-05-23 00:29:24.466	423938	HIDEFIELD	423675	\N	Smoking cessation counselling field is blanked, because the woman is no longer a registered smoker.	\N	423909	\N	\N	\N	1151265	\N
424470	hwgyO59SSxu	\N	2016-04-12 15:55:03.082	2017-05-23 00:29:24.455	424468	HIDEFIELD	423675	\N	\N	\N	\N	\N	\N	\N	1151265	\N
423959	actonrw1056	\N	2015-10-15 14:49:24.799	2017-05-23 00:29:24.464	423957	HIDEFIELD	423656	\N	\N	\N	\N	\N	\N	\N	1151265	\N
423960	actonrw1057	\N	2015-10-15 14:49:25.128	2017-05-23 00:29:24.464	423957	HIDEFIELD	423684	\N	\N	\N	\N	\N	\N	\N	1151265	\N
423961	actonrw1058	\N	2015-10-15 14:49:25.253	2017-05-23 00:29:24.463	423957	HIDEFIELD	423679	\N	\N	\N	\N	\N	\N	\N	1151265	\N
424473	suS9GnraCx1	\N	2016-04-12 15:57:19.288	2017-05-23 00:29:24.455	424471	SHOWWARNING	423699	\N	Hemoglobin value lower than normal	\N	\N	\N	\N	\N	1151265	\N
424475	UUwZWS8uirn	\N	2016-04-12 15:58:55.041	2017-05-23 00:29:24.454	424474	SHOWERROR	423699	\N	The hemoglobin value cannot be above 99	\N	\N	\N	\N	\N	1151265	\N
862937	hQuM6JLPOuD	\N	2017-01-20 13:29:16.262	2017-05-23 00:29:24.452	862935	HIDEPROGRAMSTAGE	\N	\N	\N	\N	423909	\N	\N	423732	1151265	\N
890622	yRqMFO2T3eb	\N	2017-05-22 15:16:38.633	2017-05-23 00:29:24.448	890628	DISPLAYTEXT	\N	feedback	Medicine allergy: 	#{othermedicineallergy}	\N	\N	\N	\N	1151265	\N
423459	v434s5YPDcP	\N	2015-09-14 21:17:41.033	2017-05-23 00:29:24.467	423457	SHOWWARNING	391382	\N	It is suggested that an explanation is provided when the Apgar score is below 4	\N	\N	\N	\N	\N	1151265	\N
890625	oWFO8OtGZDX	\N	2017-05-22 14:03:02.387	2017-05-23 00:29:24.451	890626	ASSIGN	890618	\N	\N	d2:weeksBetween(#{lmp},V{event_date})	\N	\N	\N	\N	1151265	\N
423986	yKMX3B7kqbg	\N	2015-10-15 15:47:11.27	2017-05-23 00:29:24.456	423985	SHOWERROR	423619	\N	LMP date entered is after the date of the antenatal care visit.	\N	423909	\N	\N	\N	1151265	\N
423984	tAiSv1t9qpL	\N	2015-10-15 15:38:07.996	2017-05-23 00:29:24.457	423980	SHOWWARNING	423669	\N	The clinically estimated due date is less than 250 days after LMP date	\N	423909	\N	\N	\N	1151265	\N
423983	PBSFvWH2j4K	\N	2015-10-15 15:38:07.95	2017-05-23 00:29:24.457	423980	SHOWWARNING	423619	\N	The LMP date entered is less than 250 days before the clinically estimated due date.	\N	423909	\N	\N	\N	1151265	\N
423461	t944GaMzNbs	\N	2015-09-14 22:20:33.543	2017-05-23 00:29:24.466	423460	SHOWERROR	2006098	\N	If the apgar score is below zero, an explanation must be provided.	\N	\N	\N	\N	\N	1151265	\N
423963	actonrw1059	\N	2015-10-15 14:49:25.711	2017-05-23 00:29:24.462	423957	HIDEFIELD	423658	\N	\N	\N	\N	\N	\N	\N	1151265	\N
423962	actonrw1060	\N	2015-10-15 14:49:25.559	2017-05-23 00:29:24.463	423957	HIDEFIELD	423657	\N	\N	\N	\N	\N	\N	\N	1151265	\N
423969	actonrw1061	\N	2015-10-15 14:50:23.354	2017-05-23 00:29:24.461	423964	HIDEFIELD	423652	\N	\N	\N	\N	\N	\N	\N	1151265	\N
423948	kwvLf4fwVOz	\N	2015-10-15 11:51:28.088	2017-05-23 00:29:24.465	423941	HIDEFIELD	423716	\N	The field for treatment with acetylcalecylic acid was blanked, because the patient is no longer eligable for this treatment according to the guidelines.	\N	423909	\N	\N	\N	1151265	\N
890624	cZPGCpHkl7x	\N	2017-05-22 14:36:55.617	2017-05-23 00:29:24.45	890627	DISPLAYKEYVALUEPAIR	\N	indicators	Gest. age	d2:concatenate(d2:weeksBetween(#{lmp}, V{current_date}), '+', d2:modulus(d2:daysBetween(#{lmp}, V{current_date}), 7))	\N	\N	\N	\N	1151265	\N
890623	jlchLk7spuu	\N	2017-05-22 14:54:50.067	2017-05-23 00:29:24.449	890629	DISPLAYTEXT	\N	feedback	Penicillin allergy	\N	\N	\N	\N	\N	1151265	\N
910406	x8WTOVMnE0g	\N	2018-06-08 22:38:56.267	2018-08-27 19:07:52.921	910405	HIDESECTION	\N	\N	\N	\N	910392	\N	\N	\N	1151265	\N
910407	d9dB4tQWZka	\N	2018-06-08 22:38:38.53	2018-08-27 19:07:52.921	910404	HIDESECTION	\N	\N	\N	\N	910389	\N	\N	\N	1151265	\N
910408	ZxA4tbBK7y6	\N	2018-06-08 22:38:18.976	2018-08-27 19:07:52.921	910403	HIDESECTION	\N	\N	\N	\N	910393	\N	\N	\N	1151265	\N
910409	aSKg6HVXBMP	\N	2018-06-08 22:37:34.086	2018-08-27 19:07:52.921	910402	HIDESECTION	\N	\N	\N	\N	910388	\N	\N	\N	1151265	\N
910410	TNL5nLGT2Jv	\N	2018-06-08 22:37:17.096	2018-08-27 19:07:52.921	910401	HIDESECTION	\N	\N	\N	\N	910395	\N	\N	\N	1151265	\N
910411	JkIaHCPIYHO	\N	2018-06-08 22:36:55.05	2018-08-27 19:07:52.921	910400	HIDESECTION	\N	\N	\N	\N	910390	\N	\N	\N	1151265	\N
\.


